{
"skeleton": {
	"hash": "h4hB+R3rhTU",
	"spine": "4.0.55",
	"x": -3223.73,
	"y": -2393.53,
	"width": 6613.6,
	"height": 5319.23,
	"images": "../../images/",
	"audio": "C:/Users/latis/Pictures/illustrations/RedRain/Slot-Journey To The West/Icons/Icons/Jingu Bar 2"
},
"bones": [
	{ "name": "root" },
	{ "name": "bone", "parent": "root", "scaleX": 4.5, "scaleY": 4.5 },
	{ "name": "F2", "parent": "bone", "x": 186.37, "y": -122.85, "shearX": -180 },
	{ "name": "F1", "parent": "bone", "x": -220.93, "y": -100.19 },
	{ "name": "JinguBar2", "parent": "root" }
],
"slots": [
	{ "name": "FullWildBG", "bone": "root", "attachment": "FullWildBG" },
	{ "name": "JinguBar2", "bone": "JinguBar2", "attachment": "JinguBar" },
	{ "name": "Edge", "bone": "bone", "attachment": "Edge", "blend": "additive" },
	{ "name": "S1", "bone": "F1", "attachment": "S1" },
	{ "name": "S2", "bone": "F2", "attachment": "S1" },
	{ "name": "F1", "bone": "F1", "attachment": "F1" },
	{ "name": "F2", "bone": "F2", "attachment": "F1" }
],
"skins": [
	{
		"name": "default",
		"attachments": {
			"Edge": {
				"Edge": {
					"type": "mesh",
					"uvs": [ 0.63252, 0, 0.63698, 0.04167, 0.68303, 0.86928, 0.66026, 1, 0.35064, 1, 0.32086, 0.87873, 0.36555, 0.0105, 0.3812, 0 ],
					"triangles": [ 7, 0, 1, 6, 7, 1, 5, 6, 1, 5, 1, 2, 4, 5, 2, 3, 4, 2 ],
					"vertices": [ 108.42, 452.35, 112.01, 408.07, 149.08, -262.26, 130.75, -401.16, -118.49, -401.16, -142.47, -272.3, -106.49, 441.19, -93.9, 452.35 ],
					"hull": 8,
					"edges": [ 0, 14, 0, 2, 2, 4, 4, 6, 6, 8, 8, 10, 10, 12, 12, 14 ],
					"width": 805,
					"height": 805
				}
			},
			"F1": {
				"F1": {
					"type": "mesh",
					"uvs": [ 1, 1, 0, 1, 0, 0, 1, 0 ],
					"triangles": [ 1, 2, 3, 1, 3, 0 ],
					"vertices": [ 572.03, -405.42, -232.97, -405.42, -232.97, 399.58, 572.03, 399.58 ],
					"hull": 4,
					"edges": [ 0, 2, 2, 4, 4, 6, 0, 6 ],
					"width": 805,
					"height": 805
				},
				"F2": {
					"type": "mesh",
					"uvs": [ 1, 1, 0, 1, 0, 0, 1, 0 ],
					"triangles": [ 1, 2, 3, 1, 3, 0 ],
					"vertices": [ 572.03, -405.42, -232.97, -405.42, -232.97, 399.58, 572.03, 399.58 ],
					"hull": 4,
					"edges": [ 0, 2, 2, 4, 4, 6, 0, 6 ],
					"width": 805,
					"height": 805
				},
				"F3": {
					"type": "mesh",
					"uvs": [ 1, 1, 0, 1, 0, 0, 1, 0 ],
					"triangles": [ 1, 2, 3, 1, 3, 0 ],
					"vertices": [ 572.03, -405.42, -232.97, -405.42, -232.97, 399.58, 572.03, 399.58 ],
					"hull": 4,
					"edges": [ 0, 2, 2, 4, 4, 6, 0, 6 ],
					"width": 805,
					"height": 805
				},
				"F4": {
					"type": "mesh",
					"uvs": [ 1, 1, 0, 1, 0, 0, 1, 0 ],
					"triangles": [ 1, 2, 3, 1, 3, 0 ],
					"vertices": [ 572.03, -405.42, -232.97, -405.42, -232.97, 399.58, 572.03, 399.58 ],
					"hull": 4,
					"edges": [ 0, 2, 2, 4, 4, 6, 0, 6 ],
					"width": 805,
					"height": 805
				},
				"F5": {
					"type": "mesh",
					"uvs": [ 1, 1, 0, 1, 0, 0, 1, 0 ],
					"triangles": [ 1, 2, 3, 1, 3, 0 ],
					"vertices": [ 572.03, -405.42, -232.97, -405.42, -232.97, 399.58, 572.03, 399.58 ],
					"hull": 4,
					"edges": [ 0, 2, 2, 4, 4, 6, 0, 6 ],
					"width": 805,
					"height": 805
				},
				"F6": {
					"type": "mesh",
					"uvs": [ 1, 1, 0, 1, 0, 0, 1, 0 ],
					"triangles": [ 1, 2, 3, 1, 3, 0 ],
					"vertices": [ 572.03, -405.42, -232.97, -405.42, -232.97, 399.58, 572.03, 399.58 ],
					"hull": 4,
					"edges": [ 0, 2, 2, 4, 4, 6, 0, 6 ],
					"width": 805,
					"height": 805
				},
				"F7": {
					"type": "mesh",
					"uvs": [ 1, 1, 0, 1, 0, 0, 1, 0 ],
					"triangles": [ 1, 2, 3, 1, 3, 0 ],
					"vertices": [ 572.03, -405.42, -232.97, -405.42, -232.97, 399.58, 572.03, 399.58 ],
					"hull": 4,
					"edges": [ 0, 2, 2, 4, 4, 6, 0, 6 ],
					"width": 805,
					"height": 805
				},
				"F8": {
					"type": "mesh",
					"uvs": [ 1, 1, 0, 1, 0, 0, 1, 0 ],
					"triangles": [ 1, 2, 3, 1, 3, 0 ],
					"vertices": [ 572.03, -405.42, -232.97, -405.42, -232.97, 399.58, 572.03, 399.58 ],
					"hull": 4,
					"edges": [ 0, 2, 2, 4, 4, 6, 0, 6 ],
					"width": 805,
					"height": 805
				},
				"F9": {
					"type": "mesh",
					"uvs": [ 1, 1, 0, 1, 0, 0, 1, 0 ],
					"triangles": [ 1, 2, 3, 1, 3, 0 ],
					"vertices": [ 572.03, -405.42, -232.97, -405.42, -232.97, 399.58, 572.03, 399.58 ],
					"hull": 4,
					"edges": [ 0, 2, 2, 4, 4, 6, 0, 6 ],
					"width": 805,
					"height": 805
				},
				"F10": {
					"type": "mesh",
					"uvs": [ 1, 1, 0, 1, 0, 0, 1, 0 ],
					"triangles": [ 1, 2, 3, 1, 3, 0 ],
					"vertices": [ 572.03, -405.42, -232.97, -405.42, -232.97, 399.58, 572.03, 399.58 ],
					"hull": 4,
					"edges": [ 0, 2, 2, 4, 4, 6, 0, 6 ],
					"width": 805,
					"height": 805
				},
				"F11": {
					"type": "mesh",
					"uvs": [ 1, 1, 0, 1, 0, 0, 1, 0 ],
					"triangles": [ 1, 2, 3, 1, 3, 0 ],
					"vertices": [ 572.03, -405.42, -232.97, -405.42, -232.97, 399.58, 572.03, 399.58 ],
					"hull": 4,
					"edges": [ 0, 2, 2, 4, 4, 6, 0, 6 ],
					"width": 805,
					"height": 805
				},
				"F12": {
					"type": "mesh",
					"uvs": [ 1, 1, 0, 1, 0, 0, 1, 0 ],
					"triangles": [ 1, 2, 3, 1, 3, 0 ],
					"vertices": [ 572.03, -405.42, -232.97, -405.42, -232.97, 399.58, 572.03, 399.58 ],
					"hull": 4,
					"edges": [ 0, 2, 2, 4, 4, 6, 0, 6 ],
					"width": 805,
					"height": 805
				},
				"F13": {
					"type": "mesh",
					"uvs": [ 1, 1, 0, 1, 0, 0, 1, 0 ],
					"triangles": [ 1, 2, 3, 1, 3, 0 ],
					"vertices": [ 572.03, -405.42, -232.97, -405.42, -232.97, 399.58, 572.03, 399.58 ],
					"hull": 4,
					"edges": [ 0, 2, 2, 4, 4, 6, 0, 6 ],
					"width": 805,
					"height": 805
				},
				"F14": {
					"type": "mesh",
					"uvs": [ 1, 1, 0, 1, 0, 0, 1, 0 ],
					"triangles": [ 1, 2, 3, 1, 3, 0 ],
					"vertices": [ 572.03, -405.42, -232.97, -405.42, -232.97, 399.58, 572.03, 399.58 ],
					"hull": 4,
					"edges": [ 0, 2, 2, 4, 4, 6, 0, 6 ],
					"width": 805,
					"height": 805
				},
				"F15": {
					"type": "mesh",
					"uvs": [ 1, 1, 0, 1, 0, 0, 1, 0 ],
					"triangles": [ 1, 2, 3, 1, 3, 0 ],
					"vertices": [ 572.03, -405.42, -232.97, -405.42, -232.97, 399.58, 572.03, 399.58 ],
					"hull": 4,
					"edges": [ 0, 2, 2, 4, 4, 6, 0, 6 ],
					"width": 805,
					"height": 805
				}
			},
			"F2": {
				"F1": {
					"type": "mesh",
					"uvs": [ 1, 1, 0, 1, 0, 0, 1, 0 ],
					"triangles": [ 1, 2, 3, 1, 3, 0 ],
					"vertices": [ 531.36, -405.42, -273.64, -405.42, -273.64, 399.58, 531.36, 399.58 ],
					"hull": 4,
					"edges": [ 0, 2, 2, 4, 4, 6, 0, 6 ],
					"width": 805,
					"height": 805
				},
				"F2": {
					"type": "mesh",
					"uvs": [ 1, 1, 0, 1, 0, 0, 1, 0 ],
					"triangles": [ 1, 2, 3, 1, 3, 0 ],
					"vertices": [ 531.36, -405.42, -273.64, -405.42, -273.64, 399.58, 531.36, 399.58 ],
					"hull": 4,
					"edges": [ 0, 2, 2, 4, 4, 6, 0, 6 ],
					"width": 805,
					"height": 805
				},
				"F3": {
					"type": "mesh",
					"uvs": [ 1, 1, 0, 1, 0, 0, 1, 0 ],
					"triangles": [ 1, 2, 3, 1, 3, 0 ],
					"vertices": [ 531.36, -405.42, -273.64, -405.42, -273.64, 399.58, 531.36, 399.58 ],
					"hull": 4,
					"edges": [ 0, 2, 2, 4, 4, 6, 0, 6 ],
					"width": 805,
					"height": 805
				},
				"F4": {
					"type": "mesh",
					"uvs": [ 1, 1, 0, 1, 0, 0, 1, 0 ],
					"triangles": [ 1, 2, 3, 1, 3, 0 ],
					"vertices": [ 531.36, -405.42, -273.64, -405.42, -273.64, 399.58, 531.36, 399.58 ],
					"hull": 4,
					"edges": [ 0, 2, 2, 4, 4, 6, 0, 6 ],
					"width": 805,
					"height": 805
				},
				"F5": {
					"type": "mesh",
					"uvs": [ 1, 1, 0, 1, 0, 0, 1, 0 ],
					"triangles": [ 1, 2, 3, 1, 3, 0 ],
					"vertices": [ 531.36, -405.42, -273.64, -405.42, -273.64, 399.58, 531.36, 399.58 ],
					"hull": 4,
					"edges": [ 0, 2, 2, 4, 4, 6, 0, 6 ],
					"width": 805,
					"height": 805
				},
				"F6": {
					"type": "mesh",
					"uvs": [ 1, 1, 0, 1, 0, 0, 1, 0 ],
					"triangles": [ 1, 2, 3, 1, 3, 0 ],
					"vertices": [ 531.36, -405.42, -273.64, -405.42, -273.64, 399.58, 531.36, 399.58 ],
					"hull": 4,
					"edges": [ 0, 2, 2, 4, 4, 6, 0, 6 ],
					"width": 805,
					"height": 805
				},
				"F7": {
					"type": "mesh",
					"uvs": [ 1, 1, 0, 1, 0, 0, 1, 0 ],
					"triangles": [ 1, 2, 3, 1, 3, 0 ],
					"vertices": [ 531.36, -405.42, -273.64, -405.42, -273.64, 399.58, 531.36, 399.58 ],
					"hull": 4,
					"edges": [ 0, 2, 2, 4, 4, 6, 0, 6 ],
					"width": 805,
					"height": 805
				},
				"F8": {
					"type": "mesh",
					"uvs": [ 1, 1, 0, 1, 0, 0, 1, 0 ],
					"triangles": [ 1, 2, 3, 1, 3, 0 ],
					"vertices": [ 531.36, -405.42, -273.64, -405.42, -273.64, 399.58, 531.36, 399.58 ],
					"hull": 4,
					"edges": [ 0, 2, 2, 4, 4, 6, 0, 6 ],
					"width": 805,
					"height": 805
				},
				"F9": {
					"type": "mesh",
					"uvs": [ 1, 1, 0, 1, 0, 0, 1, 0 ],
					"triangles": [ 1, 2, 3, 1, 3, 0 ],
					"vertices": [ 531.36, -405.42, -273.64, -405.42, -273.64, 399.58, 531.36, 399.58 ],
					"hull": 4,
					"edges": [ 0, 2, 2, 4, 4, 6, 0, 6 ],
					"width": 805,
					"height": 805
				},
				"F10": {
					"type": "mesh",
					"uvs": [ 1, 1, 0, 1, 0, 0, 1, 0 ],
					"triangles": [ 1, 2, 3, 1, 3, 0 ],
					"vertices": [ 531.36, -405.42, -273.64, -405.42, -273.64, 399.58, 531.36, 399.58 ],
					"hull": 4,
					"edges": [ 0, 2, 2, 4, 4, 6, 0, 6 ],
					"width": 805,
					"height": 805
				},
				"F11": {
					"type": "mesh",
					"uvs": [ 1, 1, 0, 1, 0, 0, 1, 0 ],
					"triangles": [ 1, 2, 3, 1, 3, 0 ],
					"vertices": [ 531.36, -405.42, -273.64, -405.42, -273.64, 399.58, 531.36, 399.58 ],
					"hull": 4,
					"edges": [ 0, 2, 2, 4, 4, 6, 0, 6 ],
					"width": 805,
					"height": 805
				},
				"F12": {
					"type": "mesh",
					"uvs": [ 1, 1, 0, 1, 0, 0, 1, 0 ],
					"triangles": [ 1, 2, 3, 1, 3, 0 ],
					"vertices": [ 531.36, -405.42, -273.64, -405.42, -273.64, 399.58, 531.36, 399.58 ],
					"hull": 4,
					"edges": [ 0, 2, 2, 4, 4, 6, 0, 6 ],
					"width": 805,
					"height": 805
				},
				"F13": {
					"type": "mesh",
					"uvs": [ 1, 1, 0, 1, 0, 0, 1, 0 ],
					"triangles": [ 1, 2, 3, 1, 3, 0 ],
					"vertices": [ 531.36, -405.42, -273.64, -405.42, -273.64, 399.58, 531.36, 399.58 ],
					"hull": 4,
					"edges": [ 0, 2, 2, 4, 4, 6, 0, 6 ],
					"width": 805,
					"height": 805
				},
				"F14": {
					"type": "mesh",
					"uvs": [ 1, 1, 0, 1, 0, 0, 1, 0 ],
					"triangles": [ 1, 2, 3, 1, 3, 0 ],
					"vertices": [ 531.36, -405.42, -273.64, -405.42, -273.64, 399.58, 531.36, 399.58 ],
					"hull": 4,
					"edges": [ 0, 2, 2, 4, 4, 6, 0, 6 ],
					"width": 805,
					"height": 805
				},
				"F15": {
					"type": "mesh",
					"uvs": [ 1, 1, 0, 1, 0, 0, 1, 0 ],
					"triangles": [ 1, 2, 3, 1, 3, 0 ],
					"vertices": [ 531.36, -405.42, -273.64, -405.42, -273.64, 399.58, 531.36, 399.58 ],
					"hull": 4,
					"edges": [ 0, 2, 2, 4, 4, 6, 0, 6 ],
					"width": 805,
					"height": 805
				}
			},
			"FullWildBG": {
				"FullWildBG": {
					"type": "mesh",
					"uvs": [ 1, 1, 0, 1, 0, 0, 1, 0 ],
					"triangles": [ 1, 2, 3, 1, 3, 0 ],
					"vertices": [ 601.11, -1990.92, -601.11, -1990.92, -601.11, 2033.65, 601.11, 2033.65 ],
					"hull": 4,
					"edges": [ 0, 2, 2, 4, 4, 6, 0, 6 ],
					"width": 1220,
					"height": 4000
				}
			},
			"JinguBar2": {
				"JinguBar": { "width": 1220, "height": 4000 }
			},
			"S1": {
				"S1": {
					"type": "mesh",
					"uvs": [ 1, 1, 0, 1, 0, 0, 1, 0 ],
					"triangles": [ 1, 2, 3, 1, 3, 0 ],
					"vertices": [ 556.23, -389.62, -248.77, -389.62, -248.77, 415.38, 556.23, 415.38 ],
					"hull": 4,
					"edges": [ 0, 2, 2, 4, 4, 6, 0, 6 ],
					"width": 805,
					"height": 805
				},
				"S2": {
					"type": "mesh",
					"uvs": [ 1, 1, 0, 1, 0, 0, 1, 0 ],
					"triangles": [ 1, 2, 3, 1, 3, 0 ],
					"vertices": [ 572.03, -405.42, -232.97, -405.42, -232.97, 399.58, 572.03, 399.58 ],
					"hull": 4,
					"edges": [ 0, 2, 2, 4, 4, 6, 0, 6 ],
					"width": 805,
					"height": 805
				},
				"S3": { "type": "linkedmesh", "parent": "S1", "width": 805, "height": 805 },
				"S4": { "type": "linkedmesh", "parent": "S1", "width": 805, "height": 805 },
				"S5": { "type": "linkedmesh", "parent": "S1", "width": 805, "height": 805 },
				"S6": { "type": "linkedmesh", "parent": "S1", "width": 805, "height": 805 }
			},
			"S2": {
				"S1": {
					"type": "mesh",
					"uvs": [ 1, 1, 0, 1, 0, 0, 1, 0 ],
					"triangles": [ 1, 2, 3, 1, 3, 0 ],
					"vertices": [ 501.77, -394.36, -303.23, -394.36, -303.23, 410.64, 501.77, 410.64 ],
					"hull": 4,
					"edges": [ 0, 2, 2, 4, 4, 6, 0, 6 ],
					"width": 805,
					"height": 805
				},
				"S2": { "type": "linkedmesh", "parent": "S1", "width": 805, "height": 805 },
				"S3": { "type": "linkedmesh", "parent": "S1", "width": 805, "height": 805 },
				"S4": { "type": "linkedmesh", "parent": "S1", "width": 805, "height": 805 },
				"S5": { "type": "linkedmesh", "parent": "S1", "width": 805, "height": 805 },
				"S6": { "type": "linkedmesh", "parent": "S1", "width": 805, "height": 805 }
			}
		}
	}
],
"animations": {
	"Exit": {
		"slots": {
			"Edge": {
				"attachment": [
					{ "name": null }
				]
			},
			"F1": {
				"attachment": [
					{ "name": null }
				]
			},
			"F2": {
				"attachment": [
					{ "name": null }
				]
			},
			"S1": {
				"attachment": [
					{ "name": null }
				]
			},
			"S2": {
				"attachment": [
					{ "name": null }
				]
			}
		},
		"bones": {
			"JinguBar2": {
				"translate": [
					{},
					{ "time": 0.1333, "y": 3564.25, "curve": "stepped" },
					{ "time": 0.6667, "y": 3564.25 }
				]
			}
		},
		"deform": {
			"default": {
				"FullWildBG": {
					"FullWildBG": [
						{
							"offset": 1,
							"vertices": [ -3.76302, 0, -3.76302, 0, -3.76302, 0, -3.76302 ]
						},
						{
							"time": 0.1333,
							"vertices": [ -263.80258, 3562.6284, 263.80252, 3562.6284, 263.80252, 3562.6284, -263.80258, 3562.6284 ],
							"curve": "stepped"
						},
						{
							"time": 0.6667,
							"vertices": [ -263.80258, 3562.6284, 263.80252, 3562.6284, 263.80252, 3562.6284, -263.80258, 3562.6284 ]
						}
					]
				},
				"S1": {
					"S1": [
						{}
					]
				},
				"S2": {
					"S1": [
						{}
					]
				}
			}
		}
	},
	"Win": {
		"slots": {
			"Edge": {
				"attachment": [
					{ "time": 0.5333, "name": null },
					{ "time": 0.6667, "name": null }
				]
			},
			"F1": {
				"attachment": [
					{ "time": 0.0333, "name": "F2" },
					{ "time": 0.0667, "name": "F3" },
					{ "time": 0.1, "name": "F4" },
					{ "time": 0.1333, "name": "F5" },
					{ "time": 0.1667, "name": "F6" },
					{ "time": 0.2667, "name": "F7" },
					{ "time": 0.3, "name": "F8" },
					{ "time": 0.3333, "name": "F9" },
					{ "time": 0.3667, "name": "F10" },
					{ "time": 0.4, "name": "F11" },
					{ "time": 0.4333, "name": "F12" },
					{ "time": 0.4667, "name": "F13" },
					{ "time": 0.5, "name": "F14" },
					{ "time": 0.6, "name": "F15" },
					{ "time": 0.6333, "name": null }
				]
			},
			"F2": {
				"attachment": [
					{ "name": "F2" },
					{ "time": 0.0333, "name": "F3" },
					{ "time": 0.1, "name": "F4" },
					{ "time": 0.1333, "name": "F5" },
					{ "time": 0.1667, "name": "F6" },
					{ "time": 0.2, "name": "F7" },
					{ "time": 0.2333, "name": "F8" },
					{ "time": 0.3333, "name": "F9" },
					{ "time": 0.3667, "name": "F10" },
					{ "time": 0.4, "name": "F11" },
					{ "time": 0.4333, "name": "F12" },
					{ "time": 0.4667, "name": "F13" },
					{ "time": 0.5, "name": "F14" },
					{ "time": 0.5667, "name": "F15" },
					{ "time": 0.6, "name": null }
				]
			},
			"S1": {
				"attachment": [
					{ "name": null },
					{ "time": 0.5, "name": "S3" },
					{ "time": 0.5667, "name": "S4" },
					{ "time": 0.6333, "name": "S5" },
					{ "time": 0.7, "name": "S6" },
					{ "time": 0.7667, "name": null }
				]
			},
			"S2": {
				"attachment": [
					{ "name": null },
					{ "time": 0.3667, "name": "S1" },
					{ "time": 0.4333, "name": "S3" },
					{ "time": 0.5, "name": "S4" },
					{ "time": 0.5667, "name": "S5" },
					{ "time": 0.6333, "name": "S6" },
					{ "time": 0.7, "name": null }
				]
			}
		},
		"bones": {
			"bone": {
				"translate": [
					{
						"y": 895.69,
						"curve": [ 0.111, 0, 0.2, 0, 0.111, 895.69, 0.2, 34.62 ]
					},
					{ "time": 0.2333, "y": 34.62, "curve": "stepped" },
					{ "time": 0.8, "y": 34.62 }
				],
				"scale": [
					{ "time": 0.8, "x": 1.11, "y": 1.11 }
				]
			},
			"JinguBar2": {
				"translate": [
					{ "y": 816.25 },
					{ "time": 0.3333 }
				]
			}
		},
		"deform": {
			"default": {
				"Edge": {
					"Edge": [
						{
							"vertices": [ -25.83234, 0, -26.71207, 2.0E-5, -35.79859, -2.0E-5, -31.3051, -2.0E-5, 29.77827, -2.0E-5, 35.65333, -2.0E-5, 26.83709, -3.0E-5, 23.75074 ]
						},
						{
							"time": 0.4,
							"vertices": [ -34.74127, -2.0E-5, -35.92447, -2.0E-5, -48.14548, 0, -42.10191, 0, 40.05274, 0, 47.95445, 0, 36.09697, -2.0E-5, 31.94596 ]
						},
						{
							"time": 0.6667,
							"vertices": [ -104.82442, -2.0E-5, -108.39446, -2.0E-5, -145.26874, 0, -127.03362, 0, 120.85062, 0, 144.69246, 0, 108.91497, -2.0E-5, 96.39014 ]
						}
					]
				},
				"FullWildBG": {
					"FullWildBG": [
						{
							"vertices": [ -263.80258, 814.6282, 263.80252, 814.6282, 263.80252, 814.62823, -263.80258, 814.62823 ]
						},
						{
							"time": 0.3333,
							"offset": 1,
							"vertices": [ -3.76302, 0, -3.76302, 0, -3.76302, 0, -3.76302 ]
						}
					]
				}
			}
		}
	}
}
}