%YAML 1.1
%TAG !u! tag:unity3d.com,2011:
--- !u!114 &11400000
MonoBehaviour:
  m_ObjectHideFlags: 0
  m_CorrespondingSourceObject: {fileID: 0}
  m_PrefabInstance: {fileID: 0}
  m_PrefabAsset: {fileID: 0}
  m_GameObject: {fileID: 0}
  m_Enabled: 1
  m_EditorHideFlags: 0
  m_Script: {fileID: 11500000, guid: f1b3b4b945939a54ea0b23d3396115fb, type: 3}
  m_Name: BaJie_SkeletonData
  m_EditorClassIdentifier: 
  atlasAssets:
  - {fileID: 11400000, guid: 11180d5f3264fec409a97e9f8867e3c9, type: 2}
  scale: 0.01
  skeletonJSON: {fileID: 4900000, guid: 238bcbb8098c6bd49b183e003b702d71, type: 3}
  isUpgradingBlendModeMaterials: 0
  blendModeMaterials:
    requiresBlendModeMaterials: 1
    applyAdditiveMaterial: 0
    additiveMaterials: []
    multiplyMaterials:
    - pageName: BaJie.png
      material: {fileID: 2100000, guid: fbd55451f581bfa48a1608aa5bcb5097, type: 2}
    screenMaterials: []
  skeletonDataModifiers: []
  fromAnimation: []
  toAnimation: []
  duration: []
  defaultMix: 0.2
  controller: {fileID: 0}
