%YAML 1.1
%TAG !u! tag:unity3d.com,2011:
--- !u!114 &11400000
MonoBehaviour:
  m_ObjectHideFlags: 0
  m_CorrespondingSourceObject: {fileID: 0}
  m_PrefabInstance: {fileID: 0}
  m_PrefabAsset: {fileID: 0}
  m_GameObject: {fileID: 0}
  m_Enabled: 1
  m_EditorHideFlags: 0
  m_Script: {fileID: 11500000, guid: a6b194f808b1af6499c93410e504af42, type: 3}
  m_Name: SanZang_Atlas
  m_EditorClassIdentifier: 
  atlasFile: {fileID: 4900000, guid: df31ca1fc5ea7b5459000ec5f809a8f6, type: 3}
  materials:
  - {fileID: 2100000, guid: 269769b4212cc9a4589886c580245e64, type: 2}
