Wild.png
size:4096,2048
filter:Linear,Linear
pma:true
1
bounds:2,2,499,1002
offsets:0,0,502,1002
10
bounds:503,2,499,1002
offsets:0,0,502,1002
2
bounds:504,1011,499,1002
offsets:0,0,502,1002
3
bounds:1004,7,499,1002
offsets:0,0,502,1002
4
bounds:1005,1011,499,1002
offsets:0,0,502,1002
5
bounds:1505,7,499,1002
offsets:0,0,502,1002
6
bounds:1506,1011,499,1002
offsets:0,0,502,1002
7
bounds:2006,7,499,1002
offsets:0,0,502,1002
8
bounds:2007,1011,499,1002
offsets:0,0,502,1002
9
bounds:2507,7,499,1002
offsets:0,0,502,1002
BG
bounds:2,1006,1007,500
offsets:9,8,1026,514
rotate:90
Sparkles
bounds:2508,1012,1001,508
offsets:0,0,1026,514
rotate:90
WILD
bounds:3008,137,873,502
offsets:76,9,1026,514
rotate:90
YY L
bounds:3512,1817,196,196
offsets:2,152,1026,514
YY R
bounds:3710,1817,196,196
offsets:830,152,1026,514
