{
"skeleton": {
	"hash": "X7ACtX+vocg",
	"spine": "4.0.45",
	"x": -482.15,
	"y": -264.57,
	"width": 964,
	"height": 490.5,
	"images": "./images/",
	"audio": "C:/Users/latis/Pictures/illustrations/RedRain/Slot-Journey To The West/Icons/Icons/Tongkat"
},
"bones": [
	{ "name": "root" },
	{ "name": "Layer 0", "parent": "root", "length": 889.7, "rotation": 159.57, "x": 432.9, "y": -211.68 }
],
"slots": [
	{ "name": "Layer 0", "bone": "Layer 0", "attachment": "Layer 0" },
	{ "name": "Layer 2", "bone": "Layer 0", "attachment": "1", "blend": "additive" },
	{ "name": "Layer 3", "bone": "Layer 0", "attachment": "1", "blend": "additive" }
],
"skins": [
	{
		"name": "default",
		"attachments": {
			"Layer 0": {
				"Layer 0": { "x": 475.31, "y": -35.38, "rotation": -159.56, "width": 964, "height": 477 }
			},
			"Layer 2": {
				"1": {
					"type": "mesh",
					"uvs": [ 1, 1, 0.67197, 0.99999, 0.34001, 0.99999, 0, 1, 0, 0, 0.08837, 0, 0.20607, 0, 0.32457, 0, 0.41425, 0, 0.55439, 0, 0.67197, 0, 0.85345, 0, 1, 0 ],
					"triangles": [ 1, 9, 10, 2, 7, 8, 2, 8, 9, 1, 2, 9, 3, 4, 5, 6, 7, 2, 3, 5, 6, 2, 3, 6, 11, 12, 0, 1, 10, 11, 0, 1, 11 ],
					"vertices": [ -26.08, -28.27, -44.95, -15.84, -51.47, 4.05, -49.09, 38.16, 841.22, 124.61, 800.84, 90.15, 773.47, 45.85, 764.28, 1.28, 766.83, -20.95, 781.05, -62.86, 798.8, -90.29, 822.99, -114.19, 867.26, -129.68 ],
					"hull": 13,
					"edges": [ 6, 8, 0, 24, 4, 6, 0, 2, 2, 4, 20, 22, 22, 24, 18, 20, 14, 16, 16, 18, 12, 14, 8, 10, 10, 12 ],
					"width": 502,
					"height": 1002
				},
				"2": { "type": "linkedmesh", "parent": "1", "deform": false, "width": 502, "height": 1002 },
				"3": { "type": "linkedmesh", "parent": "1", "deform": false, "width": 502, "height": 1002 },
				"4": { "type": "linkedmesh", "parent": "1", "deform": false, "width": 502, "height": 1002 },
				"5": { "type": "linkedmesh", "parent": "1", "deform": false, "width": 502, "height": 1002 },
				"6": { "type": "linkedmesh", "parent": "1", "deform": false, "width": 502, "height": 1002 },
				"7": { "type": "linkedmesh", "parent": "1", "deform": false, "width": 502, "height": 1002 },
				"8": { "type": "linkedmesh", "parent": "1", "deform": false, "width": 502, "height": 1002 },
				"9": { "type": "linkedmesh", "parent": "1", "deform": false, "width": 502, "height": 1002 },
				"10": { "type": "linkedmesh", "parent": "1", "deform": false, "width": 502, "height": 1002 }
			},
			"Layer 3": {
				"1": {
					"type": "mesh",
					"uvs": [ 1, 0.49471, 1, 1, 0.84655, 1, 0.67197, 0.99999, 0.51302, 0.99999, 0.34001, 0.99999, 0.15756, 1, 0, 1, 0, 0.4747, 0, 0, 0.16288, 0, 0.3246, 0, 0.49916, 0, 0.65847, 0, 0.8424, 0, 1, 0, 0.50195, 0.48474, 0.23122, 0.47933, 0.79056, 0.49052 ],
					"triangles": [ 8, 9, 10, 17, 10, 11, 8, 10, 17, 16, 12, 13, 11, 12, 16, 17, 11, 16, 18, 13, 14, 16, 13, 18, 14, 15, 0, 18, 14, 0, 3, 16, 18, 4, 16, 3, 5, 17, 16, 5, 16, 4, 2, 18, 0, 3, 18, 2, 6, 8, 17, 6, 17, 5, 7, 8, 6, 2, 0, 1 ],
					"vertices": [ 805.37, -96.01, 775.15, -44.25, 767.72, -7.4, 774.15, 30.61, 787.07, 65.9, 821.9, 110.34, 840.42, 121.56, 875.73, 121.17, 921.67, 102.11, 960.08, 40.72, 969.29, -0.24, 965.76, -33.78, 956.56, -63.18, 934.27, -96.37, 907.12, -119.83, 866.24, -129.28, 855.12, 10.63, 897.03, 51.4, 826.71, -39.78 ],
					"hull": 16,
					"edges": [ 10, 12, 12, 14, 6, 8, 8, 10, 2, 4, 4, 6, 26, 28, 28, 30, 22, 24, 24, 26, 18, 20, 20, 22, 14, 16, 16, 18, 2, 0, 0, 30, 16, 34, 34, 32, 0, 36, 36, 32 ],
					"width": 502,
					"height": 1002
				},
				"2": { "type": "linkedmesh", "parent": "1", "deform": false, "width": 502, "height": 1002 },
				"3": { "type": "linkedmesh", "parent": "1", "deform": false, "width": 502, "height": 1002 },
				"4": { "type": "linkedmesh", "parent": "1", "deform": false, "width": 502, "height": 1002 },
				"5": { "type": "linkedmesh", "parent": "1", "deform": false, "width": 502, "height": 1002 },
				"6": { "type": "linkedmesh", "parent": "1", "deform": false, "width": 502, "height": 1002 },
				"7": { "type": "linkedmesh", "parent": "1", "deform": false, "width": 502, "height": 1002 },
				"8": { "type": "linkedmesh", "parent": "1", "deform": false, "width": 502, "height": 1002 },
				"9": { "type": "linkedmesh", "parent": "1", "deform": false, "width": 502, "height": 1002 },
				"10": { "type": "linkedmesh", "parent": "1", "deform": false, "width": 502, "height": 1002 }
			}
		}
	}
],
"animations": {
	"Win": {
		"slots": {
			"Layer 2": {
				"attachment": [
					{ "name": null },
					{ "time": 0.5333, "name": null },
					{ "time": 0.6, "name": "1" },
					{ "time": 0.6333, "name": "2" },
					{ "time": 0.6667, "name": "3" },
					{ "time": 0.7, "name": "4" },
					{ "time": 0.7333, "name": "5" },
					{ "time": 0.7667, "name": "6" },
					{ "time": 0.8, "name": "7" },
					{ "time": 0.8333, "name": "8" },
					{ "time": 0.8667, "name": "9" },
					{ "time": 0.9, "name": "10" },
					{ "time": 0.9333, "name": null }
				]
			},
			"Layer 3": {
				"attachment": [
					{ "name": null },
					{ "time": 0.0667, "name": null },
					{ "time": 0.2, "name": "1" },
					{ "time": 0.2667, "name": "2" },
					{ "time": 0.3, "name": "3" },
					{ "time": 0.3333, "name": "4" },
					{ "time": 0.3667, "name": "5" },
					{ "time": 0.4, "name": "6" },
					{ "time": 0.4333, "name": "7" },
					{ "time": 0.4667, "name": "8" },
					{ "time": 0.5, "name": "9" },
					{ "time": 0.5333, "name": "10" },
					{ "time": 0.5667, "name": null },
					{ "time": 0.6667, "name": null }
				]
			}
		},
		"bones": {
			"Layer 0": {
				"rotate": [
					{
						"curve": [ 0.222, 0, 0.445, -10.41 ]
					},
					{
						"time": 0.6667,
						"value": -4.92,
						"curve": [ 0.699, -4.12, 0.693, 21.66 ]
					},
					{
						"time": 0.8,
						"value": 11.02,
						"curve": [ 1.018, -10.79, 1.6, 0 ]
					},
					{ "time": 2 }
				],
				"scale": [
					{
						"curve": [ 0.267, 1, 0.533, 1, 0.267, 1, 0.533, 1.008 ]
					},
					{
						"time": 0.8,
						"y": 1.008,
						"curve": [ 1.2, 1, 1.6, 1, 1.2, 1.008, 1.6, 1 ]
					},
					{ "time": 2 }
				]
			}
		}
	}
}
}