CrescentMoon.png
size:4096,2048
filter:Linear,Linear
pma:true
1
bounds:2,2,492,995
offsets:0,7,502,1002
10
bounds:496,2,492,995
offsets:0,7,502,1002
2
bounds:518,1002,492,995
offsets:0,7,502,1002
3
bounds:990,5,492,995
offsets:0,7,502,1002
4
bounds:1012,1002,492,995
offsets:0,7,502,1002
5
bounds:1484,5,492,995
offsets:0,7,502,1002
6
bounds:1506,1002,492,995
offsets:0,7,502,1002
7
bounds:1978,5,492,995
offsets:0,7,502,1002
8
bounds:2000,1002,492,995
offsets:0,7,502,1002
9
bounds:2472,5,492,995
offsets:0,7,502,1002
Layer 0
bounds:2,999,998,514
rotate:90
