%YAML 1.1
%TAG !u! tag:unity3d.com,2011:
--- !u!114 &11400000
MonoBehaviour:
  m_ObjectHideFlags: 0
  m_CorrespondingSourceObject: {fileID: 0}
  m_PrefabInstance: {fileID: 0}
  m_PrefabAsset: {fileID: 0}
  m_GameObject: {fileID: 0}
  m_Enabled: 1
  m_EditorHideFlags: 0
  m_Script: {fileID: 11500000, guid: a6b194f808b1af6499c93410e504af42, type: 3}
  m_Name: CrescentMoon_Atlas
  m_EditorClassIdentifier: 
  atlasFile: {fileID: 4900000, guid: 41782acd5468251419a32b6883bbecba, type: 3}
  materials:
  - {fileID: 2100000, guid: dd66b709142918b4aa7af6ed79206e58, type: 2}
