{
	"Paylines" : [
		[0,1,2,3,4], [0,1,2,3,9], [0,1,2,3,14], [0,1,2,3,19], [0,1,2,3,24], [0,1,2,8,4], [0,1,2,8,9], [0,1,2,8,14], [0,1,2,8,19], [0,1,2,8,24],
		[0,1,2,13,4], [0,1,2,13,9], [0,1,2,13,14], [0,1,2,13,19], [0,1,2,13,24], [0,1,2,18,4], [0,1,2,18,9], [0,1,2,18,14], [0,1,2,18,19], [0,1,2,18,24],
		[0,1,2,23,4], [0,1,2,23,9], [0,1,2,23,14], [0,1,2,23,19], [0,1,2,23,24], [0,1,7,3,4], [0,1,7,3,9], [0,1,7,3,14], [0,1,7,3,19], [0,1,7,3,24],
		[0,1,7,8,4], [0,1,7,8,9], [0,1,7,8,14], [0,1,7,8,19], [0,1,7,8,24], [0,1,7,13,4], [0,1,7,13,9], [0,1,7,13,14], [0,1,7,13,19], [0,1,7,13,24],
		[0,1,7,18,4], [0,1,7,18,9], [0,1,7,18,14], [0,1,7,18,19], [0,1,7,18,24], [0,1,7,23,4], [0,1,7,23,9], [0,1,7,23,14], [0,1,7,23,19], [0,1,7,23,24],
		[0,1,12,3,4], [0,1,12,3,9], [0,1,12,3,14], [0,1,12,3,19], [0,1,12,3,24], [0,1,12,8,4], [0,1,12,8,9], [0,1,12,8,14], [0,1,12,8,19], [0,1,12,8,24],
		[0,1,12,13,4], [0,1,12,13,9], [0,1,12,13,14], [0,1,12,13,19], [0,1,12,13,24], [0,1,12,18,4], [0,1,12,18,9], [0,1,12,18,14], [0,1,12,18,19], [0,1,12,18,24],
		[0,1,12,23,4], [0,1,12,23,9], [0,1,12,23,14], [0,1,12,23,19], [0,1,12,23,24], [0,1,17,3,4], [0,1,17,3,9], [0,1,17,3,14], [0,1,17,3,19], [0,1,17,3,24],
		[0,1,17,8,4], [0,1,17,8,9], [0,1,17,8,14], [0,1,17,8,19], [0,1,17,8,24], [0,1,17,13,4], [0,1,17,13,9], [0,1,17,13,14], [0,1,17,13,19], [0,1,17,13,24],
		[0,1,17,18,4], [0,1,17,18,9], [0,1,17,18,14], [0,1,17,18,19], [0,1,17,18,24], [0,1,17,23,4], [0,1,17,23,9], [0,1,17,23,14], [0,1,17,23,19], [0,1,17,23,24],
		[0,1,22,3,4], [0,1,22,3,9], [0,1,22,3,14], [0,1,22,3,19], [0,1,22,3,24], [0,1,22,8,4], [0,1,22,8,9], [0,1,22,8,14], [0,1,22,8,19], [0,1,22,8,24],
		[0,1,22,13,4], [0,1,22,13,9], [0,1,22,13,14], [0,1,22,13,19], [0,1,22,13,24], [0,1,22,18,4], [0,1,22,18,9], [0,1,22,18,14], [0,1,22,18,19], [0,1,22,18,24],
		[0,1,22,23,4], [0,1,22,23,9], [0,1,22,23,14], [0,1,22,23,19], [0,1,22,23,24],
		[0,6,2,3,4], [0,6,2,3,9], [0,6,2,3,14], [0,6,2,3,19], [0,6,2,3,24], [0,6,2,8,4], [0,6,2,8,9], [0,6,2,8,14], [0,6,2,8,19], [0,6,2,8,24],
		[0,6,2,13,4], [0,6,2,13,9], [0,6,2,13,14], [0,6,2,13,19], [0,6,2,13,24], [0,6,2,18,4], [0,6,2,18,9], [0,6,2,18,14], [0,6,2,18,19], [0,6,2,18,24],
		[0,6,2,23,4], [0,6,2,23,9], [0,6,2,23,14], [0,6,2,23,19], [0,6,2,23,24], [0,6,7,3,4], [0,6,7,3,9], [0,6,7,3,14], [0,6,7,3,19], [0,6,7,3,24],
		[0,6,7,8,4], [0,6,7,8,9], [0,6,7,8,14], [0,6,7,8,19], [0,6,7,8,24], [0,6,7,13,4], [0,6,7,13,9], [0,6,7,13,14], [0,6,7,13,19], [0,6,7,13,24],
		[0,6,7,18,4], [0,6,7,18,9], [0,6,7,18,14], [0,6,7,18,19], [0,6,7,18,24], [0,6,7,23,4], [0,6,7,23,9], [0,6,7,23,14], [0,6,7,23,19], [0,6,7,23,24],
		[0,6,12,3,4], [0,6,12,3,9], [0,6,12,3,14], [0,6,12,3,19], [0,6,12,3,24], [0,6,12,8,4], [0,6,12,8,9], [0,6,12,8,14], [0,6,12,8,19], [0,6,12,8,24],
		[0,6,12,13,4], [0,6,12,13,9], [0,6,12,13,14], [0,6,12,13,19], [0,6,12,13,24], [0,6,12,18,4], [0,6,12,18,9], [0,6,12,18,14], [0,6,12,18,19], [0,6,12,18,24],
		[0,6,12,23,4], [0,6,12,23,9], [0,6,12,23,14], [0,6,12,23,19], [0,6,12,23,24], [0,6,17,3,4], [0,6,17,3,9], [0,6,17,3,14], [0,6,17,3,19], [0,6,17,3,24],
		[0,6,17,8,4], [0,6,17,8,9], [0,6,17,8,14], [0,6,17,8,19], [0,6,17,8,24], [0,6,17,13,4], [0,6,17,13,9], [0,6,17,13,14], [0,6,17,13,19], [0,6,17,13,24],
		[0,6,17,18,4], [0,6,17,18,9], [0,6,17,18,14], [0,6,17,18,19], [0,6,17,18,24], [0,6,17,23,4], [0,6,17,23,9], [0,6,17,23,14], [0,6,17,23,19], [0,6,17,23,24],
		[0,6,22,3,4], [0,6,22,3,9], [0,6,22,3,14], [0,6,22,3,19], [0,6,22,3,24], [0,6,22,8,4], [0,6,22,8,9], [0,6,22,8,14], [0,6,22,8,19], [0,6,22,8,24],
		[0,6,22,13,4], [0,6,22,13,9], [0,6,22,13,14], [0,6,22,13,19], [0,6,22,13,24], [0,6,22,18,4], [0,6,22,18,9], [0,6,22,18,14], [0,6,22,18,19], [0,6,22,18,24],
		[0,6,22,23,4], [0,6,22,23,9], [0,6,22,23,14], [0,6,22,23,19], [0,6,22,23,24],
		[0,11,2,3,4], [0,11,2,3,9], [0,11,2,3,14], [0,11,2,3,19], [0,11,2,3,24], [0,11,2,8,4], [0,11,2,8,9], [0,11,2,8,14], [0,11,2,8,19], [0,11,2,8,24],
		[0,11,2,13,4], [0,11,2,13,9], [0,11,2,13,14], [0,11,2,13,19], [0,11,2,13,24], [0,11,2,18,4], [0,11,2,18,9], [0,11,2,18,14], [0,11,2,18,19], [0,11,2,18,24],
		[0,11,2,23,4], [0,11,2,23,9], [0,11,2,23,14], [0,11,2,23,19], [0,11,2,23,24], [0,11,7,3,4], [0,11,7,3,9], [0,11,7,3,14], [0,11,7,3,19], [0,11,7,3,24],
		[0,11,7,8,4], [0,11,7,8,9], [0,11,7,8,14], [0,11,7,8,19], [0,11,7,8,24], [0,11,7,13,4], [0,11,7,13,9], [0,11,7,13,14], [0,11,7,13,19], [0,11,7,13,24],
		[0,11,7,18,4], [0,11,7,18,9], [0,11,7,18,14], [0,11,7,18,19], [0,11,7,18,24], [0,11,7,23,4], [0,11,7,23,9], [0,11,7,23,14], [0,11,7,23,19], [0,11,7,23,24],
		[0,11,12,3,4], [0,11,12,3,9], [0,11,12,3,14], [0,11,12,3,19], [0,11,12,3,24], [0,11,12,8,4], [0,11,12,8,9], [0,11,12,8,14], [0,11,12,8,19], [0,11,12,8,24],
		[0,11,12,13,4], [0,11,12,13,9], [0,11,12,13,14], [0,11,12,13,19], [0,11,12,13,24], [0,11,12,18,4], [0,11,12,18,9], [0,11,12,18,14], [0,11,12,18,19], [0,11,12,18,24],
		[0,11,12,23,4], [0,11,12,23,9], [0,11,12,23,14], [0,11,12,23,19], [0,11,12,23,24], [0,11,17,3,4], [0,11,17,3,9], [0,11,17,3,14], [0,11,17,3,19], [0,11,17,3,24],
		[0,11,17,8,4], [0,11,17,8,9], [0,11,17,8,14], [0,11,17,8,19], [0,11,17,8,24], [0,11,17,13,4], [0,11,17,13,9], [0,11,17,13,14], [0,11,17,13,19], [0,11,17,13,24],
		[0,11,17,18,4], [0,11,17,18,9], [0,11,17,18,14], [0,11,17,18,19], [0,11,17,18,24], [0,11,17,23,4], [0,11,17,23,9], [0,11,17,23,14], [0,11,17,23,19], [0,11,17,23,24],
		[0,11,22,3,4], [0,11,22,3,9], [0,11,22,3,14], [0,11,22,3,19], [0,11,22,3,24], [0,11,22,8,4], [0,11,22,8,9], [0,11,22,8,14], [0,11,22,8,19], [0,11,22,8,24],
		[0,11,22,13,4], [0,11,22,13,9], [0,11,22,13,14], [0,11,22,13,19], [0,11,22,13,24], [0,11,22,18,4], [0,11,22,18,9], [0,11,22,18,14], [0,11,22,18,19], [0,11,22,18,24],
		[0,11,22,23,4], [0,11,22,23,9], [0,11,22,23,14], [0,11,22,23,19], [0,11,22,23,24],
		[0,16,2,3,4], [0,16,2,3,9], [0,16,2,3,14], [0,16,2,3,19], [0,16,2,3,24], [0,16,2,8,4], [0,16,2,8,9], [0,16,2,8,14], [0,16,2,8,19], [0,16,2,8,24],
		[0,16,2,13,4], [0,16,2,13,9], [0,16,2,13,14], [0,16,2,13,19], [0,16,2,13,24], [0,16,2,18,4], [0,16,2,18,9], [0,16,2,18,14], [0,16,2,18,19], [0,16,2,18,24],
		[0,16,2,23,4], [0,16,2,23,9], [0,16,2,23,14], [0,16,2,23,19], [0,16,2,23,24], [0,16,7,3,4], [0,16,7,3,9], [0,16,7,3,14], [0,16,7,3,19], [0,16,7,3,24],
		[0,16,7,8,4], [0,16,7,8,9], [0,16,7,8,14], [0,16,7,8,19], [0,16,7,8,24], [0,16,7,13,4], [0,16,7,13,9], [0,16,7,13,14], [0,16,7,13,19], [0,16,7,13,24],
		[0,16,7,18,4], [0,16,7,18,9], [0,16,7,18,14], [0,16,7,18,19], [0,16,7,18,24], [0,16,7,23,4], [0,16,7,23,9], [0,16,7,23,14], [0,16,7,23,19], [0,16,7,23,24],
		[0,16,12,3,4], [0,16,12,3,9], [0,16,12,3,14], [0,16,12,3,19], [0,16,12,3,24], [0,16,12,8,4], [0,16,12,8,9], [0,16,12,8,14], [0,16,12,8,19], [0,16,12,8,24],
		[0,16,12,13,4], [0,16,12,13,9], [0,16,12,13,14], [0,16,12,13,19], [0,16,12,13,24], [0,16,12,18,4], [0,16,12,18,9], [0,16,12,18,14], [0,16,12,18,19], [0,16,12,18,24],
		[0,16,12,23,4], [0,16,12,23,9], [0,16,12,23,14], [0,16,12,23,19], [0,16,12,23,24], [0,16,17,3,4], [0,16,17,3,9], [0,16,17,3,14], [0,16,17,3,19], [0,16,17,3,24],
		[0,16,17,8,4], [0,16,17,8,9], [0,16,17,8,14], [0,16,17,8,19], [0,16,17,8,24], [0,16,17,13,4], [0,16,17,13,9], [0,16,17,13,14], [0,16,17,13,19], [0,16,17,13,24],
		[0,16,17,18,4], [0,16,17,18,9], [0,16,17,18,14], [0,16,17,18,19], [0,16,17,18,24], [0,16,17,23,4], [0,16,17,23,9], [0,16,17,23,14], [0,16,17,23,19], [0,16,17,23,24],
		[0,16,22,3,4], [0,16,22,3,9], [0,16,22,3,14], [0,16,22,3,19], [0,16,22,3,24], [0,16,22,8,4], [0,16,22,8,9], [0,16,22,8,14], [0,16,22,8,19], [0,16,22,8,24],
		[0,16,22,13,4], [0,16,22,13,9], [0,16,22,13,14], [0,16,22,13,19], [0,16,22,13,24], [0,16,22,18,4], [0,16,22,18,9], [0,16,22,18,14], [0,16,22,18,19], [0,16,22,18,24],
		[0,16,22,23,4], [0,16,22,23,9], [0,16,22,23,14], [0,16,22,23,19], [0,16,22,23,24],
		[0,21,2,3,4], [0,21,2,3,9], [0,21,2,3,14], [0,21,2,3,19], [0,21,2,3,24], [0,21,2,8,4], [0,21,2,8,9], [0,21,2,8,14], [0,21,2,8,19], [0,21,2,8,24],
		[0,21,2,13,4], [0,21,2,13,9], [0,21,2,13,14], [0,21,2,13,19], [0,21,2,13,24], [0,21,2,18,4], [0,21,2,18,9], [0,21,2,18,14], [0,21,2,18,19], [0,21,2,18,24],
		[0,21,2,23,4], [0,21,2,23,9], [0,21,2,23,14], [0,21,2,23,19], [0,21,2,23,24], [0,21,7,3,4], [0,21,7,3,9], [0,21,7,3,14], [0,21,7,3,19], [0,21,7,3,24],
		[0,21,7,8,4], [0,21,7,8,9], [0,21,7,8,14], [0,21,7,8,19], [0,21,7,8,24], [0,21,7,13,4], [0,21,7,13,9], [0,21,7,13,14], [0,21,7,13,19], [0,21,7,13,24],
		[0,21,7,18,4], [0,21,7,18,9], [0,21,7,18,14], [0,21,7,18,19], [0,21,7,18,24], [0,21,7,23,4], [0,21,7,23,9], [0,21,7,23,14], [0,21,7,23,19], [0,21,7,23,24],
		[0,21,12,3,4], [0,21,12,3,9], [0,21,12,3,14], [0,21,12,3,19], [0,21,12,3,24], [0,21,12,8,4], [0,21,12,8,9], [0,21,12,8,14], [0,21,12,8,19], [0,21,12,8,24],
		[0,21,12,13,4], [0,21,12,13,9], [0,21,12,13,14], [0,21,12,13,19], [0,21,12,13,24], [0,21,12,18,4], [0,21,12,18,9], [0,21,12,18,14], [0,21,12,18,19], [0,21,12,18,24],
		[0,21,12,23,4], [0,21,12,23,9], [0,21,12,23,14], [0,21,12,23,19], [0,21,12,23,24], [0,21,17,3,4], [0,21,17,3,9], [0,21,17,3,14], [0,21,17,3,19], [0,21,17,3,24],
		[0,21,17,8,4], [0,21,17,8,9], [0,21,17,8,14], [0,21,17,8,19], [0,21,17,8,24], [0,21,17,13,4], [0,21,17,13,9], [0,21,17,13,14], [0,21,17,13,19], [0,21,17,13,24],
		[0,21,17,18,4], [0,21,17,18,9], [0,21,17,18,14], [0,21,17,18,19], [0,21,17,18,24], [0,21,17,23,4], [0,21,17,23,9], [0,21,17,23,14], [0,21,17,23,19], [0,21,17,23,24],
		[0,21,22,3,4], [0,21,22,3,9], [0,21,22,3,14], [0,21,22,3,19], [0,21,22,3,24], [0,21,22,8,4], [0,21,22,8,9], [0,21,22,8,14], [0,21,22,8,19], [0,21,22,8,24],
		[0,21,22,13,4], [0,21,22,13,9], [0,21,22,13,14], [0,21,22,13,19], [0,21,22,13,24], [0,21,22,18,4], [0,21,22,18,9], [0,21,22,18,14], [0,21,22,18,19], [0,21,22,18,24],
		[0,21,22,23,4], [0,21,22,23,9], [0,21,22,23,14], [0,21,22,23,19], [0,21,22,23,24],

		[5,1,2,3,4], [5,1,2,3,9], [5,1,2,3,14], [5,1,2,3,19], [5,1,2,3,24], [5,1,2,8,4], [5,1,2,8,9], [5,1,2,8,14], [5,1,2,8,19], [5,1,2,8,24],
		[5,1,2,13,4], [5,1,2,13,9], [5,1,2,13,14], [5,1,2,13,19], [5,1,2,13,24], [5,1,2,18,4], [5,1,2,18,9], [5,1,2,18,14], [5,1,2,18,19], [5,1,2,18,24],
		[5,1,2,23,4], [5,1,2,23,9], [5,1,2,23,14], [5,1,2,23,19], [5,1,2,23,24], [5,1,7,3,4], [5,1,7,3,9], [5,1,7,3,14], [5,1,7,3,19], [5,1,7,3,24],
		[5,1,7,8,4], [5,1,7,8,9], [5,1,7,8,14], [5,1,7,8,19], [5,1,7,8,24], [5,1,7,13,4], [5,1,7,13,9], [5,1,7,13,14], [5,1,7,13,19], [5,1,7,13,24],
		[5,1,7,18,4], [5,1,7,18,9], [5,1,7,18,14], [5,1,7,18,19], [5,1,7,18,24], [5,1,7,23,4], [5,1,7,23,9], [5,1,7,23,14], [5,1,7,23,19], [5,1,7,23,24],
		[5,1,12,3,4], [5,1,12,3,9], [5,1,12,3,14], [5,1,12,3,19], [5,1,12,3,24], [5,1,12,8,4], [5,1,12,8,9], [5,1,12,8,14], [5,1,12,8,19], [5,1,12,8,24],
		[5,1,12,13,4], [5,1,12,13,9], [5,1,12,13,14], [5,1,12,13,19], [5,1,12,13,24], [5,1,12,18,4], [5,1,12,18,9], [5,1,12,18,14], [5,1,12,18,19], [5,1,12,18,24],
		[5,1,12,23,4], [5,1,12,23,9], [5,1,12,23,14], [5,1,12,23,19], [5,1,12,23,24], [5,1,17,3,4], [5,1,17,3,9], [5,1,17,3,14], [5,1,17,3,19], [5,1,17,3,24],
		[5,1,17,8,4], [5,1,17,8,9], [5,1,17,8,14], [5,1,17,8,19], [5,1,17,8,24], [5,1,17,13,4], [5,1,17,13,9], [5,1,17,13,14], [5,1,17,13,19], [5,1,17,13,24],
		[5,1,17,18,4], [5,1,17,18,9], [5,1,17,18,14], [5,1,17,18,19], [5,1,17,18,24], [5,1,17,23,4], [5,1,17,23,9], [5,1,17,23,14], [5,1,17,23,19], [5,1,17,23,24],
		[5,1,22,3,4], [5,1,22,3,9], [5,1,22,3,14], [5,1,22,3,19], [5,1,22,3,24], [5,1,22,8,4], [5,1,22,8,9], [5,1,22,8,14], [5,1,22,8,19], [5,1,22,8,24],
		[5,1,22,13,4], [5,1,22,13,9], [5,1,22,13,14], [5,1,22,13,19], [5,1,22,13,24], [5,1,22,18,4], [5,1,22,18,9], [5,1,22,18,14], [5,1,22,18,19], [5,1,22,18,24],
		[5,1,22,23,4], [5,1,22,23,9], [5,1,22,23,14], [5,1,22,23,19], [5,1,22,23,24],
		[5,6,2,3,4], [5,6,2,3,9], [5,6,2,3,14], [5,6,2,3,19], [5,6,2,3,24], [5,6,2,8,4], [5,6,2,8,9], [5,6,2,8,14], [5,6,2,8,19], [5,6,2,8,24],
		[5,6,2,13,4], [5,6,2,13,9], [5,6,2,13,14], [5,6,2,13,19], [5,6,2,13,24], [5,6,2,18,4], [5,6,2,18,9], [5,6,2,18,14], [5,6,2,18,19], [5,6,2,18,24],
		[5,6,2,23,4], [5,6,2,23,9], [5,6,2,23,14], [5,6,2,23,19], [5,6,2,23,24], [5,6,7,3,4], [5,6,7,3,9], [5,6,7,3,14], [5,6,7,3,19], [5,6,7,3,24],
		[5,6,7,8,4], [5,6,7,8,9], [5,6,7,8,14], [5,6,7,8,19], [5,6,7,8,24], [5,6,7,13,4], [5,6,7,13,9], [5,6,7,13,14], [5,6,7,13,19], [5,6,7,13,24],
		[5,6,7,18,4], [5,6,7,18,9], [5,6,7,18,14], [5,6,7,18,19], [5,6,7,18,24], [5,6,7,23,4], [5,6,7,23,9], [5,6,7,23,14], [5,6,7,23,19], [5,6,7,23,24],
		[5,6,12,3,4], [5,6,12,3,9], [5,6,12,3,14], [5,6,12,3,19], [5,6,12,3,24], [5,6,12,8,4], [5,6,12,8,9], [5,6,12,8,14], [5,6,12,8,19], [5,6,12,8,24],
		[5,6,12,13,4], [5,6,12,13,9], [5,6,12,13,14], [5,6,12,13,19], [5,6,12,13,24], [5,6,12,18,4], [5,6,12,18,9], [5,6,12,18,14], [5,6,12,18,19], [5,6,12,18,24],
		[5,6,12,23,4], [5,6,12,23,9], [5,6,12,23,14], [5,6,12,23,19], [5,6,12,23,24], [5,6,17,3,4], [5,6,17,3,9], [5,6,17,3,14], [5,6,17,3,19], [5,6,17,3,24],
		[5,6,17,8,4], [5,6,17,8,9], [5,6,17,8,14], [5,6,17,8,19], [5,6,17,8,24], [5,6,17,13,4], [5,6,17,13,9], [5,6,17,13,14], [5,6,17,13,19], [5,6,17,13,24],
		[5,6,17,18,4], [5,6,17,18,9], [5,6,17,18,14], [5,6,17,18,19], [5,6,17,18,24], [5,6,17,23,4], [5,6,17,23,9], [5,6,17,23,14], [5,6,17,23,19], [5,6,17,23,24],
		[5,6,22,3,4], [5,6,22,3,9], [5,6,22,3,14], [5,6,22,3,19], [5,6,22,3,24], [5,6,22,8,4], [5,6,22,8,9], [5,6,22,8,14], [5,6,22,8,19], [5,6,22,8,24],
		[5,6,22,13,4], [5,6,22,13,9], [5,6,22,13,14], [5,6,22,13,19], [5,6,22,13,24], [5,6,22,18,4], [5,6,22,18,9], [5,6,22,18,14], [5,6,22,18,19], [5,6,22,18,24],
		[5,6,22,23,4], [5,6,22,23,9], [5,6,22,23,14], [5,6,22,23,19], [5,6,22,23,24],
		[5,11,2,3,4], [5,11,2,3,9], [5,11,2,3,14], [5,11,2,3,19], [5,11,2,3,24], [5,11,2,8,4], [5,11,2,8,9], [5,11,2,8,14], [5,11,2,8,19], [5,11,2,8,24],
		[5,11,2,13,4], [5,11,2,13,9], [5,11,2,13,14], [5,11,2,13,19], [5,11,2,13,24], [5,11,2,18,4], [5,11,2,18,9], [5,11,2,18,14], [5,11,2,18,19], [5,11,2,18,24],
		[5,11,2,23,4], [5,11,2,23,9], [5,11,2,23,14], [5,11,2,23,19], [5,11,2,23,24], [5,11,7,3,4], [5,11,7,3,9], [5,11,7,3,14], [5,11,7,3,19], [5,11,7,3,24],
		[5,11,7,8,4], [5,11,7,8,9], [5,11,7,8,14], [5,11,7,8,19], [5,11,7,8,24], [5,11,7,13,4], [5,11,7,13,9], [5,11,7,13,14], [5,11,7,13,19], [5,11,7,13,24],
		[5,11,7,18,4], [5,11,7,18,9], [5,11,7,18,14], [5,11,7,18,19], [5,11,7,18,24], [5,11,7,23,4], [5,11,7,23,9], [5,11,7,23,14], [5,11,7,23,19], [5,11,7,23,24],
		[5,11,12,3,4], [5,11,12,3,9], [5,11,12,3,14], [5,11,12,3,19], [5,11,12,3,24], [5,11,12,8,4], [5,11,12,8,9], [5,11,12,8,14], [5,11,12,8,19], [5,11,12,8,24],
		[5,11,12,13,4], [5,11,12,13,9], [5,11,12,13,14], [5,11,12,13,19], [5,11,12,13,24], [5,11,12,18,4], [5,11,12,18,9], [5,11,12,18,14], [5,11,12,18,19], [5,11,12,18,24],
		[5,11,12,23,4], [5,11,12,23,9], [5,11,12,23,14], [5,11,12,23,19], [5,11,12,23,24], [5,11,17,3,4], [5,11,17,3,9], [5,11,17,3,14], [5,11,17,3,19], [5,11,17,3,24],
		[5,11,17,8,4], [5,11,17,8,9], [5,11,17,8,14], [5,11,17,8,19], [5,11,17,8,24], [5,11,17,13,4], [5,11,17,13,9], [5,11,17,13,14], [5,11,17,13,19], [5,11,17,13,24],
		[5,11,17,18,4], [5,11,17,18,9], [5,11,17,18,14], [5,11,17,18,19], [5,11,17,18,24], [5,11,17,23,4], [5,11,17,23,9], [5,11,17,23,14], [5,11,17,23,19], [5,11,17,23,24],
		[5,11,22,3,4], [5,11,22,3,9], [5,11,22,3,14], [5,11,22,3,19], [5,11,22,3,24], [5,11,22,8,4], [5,11,22,8,9], [5,11,22,8,14], [5,11,22,8,19], [5,11,22,8,24],
		[5,11,22,13,4], [5,11,22,13,9], [5,11,22,13,14], [5,11,22,13,19], [5,11,22,13,24], [5,11,22,18,4], [5,11,22,18,9], [5,11,22,18,14], [5,11,22,18,19], [5,11,22,18,24],
		[5,11,22,23,4], [5,11,22,23,9], [5,11,22,23,14], [5,11,22,23,19], [5,11,22,23,24],
		[5,16,2,3,4], [5,16,2,3,9], [5,16,2,3,14], [5,16,2,3,19], [5,16,2,3,24], [5,16,2,8,4], [5,16,2,8,9], [5,16,2,8,14], [5,16,2,8,19], [5,16,2,8,24],
		[5,16,2,13,4], [5,16,2,13,9], [5,16,2,13,14], [5,16,2,13,19], [5,16,2,13,24], [5,16,2,18,4], [5,16,2,18,9], [5,16,2,18,14], [5,16,2,18,19], [5,16,2,18,24],
		[5,16,2,23,4], [5,16,2,23,9], [5,16,2,23,14], [5,16,2,23,19], [5,16,2,23,24], [5,16,7,3,4], [5,16,7,3,9], [5,16,7,3,14], [5,16,7,3,19], [5,16,7,3,24],
		[5,16,7,8,4], [5,16,7,8,9], [5,16,7,8,14], [5,16,7,8,19], [5,16,7,8,24], [5,16,7,13,4], [5,16,7,13,9], [5,16,7,13,14], [5,16,7,13,19], [5,16,7,13,24],
		[5,16,7,18,4], [5,16,7,18,9], [5,16,7,18,14], [5,16,7,18,19], [5,16,7,18,24], [5,16,7,23,4], [5,16,7,23,9], [5,16,7,23,14], [5,16,7,23,19], [5,16,7,23,24],
		[5,16,12,3,4], [5,16,12,3,9], [5,16,12,3,14], [5,16,12,3,19], [5,16,12,3,24], [5,16,12,8,4], [5,16,12,8,9], [5,16,12,8,14], [5,16,12,8,19], [5,16,12,8,24],
		[5,16,12,13,4], [5,16,12,13,9], [5,16,12,13,14], [5,16,12,13,19], [5,16,12,13,24], [5,16,12,18,4], [5,16,12,18,9], [5,16,12,18,14], [5,16,12,18,19], [5,16,12,18,24],
		[5,16,12,23,4], [5,16,12,23,9], [5,16,12,23,14], [5,16,12,23,19], [5,16,12,23,24], [5,16,17,3,4], [5,16,17,3,9], [5,16,17,3,14], [5,16,17,3,19], [5,16,17,3,24],
		[5,16,17,8,4], [5,16,17,8,9], [5,16,17,8,14], [5,16,17,8,19], [5,16,17,8,24], [5,16,17,13,4], [5,16,17,13,9], [5,16,17,13,14], [5,16,17,13,19], [5,16,17,13,24],
		[5,16,17,18,4], [5,16,17,18,9], [5,16,17,18,14], [5,16,17,18,19], [5,16,17,18,24], [5,16,17,23,4], [5,16,17,23,9], [5,16,17,23,14], [5,16,17,23,19], [5,16,17,23,24],
		[5,16,22,3,4], [5,16,22,3,9], [5,16,22,3,14], [5,16,22,3,19], [5,16,22,3,24], [5,16,22,8,4], [5,16,22,8,9], [5,16,22,8,14], [5,16,22,8,19], [5,16,22,8,24],
		[5,16,22,13,4], [5,16,22,13,9], [5,16,22,13,14], [5,16,22,13,19], [5,16,22,13,24], [5,16,22,18,4], [5,16,22,18,9], [5,16,22,18,14], [5,16,22,18,19], [5,16,22,18,24],
		[5,16,22,23,4], [5,16,22,23,9], [5,16,22,23,14], [5,16,22,23,19], [5,16,22,23,24],
		[5,21,2,3,4], [5,21,2,3,9], [5,21,2,3,14], [5,21,2,3,19], [5,21,2,3,24], [5,21,2,8,4], [5,21,2,8,9], [5,21,2,8,14], [5,21,2,8,19], [5,21,2,8,24],
		[5,21,2,13,4], [5,21,2,13,9], [5,21,2,13,14], [5,21,2,13,19], [5,21,2,13,24], [5,21,2,18,4], [5,21,2,18,9], [5,21,2,18,14], [5,21,2,18,19], [5,21,2,18,24],
		[5,21,2,23,4], [5,21,2,23,9], [5,21,2,23,14], [5,21,2,23,19], [5,21,2,23,24], [5,21,7,3,4], [5,21,7,3,9], [5,21,7,3,14], [5,21,7,3,19], [5,21,7,3,24],
		[5,21,7,8,4], [5,21,7,8,9], [5,21,7,8,14], [5,21,7,8,19], [5,21,7,8,24], [5,21,7,13,4], [5,21,7,13,9], [5,21,7,13,14], [5,21,7,13,19], [5,21,7,13,24],
		[5,21,7,18,4], [5,21,7,18,9], [5,21,7,18,14], [5,21,7,18,19], [5,21,7,18,24], [5,21,7,23,4], [5,21,7,23,9], [5,21,7,23,14], [5,21,7,23,19], [5,21,7,23,24],
		[5,21,12,3,4], [5,21,12,3,9], [5,21,12,3,14], [5,21,12,3,19], [5,21,12,3,24], [5,21,12,8,4], [5,21,12,8,9], [5,21,12,8,14], [5,21,12,8,19], [5,21,12,8,24],
		[5,21,12,13,4], [5,21,12,13,9], [5,21,12,13,14], [5,21,12,13,19], [5,21,12,13,24], [5,21,12,18,4], [5,21,12,18,9], [5,21,12,18,14], [5,21,12,18,19], [5,21,12,18,24],
		[5,21,12,23,4], [5,21,12,23,9], [5,21,12,23,14], [5,21,12,23,19], [5,21,12,23,24], [5,21,17,3,4], [5,21,17,3,9], [5,21,17,3,14], [5,21,17,3,19], [5,21,17,3,24],
		[5,21,17,8,4], [5,21,17,8,9], [5,21,17,8,14], [5,21,17,8,19], [5,21,17,8,24], [5,21,17,13,4], [5,21,17,13,9], [5,21,17,13,14], [5,21,17,13,19], [5,21,17,13,24],
		[5,21,17,18,4], [5,21,17,18,9], [5,21,17,18,14], [5,21,17,18,19], [5,21,17,18,24], [5,21,17,23,4], [5,21,17,23,9], [5,21,17,23,14], [5,21,17,23,19], [5,21,17,23,24],
		[5,21,22,3,4], [5,21,22,3,9], [5,21,22,3,14], [5,21,22,3,19], [5,21,22,3,24], [5,21,22,8,4], [5,21,22,8,9], [5,21,22,8,14], [5,21,22,8,19], [5,21,22,8,24],
		[5,21,22,13,4], [5,21,22,13,9], [5,21,22,13,14], [5,21,22,13,19], [5,21,22,13,24], [5,21,22,18,4], [5,21,22,18,9], [5,21,22,18,14], [5,21,22,18,19], [5,21,22,18,24],
		[5,21,22,23,4], [5,21,22,23,9], [5,21,22,23,14], [5,21,22,23,19], [5,21,22,23,24],

		[10,1,2,3,4], [10,1,2,3,9], [10,1,2,3,14], [10,1,2,3,19], [10,1,2,3,24], [10,1,2,8,4], [10,1,2,8,9], [10,1,2,8,14], [10,1,2,8,19], [10,1,2,8,24],
		[10,1,2,13,4], [10,1,2,13,9], [10,1,2,13,14], [10,1,2,13,19], [10,1,2,13,24], [10,1,2,18,4], [10,1,2,18,9], [10,1,2,18,14], [10,1,2,18,19], [10,1,2,18,24],
		[10,1,2,23,4], [10,1,2,23,9], [10,1,2,23,14], [10,1,2,23,19], [10,1,2,23,24], [10,1,7,3,4], [10,1,7,3,9], [10,1,7,3,14], [10,1,7,3,19], [10,1,7,3,24],
		[10,1,7,8,4], [10,1,7,8,9], [10,1,7,8,14], [10,1,7,8,19], [10,1,7,8,24], [10,1,7,13,4], [10,1,7,13,9], [10,1,7,13,14], [10,1,7,13,19], [10,1,7,13,24],
		[10,1,7,18,4], [10,1,7,18,9], [10,1,7,18,14], [10,1,7,18,19], [10,1,7,18,24], [10,1,7,23,4], [10,1,7,23,9], [10,1,7,23,14], [10,1,7,23,19], [10,1,7,23,24],
		[10,1,12,3,4], [10,1,12,3,9], [10,1,12,3,14], [10,1,12,3,19], [10,1,12,3,24], [10,1,12,8,4], [10,1,12,8,9], [10,1,12,8,14], [10,1,12,8,19], [10,1,12,8,24],
		[10,1,12,13,4], [10,1,12,13,9], [10,1,12,13,14], [10,1,12,13,19], [10,1,12,13,24], [10,1,12,18,4], [10,1,12,18,9], [10,1,12,18,14], [10,1,12,18,19], [10,1,12,18,24],
		[10,1,12,23,4], [10,1,12,23,9], [10,1,12,23,14], [10,1,12,23,19], [10,1,12,23,24], [10,1,17,3,4], [10,1,17,3,9], [10,1,17,3,14], [10,1,17,3,19], [10,1,17,3,24],
		[10,1,17,8,4], [10,1,17,8,9], [10,1,17,8,14], [10,1,17,8,19], [10,1,17,8,24], [10,1,17,13,4], [10,1,17,13,9], [10,1,17,13,14], [10,1,17,13,19], [10,1,17,13,24],
		[10,1,17,18,4], [10,1,17,18,9], [10,1,17,18,14], [10,1,17,18,19], [10,1,17,18,24], [10,1,17,23,4], [10,1,17,23,9], [10,1,17,23,14], [10,1,17,23,19], [10,1,17,23,24],
		[10,1,22,3,4], [10,1,22,3,9], [10,1,22,3,14], [10,1,22,3,19], [10,1,22,3,24], [10,1,22,8,4], [10,1,22,8,9], [10,1,22,8,14], [10,1,22,8,19], [10,1,22,8,24],
		[10,1,22,13,4], [10,1,22,13,9], [10,1,22,13,14], [10,1,22,13,19], [10,1,22,13,24], [10,1,22,18,4], [10,1,22,18,9], [10,1,22,18,14], [10,1,22,18,19], [10,1,22,18,24],
		[10,1,22,23,4], [10,1,22,23,9], [10,1,22,23,14], [10,1,22,23,19], [10,1,22,23,24],
		[10,6,2,3,4], [10,6,2,3,9], [10,6,2,3,14], [10,6,2,3,19], [10,6,2,3,24], [10,6,2,8,4], [10,6,2,8,9], [10,6,2,8,14], [10,6,2,8,19], [10,6,2,8,24],
		[10,6,2,13,4], [10,6,2,13,9], [10,6,2,13,14], [10,6,2,13,19], [10,6,2,13,24], [10,6,2,18,4], [10,6,2,18,9], [10,6,2,18,14], [10,6,2,18,19], [10,6,2,18,24],
		[10,6,2,23,4], [10,6,2,23,9], [10,6,2,23,14], [10,6,2,23,19], [10,6,2,23,24], [10,6,7,3,4], [10,6,7,3,9], [10,6,7,3,14], [10,6,7,3,19], [10,6,7,3,24],
		[10,6,7,8,4], [10,6,7,8,9], [10,6,7,8,14], [10,6,7,8,19], [10,6,7,8,24], [10,6,7,13,4], [10,6,7,13,9], [10,6,7,13,14], [10,6,7,13,19], [10,6,7,13,24],
		[10,6,7,18,4], [10,6,7,18,9], [10,6,7,18,14], [10,6,7,18,19], [10,6,7,18,24], [10,6,7,23,4], [10,6,7,23,9], [10,6,7,23,14], [10,6,7,23,19], [10,6,7,23,24],
		[10,6,12,3,4], [10,6,12,3,9], [10,6,12,3,14], [10,6,12,3,19], [10,6,12,3,24], [10,6,12,8,4], [10,6,12,8,9], [10,6,12,8,14], [10,6,12,8,19], [10,6,12,8,24],
		[10,6,12,13,4], [10,6,12,13,9], [10,6,12,13,14], [10,6,12,13,19], [10,6,12,13,24], [10,6,12,18,4], [10,6,12,18,9], [10,6,12,18,14], [10,6,12,18,19], [10,6,12,18,24],
		[10,6,12,23,4], [10,6,12,23,9], [10,6,12,23,14], [10,6,12,23,19], [10,6,12,23,24], [10,6,17,3,4], [10,6,17,3,9], [10,6,17,3,14], [10,6,17,3,19], [10,6,17,3,24],
		[10,6,17,8,4], [10,6,17,8,9], [10,6,17,8,14], [10,6,17,8,19], [10,6,17,8,24], [10,6,17,13,4], [10,6,17,13,9], [10,6,17,13,14], [10,6,17,13,19], [10,6,17,13,24],
		[10,6,17,18,4], [10,6,17,18,9], [10,6,17,18,14], [10,6,17,18,19], [10,6,17,18,24], [10,6,17,23,4], [10,6,17,23,9], [10,6,17,23,14], [10,6,17,23,19], [10,6,17,23,24],
		[10,6,22,3,4], [10,6,22,3,9], [10,6,22,3,14], [10,6,22,3,19], [10,6,22,3,24], [10,6,22,8,4], [10,6,22,8,9], [10,6,22,8,14], [10,6,22,8,19], [10,6,22,8,24],
		[10,6,22,13,4], [10,6,22,13,9], [10,6,22,13,14], [10,6,22,13,19], [10,6,22,13,24], [10,6,22,18,4], [10,6,22,18,9], [10,6,22,18,14], [10,6,22,18,19], [10,6,22,18,24],
		[10,6,22,23,4], [10,6,22,23,9], [10,6,22,23,14], [10,6,22,23,19], [10,6,22,23,24],
		[10,11,2,3,4], [10,11,2,3,9], [10,11,2,3,14], [10,11,2,3,19], [10,11,2,3,24], [10,11,2,8,4], [10,11,2,8,9], [10,11,2,8,14], [10,11,2,8,19], [10,11,2,8,24],
		[10,11,2,13,4], [10,11,2,13,9], [10,11,2,13,14], [10,11,2,13,19], [10,11,2,13,24], [10,11,2,18,4], [10,11,2,18,9], [10,11,2,18,14], [10,11,2,18,19], [10,11,2,18,24],
		[10,11,2,23,4], [10,11,2,23,9], [10,11,2,23,14], [10,11,2,23,19], [10,11,2,23,24], [10,11,7,3,4], [10,11,7,3,9], [10,11,7,3,14], [10,11,7,3,19], [10,11,7,3,24],
		[10,11,7,8,4], [10,11,7,8,9], [10,11,7,8,14], [10,11,7,8,19], [10,11,7,8,24], [10,11,7,13,4], [10,11,7,13,9], [10,11,7,13,14], [10,11,7,13,19], [10,11,7,13,24],
		[10,11,7,18,4], [10,11,7,18,9], [10,11,7,18,14], [10,11,7,18,19], [10,11,7,18,24], [10,11,7,23,4], [10,11,7,23,9], [10,11,7,23,14], [10,11,7,23,19], [10,11,7,23,24],
		[10,11,12,3,4], [10,11,12,3,9], [10,11,12,3,14], [10,11,12,3,19], [10,11,12,3,24], [10,11,12,8,4], [10,11,12,8,9], [10,11,12,8,14], [10,11,12,8,19], [10,11,12,8,24],
		[10,11,12,13,4], [10,11,12,13,9], [10,11,12,13,14], [10,11,12,13,19], [10,11,12,13,24], [10,11,12,18,4], [10,11,12,18,9], [10,11,12,18,14], [10,11,12,18,19], [10,11,12,18,24],
		[10,11,12,23,4], [10,11,12,23,9], [10,11,12,23,14], [10,11,12,23,19], [10,11,12,23,24], [10,11,17,3,4], [10,11,17,3,9], [10,11,17,3,14], [10,11,17,3,19], [10,11,17,3,24],
		[10,11,17,8,4], [10,11,17,8,9], [10,11,17,8,14], [10,11,17,8,19], [10,11,17,8,24], [10,11,17,13,4], [10,11,17,13,9], [10,11,17,13,14], [10,11,17,13,19], [10,11,17,13,24],
		[10,11,17,18,4], [10,11,17,18,9], [10,11,17,18,14], [10,11,17,18,19], [10,11,17,18,24], [10,11,17,23,4], [10,11,17,23,9], [10,11,17,23,14], [10,11,17,23,19], [10,11,17,23,24],
		[10,11,22,3,4], [10,11,22,3,9], [10,11,22,3,14], [10,11,22,3,19], [10,11,22,3,24], [10,11,22,8,4], [10,11,22,8,9], [10,11,22,8,14], [10,11,22,8,19], [10,11,22,8,24],
		[10,11,22,13,4], [10,11,22,13,9], [10,11,22,13,14], [10,11,22,13,19], [10,11,22,13,24], [10,11,22,18,4], [10,11,22,18,9], [10,11,22,18,14], [10,11,22,18,19], [10,11,22,18,24],
		[10,11,22,23,4], [10,11,22,23,9], [10,11,22,23,14], [10,11,22,23,19], [10,11,22,23,24],
		[10,16,2,3,4], [10,16,2,3,9], [10,16,2,3,14], [10,16,2,3,19], [10,16,2,3,24], [10,16,2,8,4], [10,16,2,8,9], [10,16,2,8,14], [10,16,2,8,19], [10,16,2,8,24],
		[10,16,2,13,4], [10,16,2,13,9], [10,16,2,13,14], [10,16,2,13,19], [10,16,2,13,24], [10,16,2,18,4], [10,16,2,18,9], [10,16,2,18,14], [10,16,2,18,19], [10,16,2,18,24],
		[10,16,2,23,4], [10,16,2,23,9], [10,16,2,23,14], [10,16,2,23,19], [10,16,2,23,24], [10,16,7,3,4], [10,16,7,3,9], [10,16,7,3,14], [10,16,7,3,19], [10,16,7,3,24],
		[10,16,7,8,4], [10,16,7,8,9], [10,16,7,8,14], [10,16,7,8,19], [10,16,7,8,24], [10,16,7,13,4], [10,16,7,13,9], [10,16,7,13,14], [10,16,7,13,19], [10,16,7,13,24],
		[10,16,7,18,4], [10,16,7,18,9], [10,16,7,18,14], [10,16,7,18,19], [10,16,7,18,24], [10,16,7,23,4], [10,16,7,23,9], [10,16,7,23,14], [10,16,7,23,19], [10,16,7,23,24],
		[10,16,12,3,4], [10,16,12,3,9], [10,16,12,3,14], [10,16,12,3,19], [10,16,12,3,24], [10,16,12,8,4], [10,16,12,8,9], [10,16,12,8,14], [10,16,12,8,19], [10,16,12,8,24],
		[10,16,12,13,4], [10,16,12,13,9], [10,16,12,13,14], [10,16,12,13,19], [10,16,12,13,24], [10,16,12,18,4], [10,16,12,18,9], [10,16,12,18,14], [10,16,12,18,19], [10,16,12,18,24],
		[10,16,12,23,4], [10,16,12,23,9], [10,16,12,23,14], [10,16,12,23,19], [10,16,12,23,24], [10,16,17,3,4], [10,16,17,3,9], [10,16,17,3,14], [10,16,17,3,19], [10,16,17,3,24],
		[10,16,17,8,4], [10,16,17,8,9], [10,16,17,8,14], [10,16,17,8,19], [10,16,17,8,24], [10,16,17,13,4], [10,16,17,13,9], [10,16,17,13,14], [10,16,17,13,19], [10,16,17,13,24],
		[10,16,17,18,4], [10,16,17,18,9], [10,16,17,18,14], [10,16,17,18,19], [10,16,17,18,24], [10,16,17,23,4], [10,16,17,23,9], [10,16,17,23,14], [10,16,17,23,19], [10,16,17,23,24],
		[10,16,22,3,4], [10,16,22,3,9], [10,16,22,3,14], [10,16,22,3,19], [10,16,22,3,24], [10,16,22,8,4], [10,16,22,8,9], [10,16,22,8,14], [10,16,22,8,19], [10,16,22,8,24],
		[10,16,22,13,4], [10,16,22,13,9], [10,16,22,13,14], [10,16,22,13,19], [10,16,22,13,24], [10,16,22,18,4], [10,16,22,18,9], [10,16,22,18,14], [10,16,22,18,19], [10,16,22,18,24],
		[10,16,22,23,4], [10,16,22,23,9], [10,16,22,23,14], [10,16,22,23,19], [10,16,22,23,24],
		[10,21,2,3,4], [10,21,2,3,9], [10,21,2,3,14], [10,21,2,3,19], [10,21,2,3,24], [10,21,2,8,4], [10,21,2,8,9], [10,21,2,8,14], [10,21,2,8,19], [10,21,2,8,24],
		[10,21,2,13,4], [10,21,2,13,9], [10,21,2,13,14], [10,21,2,13,19], [10,21,2,13,24], [10,21,2,18,4], [10,21,2,18,9], [10,21,2,18,14], [10,21,2,18,19], [10,21,2,18,24],
		[10,21,2,23,4], [10,21,2,23,9], [10,21,2,23,14], [10,21,2,23,19], [10,21,2,23,24], [10,21,7,3,4], [10,21,7,3,9], [10,21,7,3,14], [10,21,7,3,19], [10,21,7,3,24],
		[10,21,7,8,4], [10,21,7,8,9], [10,21,7,8,14], [10,21,7,8,19], [10,21,7,8,24], [10,21,7,13,4], [10,21,7,13,9], [10,21,7,13,14], [10,21,7,13,19], [10,21,7,13,24],
		[10,21,7,18,4], [10,21,7,18,9], [10,21,7,18,14], [10,21,7,18,19], [10,21,7,18,24], [10,21,7,23,4], [10,21,7,23,9], [10,21,7,23,14], [10,21,7,23,19], [10,21,7,23,24],
		[10,21,12,3,4], [10,21,12,3,9], [10,21,12,3,14], [10,21,12,3,19], [10,21,12,3,24], [10,21,12,8,4], [10,21,12,8,9], [10,21,12,8,14], [10,21,12,8,19], [10,21,12,8,24],
		[10,21,12,13,4], [10,21,12,13,9], [10,21,12,13,14], [10,21,12,13,19], [10,21,12,13,24], [10,21,12,18,4], [10,21,12,18,9], [10,21,12,18,14], [10,21,12,18,19], [10,21,12,18,24],
		[10,21,12,23,4], [10,21,12,23,9], [10,21,12,23,14], [10,21,12,23,19], [10,21,12,23,24], [10,21,17,3,4], [10,21,17,3,9], [10,21,17,3,14], [10,21,17,3,19], [10,21,17,3,24],
		[10,21,17,8,4], [10,21,17,8,9], [10,21,17,8,14], [10,21,17,8,19], [10,21,17,8,24], [10,21,17,13,4], [10,21,17,13,9], [10,21,17,13,14], [10,21,17,13,19], [10,21,17,13,24],
		[10,21,17,18,4], [10,21,17,18,9], [10,21,17,18,14], [10,21,17,18,19], [10,21,17,18,24], [10,21,17,23,4], [10,21,17,23,9], [10,21,17,23,14], [10,21,17,23,19], [10,21,17,23,24],
		[10,21,22,3,4], [10,21,22,3,9], [10,21,22,3,14], [10,21,22,3,19], [10,21,22,3,24], [10,21,22,8,4], [10,21,22,8,9], [10,21,22,8,14], [10,21,22,8,19], [10,21,22,8,24],
		[10,21,22,13,4], [10,21,22,13,9], [10,21,22,13,14], [10,21,22,13,19], [10,21,22,13,24], [10,21,22,18,4], [10,21,22,18,9], [10,21,22,18,14], [10,21,22,18,19], [10,21,22,18,24],
		[10,21,22,23,4], [10,21,22,23,9], [10,21,22,23,14], [10,21,22,23,19], [10,21,22,23,24],

		[15,1,2,3,4], [15,1,2,3,9], [15,1,2,3,14], [15,1,2,3,19], [15,1,2,3,24], [15,1,2,8,4], [15,1,2,8,9], [15,1,2,8,14], [15,1,2,8,19], [15,1,2,8,24],
		[15,1,2,13,4], [15,1,2,13,9], [15,1,2,13,14], [15,1,2,13,19], [15,1,2,13,24], [15,1,2,18,4], [15,1,2,18,9], [15,1,2,18,14], [15,1,2,18,19], [15,1,2,18,24],
		[15,1,2,23,4], [15,1,2,23,9], [15,1,2,23,14], [15,1,2,23,19], [15,1,2,23,24], [15,1,7,3,4], [15,1,7,3,9], [15,1,7,3,14], [15,1,7,3,19], [15,1,7,3,24],
		[15,1,7,8,4], [15,1,7,8,9], [15,1,7,8,14], [15,1,7,8,19], [15,1,7,8,24], [15,1,7,13,4], [15,1,7,13,9], [15,1,7,13,14], [15,1,7,13,19], [15,1,7,13,24],
		[15,1,7,18,4], [15,1,7,18,9], [15,1,7,18,14], [15,1,7,18,19], [15,1,7,18,24], [15,1,7,23,4], [15,1,7,23,9], [15,1,7,23,14], [15,1,7,23,19], [15,1,7,23,24],
		[15,1,12,3,4], [15,1,12,3,9], [15,1,12,3,14], [15,1,12,3,19], [15,1,12,3,24], [15,1,12,8,4], [15,1,12,8,9], [15,1,12,8,14], [15,1,12,8,19], [15,1,12,8,24],
		[15,1,12,13,4], [15,1,12,13,9], [15,1,12,13,14], [15,1,12,13,19], [15,1,12,13,24], [15,1,12,18,4], [15,1,12,18,9], [15,1,12,18,14], [15,1,12,18,19], [15,1,12,18,24],
		[15,1,12,23,4], [15,1,12,23,9], [15,1,12,23,14], [15,1,12,23,19], [15,1,12,23,24], [15,1,17,3,4], [15,1,17,3,9], [15,1,17,3,14], [15,1,17,3,19], [15,1,17,3,24],
		[15,1,17,8,4], [15,1,17,8,9], [15,1,17,8,14], [15,1,17,8,19], [15,1,17,8,24], [15,1,17,13,4], [15,1,17,13,9], [15,1,17,13,14], [15,1,17,13,19], [15,1,17,13,24],
		[15,1,17,18,4], [15,1,17,18,9], [15,1,17,18,14], [15,1,17,18,19], [15,1,17,18,24], [15,1,17,23,4], [15,1,17,23,9], [15,1,17,23,14], [15,1,17,23,19], [15,1,17,23,24],
		[15,1,22,3,4], [15,1,22,3,9], [15,1,22,3,14], [15,1,22,3,19], [15,1,22,3,24], [15,1,22,8,4], [15,1,22,8,9], [15,1,22,8,14], [15,1,22,8,19], [15,1,22,8,24],
		[15,1,22,13,4], [15,1,22,13,9], [15,1,22,13,14], [15,1,22,13,19], [15,1,22,13,24], [15,1,22,18,4], [15,1,22,18,9], [15,1,22,18,14], [15,1,22,18,19], [15,1,22,18,24],
		[15,1,22,23,4], [15,1,22,23,9], [15,1,22,23,14], [15,1,22,23,19], [15,1,22,23,24],
		[15,6,2,3,4], [15,6,2,3,9], [15,6,2,3,14], [15,6,2,3,19], [15,6,2,3,24], [15,6,2,8,4], [15,6,2,8,9], [15,6,2,8,14], [15,6,2,8,19], [15,6,2,8,24],
		[15,6,2,13,4], [15,6,2,13,9], [15,6,2,13,14], [15,6,2,13,19], [15,6,2,13,24], [15,6,2,18,4], [15,6,2,18,9], [15,6,2,18,14], [15,6,2,18,19], [15,6,2,18,24],
		[15,6,2,23,4], [15,6,2,23,9], [15,6,2,23,14], [15,6,2,23,19], [15,6,2,23,24], [15,6,7,3,4], [15,6,7,3,9], [15,6,7,3,14], [15,6,7,3,19], [15,6,7,3,24],
		[15,6,7,8,4], [15,6,7,8,9], [15,6,7,8,14], [15,6,7,8,19], [15,6,7,8,24], [15,6,7,13,4], [15,6,7,13,9], [15,6,7,13,14], [15,6,7,13,19], [15,6,7,13,24],
		[15,6,7,18,4], [15,6,7,18,9], [15,6,7,18,14], [15,6,7,18,19], [15,6,7,18,24], [15,6,7,23,4], [15,6,7,23,9], [15,6,7,23,14], [15,6,7,23,19], [15,6,7,23,24],
		[15,6,12,3,4], [15,6,12,3,9], [15,6,12,3,14], [15,6,12,3,19], [15,6,12,3,24], [15,6,12,8,4], [15,6,12,8,9], [15,6,12,8,14], [15,6,12,8,19], [15,6,12,8,24],
		[15,6,12,13,4], [15,6,12,13,9], [15,6,12,13,14], [15,6,12,13,19], [15,6,12,13,24], [15,6,12,18,4], [15,6,12,18,9], [15,6,12,18,14], [15,6,12,18,19], [15,6,12,18,24],
		[15,6,12,23,4], [15,6,12,23,9], [15,6,12,23,14], [15,6,12,23,19], [15,6,12,23,24], [15,6,17,3,4], [15,6,17,3,9], [15,6,17,3,14], [15,6,17,3,19], [15,6,17,3,24],
		[15,6,17,8,4], [15,6,17,8,9], [15,6,17,8,14], [15,6,17,8,19], [15,6,17,8,24], [15,6,17,13,4], [15,6,17,13,9], [15,6,17,13,14], [15,6,17,13,19], [15,6,17,13,24],
		[15,6,17,18,4], [15,6,17,18,9], [15,6,17,18,14], [15,6,17,18,19], [15,6,17,18,24], [15,6,17,23,4], [15,6,17,23,9], [15,6,17,23,14], [15,6,17,23,19], [15,6,17,23,24],
		[15,6,22,3,4], [15,6,22,3,9], [15,6,22,3,14], [15,6,22,3,19], [15,6,22,3,24], [15,6,22,8,4], [15,6,22,8,9], [15,6,22,8,14], [15,6,22,8,19], [15,6,22,8,24],
		[15,6,22,13,4], [15,6,22,13,9], [15,6,22,13,14], [15,6,22,13,19], [15,6,22,13,24], [15,6,22,18,4], [15,6,22,18,9], [15,6,22,18,14], [15,6,22,18,19], [15,6,22,18,24],
		[15,6,22,23,4], [15,6,22,23,9], [15,6,22,23,14], [15,6,22,23,19], [15,6,22,23,24],
		[15,11,2,3,4], [15,11,2,3,9], [15,11,2,3,14], [15,11,2,3,19], [15,11,2,3,24], [15,11,2,8,4], [15,11,2,8,9], [15,11,2,8,14], [15,11,2,8,19], [15,11,2,8,24],
		[15,11,2,13,4], [15,11,2,13,9], [15,11,2,13,14], [15,11,2,13,19], [15,11,2,13,24], [15,11,2,18,4], [15,11,2,18,9], [15,11,2,18,14], [15,11,2,18,19], [15,11,2,18,24],
		[15,11,2,23,4], [15,11,2,23,9], [15,11,2,23,14], [15,11,2,23,19], [15,11,2,23,24], [15,11,7,3,4], [15,11,7,3,9], [15,11,7,3,14], [15,11,7,3,19], [15,11,7,3,24],
		[15,11,7,8,4], [15,11,7,8,9], [15,11,7,8,14], [15,11,7,8,19], [15,11,7,8,24], [15,11,7,13,4], [15,11,7,13,9], [15,11,7,13,14], [15,11,7,13,19], [15,11,7,13,24],
		[15,11,7,18,4], [15,11,7,18,9], [15,11,7,18,14], [15,11,7,18,19], [15,11,7,18,24], [15,11,7,23,4], [15,11,7,23,9], [15,11,7,23,14], [15,11,7,23,19], [15,11,7,23,24],
		[15,11,12,3,4], [15,11,12,3,9], [15,11,12,3,14], [15,11,12,3,19], [15,11,12,3,24], [15,11,12,8,4], [15,11,12,8,9], [15,11,12,8,14], [15,11,12,8,19], [15,11,12,8,24],
		[15,11,12,13,4], [15,11,12,13,9], [15,11,12,13,14], [15,11,12,13,19], [15,11,12,13,24], [15,11,12,18,4], [15,11,12,18,9], [15,11,12,18,14], [15,11,12,18,19], [15,11,12,18,24],
		[15,11,12,23,4], [15,11,12,23,9], [15,11,12,23,14], [15,11,12,23,19], [15,11,12,23,24], [15,11,17,3,4], [15,11,17,3,9], [15,11,17,3,14], [15,11,17,3,19], [15,11,17,3,24],
		[15,11,17,8,4], [15,11,17,8,9], [15,11,17,8,14], [15,11,17,8,19], [15,11,17,8,24], [15,11,17,13,4], [15,11,17,13,9], [15,11,17,13,14], [15,11,17,13,19], [15,11,17,13,24],
		[15,11,17,18,4], [15,11,17,18,9], [15,11,17,18,14], [15,11,17,18,19], [15,11,17,18,24], [15,11,17,23,4], [15,11,17,23,9], [15,11,17,23,14], [15,11,17,23,19], [15,11,17,23,24],
		[15,11,22,3,4], [15,11,22,3,9], [15,11,22,3,14], [15,11,22,3,19], [15,11,22,3,24], [15,11,22,8,4], [15,11,22,8,9], [15,11,22,8,14], [15,11,22,8,19], [15,11,22,8,24],
		[15,11,22,13,4], [15,11,22,13,9], [15,11,22,13,14], [15,11,22,13,19], [15,11,22,13,24], [15,11,22,18,4], [15,11,22,18,9], [15,11,22,18,14], [15,11,22,18,19], [15,11,22,18,24],
		[15,11,22,23,4], [15,11,22,23,9], [15,11,22,23,14], [15,11,22,23,19], [15,11,22,23,24],
		[15,16,2,3,4], [15,16,2,3,9], [15,16,2,3,14], [15,16,2,3,19], [15,16,2,3,24], [15,16,2,8,4], [15,16,2,8,9], [15,16,2,8,14], [15,16,2,8,19], [15,16,2,8,24],
		[15,16,2,13,4], [15,16,2,13,9], [15,16,2,13,14], [15,16,2,13,19], [15,16,2,13,24], [15,16,2,18,4], [15,16,2,18,9], [15,16,2,18,14], [15,16,2,18,19], [15,16,2,18,24],
		[15,16,2,23,4], [15,16,2,23,9], [15,16,2,23,14], [15,16,2,23,19], [15,16,2,23,24], [15,16,7,3,4], [15,16,7,3,9], [15,16,7,3,14], [15,16,7,3,19], [15,16,7,3,24],
		[15,16,7,8,4], [15,16,7,8,9], [15,16,7,8,14], [15,16,7,8,19], [15,16,7,8,24], [15,16,7,13,4], [15,16,7,13,9], [15,16,7,13,14], [15,16,7,13,19], [15,16,7,13,24],
		[15,16,7,18,4], [15,16,7,18,9], [15,16,7,18,14], [15,16,7,18,19], [15,16,7,18,24], [15,16,7,23,4], [15,16,7,23,9], [15,16,7,23,14], [15,16,7,23,19], [15,16,7,23,24],
		[15,16,12,3,4], [15,16,12,3,9], [15,16,12,3,14], [15,16,12,3,19], [15,16,12,3,24], [15,16,12,8,4], [15,16,12,8,9], [15,16,12,8,14], [15,16,12,8,19], [15,16,12,8,24],
		[15,16,12,13,4], [15,16,12,13,9], [15,16,12,13,14], [15,16,12,13,19], [15,16,12,13,24], [15,16,12,18,4], [15,16,12,18,9], [15,16,12,18,14], [15,16,12,18,19], [15,16,12,18,24],
		[15,16,12,23,4], [15,16,12,23,9], [15,16,12,23,14], [15,16,12,23,19], [15,16,12,23,24], [15,16,17,3,4], [15,16,17,3,9], [15,16,17,3,14], [15,16,17,3,19], [15,16,17,3,24],
		[15,16,17,8,4], [15,16,17,8,9], [15,16,17,8,14], [15,16,17,8,19], [15,16,17,8,24], [15,16,17,13,4], [15,16,17,13,9], [15,16,17,13,14], [15,16,17,13,19], [15,16,17,13,24],
		[15,16,17,18,4], [15,16,17,18,9], [15,16,17,18,14], [15,16,17,18,19], [15,16,17,18,24], [15,16,17,23,4], [15,16,17,23,9], [15,16,17,23,14], [15,16,17,23,19], [15,16,17,23,24],
		[15,16,22,3,4], [15,16,22,3,9], [15,16,22,3,14], [15,16,22,3,19], [15,16,22,3,24], [15,16,22,8,4], [15,16,22,8,9], [15,16,22,8,14], [15,16,22,8,19], [15,16,22,8,24],
		[15,16,22,13,4], [15,16,22,13,9], [15,16,22,13,14], [15,16,22,13,19], [15,16,22,13,24], [15,16,22,18,4], [15,16,22,18,9], [15,16,22,18,14], [15,16,22,18,19], [15,16,22,18,24],
		[15,16,22,23,4], [15,16,22,23,9], [15,16,22,23,14], [15,16,22,23,19], [15,16,22,23,24],
		[15,21,2,3,4], [15,21,2,3,9], [15,21,2,3,14], [15,21,2,3,19], [15,21,2,3,24], [15,21,2,8,4], [15,21,2,8,9], [15,21,2,8,14], [15,21,2,8,19], [15,21,2,8,24],
		[15,21,2,13,4], [15,21,2,13,9], [15,21,2,13,14], [15,21,2,13,19], [15,21,2,13,24], [15,21,2,18,4], [15,21,2,18,9], [15,21,2,18,14], [15,21,2,18,19], [15,21,2,18,24],
		[15,21,2,23,4], [15,21,2,23,9], [15,21,2,23,14], [15,21,2,23,19], [15,21,2,23,24], [15,21,7,3,4], [15,21,7,3,9], [15,21,7,3,14], [15,21,7,3,19], [15,21,7,3,24],
		[15,21,7,8,4], [15,21,7,8,9], [15,21,7,8,14], [15,21,7,8,19], [15,21,7,8,24], [15,21,7,13,4], [15,21,7,13,9], [15,21,7,13,14], [15,21,7,13,19], [15,21,7,13,24],
		[15,21,7,18,4], [15,21,7,18,9], [15,21,7,18,14], [15,21,7,18,19], [15,21,7,18,24], [15,21,7,23,4], [15,21,7,23,9], [15,21,7,23,14], [15,21,7,23,19], [15,21,7,23,24],
		[15,21,12,3,4], [15,21,12,3,9], [15,21,12,3,14], [15,21,12,3,19], [15,21,12,3,24], [15,21,12,8,4], [15,21,12,8,9], [15,21,12,8,14], [15,21,12,8,19], [15,21,12,8,24],
		[15,21,12,13,4], [15,21,12,13,9], [15,21,12,13,14], [15,21,12,13,19], [15,21,12,13,24], [15,21,12,18,4], [15,21,12,18,9], [15,21,12,18,14], [15,21,12,18,19], [15,21,12,18,24],
		[15,21,12,23,4], [15,21,12,23,9], [15,21,12,23,14], [15,21,12,23,19], [15,21,12,23,24], [15,21,17,3,4], [15,21,17,3,9], [15,21,17,3,14], [15,21,17,3,19], [15,21,17,3,24],
		[15,21,17,8,4], [15,21,17,8,9], [15,21,17,8,14], [15,21,17,8,19], [15,21,17,8,24], [15,21,17,13,4], [15,21,17,13,9], [15,21,17,13,14], [15,21,17,13,19], [15,21,17,13,24],
		[15,21,17,18,4], [15,21,17,18,9], [15,21,17,18,14], [15,21,17,18,19], [15,21,17,18,24], [15,21,17,23,4], [15,21,17,23,9], [15,21,17,23,14], [15,21,17,23,19], [15,21,17,23,24],
		[15,21,22,3,4], [15,21,22,3,9], [15,21,22,3,14], [15,21,22,3,19], [15,21,22,3,24], [15,21,22,8,4], [15,21,22,8,9], [15,21,22,8,14], [15,21,22,8,19], [15,21,22,8,24],
		[15,21,22,13,4], [15,21,22,13,9], [15,21,22,13,14], [15,21,22,13,19], [15,21,22,13,24], [15,21,22,18,4], [15,21,22,18,9], [15,21,22,18,14], [15,21,22,18,19], [15,21,22,18,24],
		[15,21,22,23,4], [15,21,22,23,9], [15,21,22,23,14], [15,21,22,23,19], [15,21,22,23,24],

		[20,1,2,3,4], [20,1,2,3,9], [20,1,2,3,14], [20,1,2,3,19], [20,1,2,3,24], [20,1,2,8,4], [20,1,2,8,9], [20,1,2,8,14], [20,1,2,8,19], [20,1,2,8,24],
		[20,1,2,13,4], [20,1,2,13,9], [20,1,2,13,14], [20,1,2,13,19], [20,1,2,13,24], [20,1,2,18,4], [20,1,2,18,9], [20,1,2,18,14], [20,1,2,18,19], [20,1,2,18,24],
		[20,1,2,23,4], [20,1,2,23,9], [20,1,2,23,14], [20,1,2,23,19], [20,1,2,23,24], [20,1,7,3,4], [20,1,7,3,9], [20,1,7,3,14], [20,1,7,3,19], [20,1,7,3,24],
		[20,1,7,8,4], [20,1,7,8,9], [20,1,7,8,14], [20,1,7,8,19], [20,1,7,8,24], [20,1,7,13,4], [20,1,7,13,9], [20,1,7,13,14], [20,1,7,13,19], [20,1,7,13,24],
		[20,1,7,18,4], [20,1,7,18,9], [20,1,7,18,14], [20,1,7,18,19], [20,1,7,18,24], [20,1,7,23,4], [20,1,7,23,9], [20,1,7,23,14], [20,1,7,23,19], [20,1,7,23,24],
		[20,1,12,3,4], [20,1,12,3,9], [20,1,12,3,14], [20,1,12,3,19], [20,1,12,3,24], [20,1,12,8,4], [20,1,12,8,9], [20,1,12,8,14], [20,1,12,8,19], [20,1,12,8,24],
		[20,1,12,13,4], [20,1,12,13,9], [20,1,12,13,14], [20,1,12,13,19], [20,1,12,13,24], [20,1,12,18,4], [20,1,12,18,9], [20,1,12,18,14], [20,1,12,18,19], [20,1,12,18,24],
		[20,1,12,23,4], [20,1,12,23,9], [20,1,12,23,14], [20,1,12,23,19], [20,1,12,23,24], [20,1,17,3,4], [20,1,17,3,9], [20,1,17,3,14], [20,1,17,3,19], [20,1,17,3,24],
		[20,1,17,8,4], [20,1,17,8,9], [20,1,17,8,14], [20,1,17,8,19], [20,1,17,8,24], [20,1,17,13,4], [20,1,17,13,9], [20,1,17,13,14], [20,1,17,13,19], [20,1,17,13,24],
		[20,1,17,18,4], [20,1,17,18,9], [20,1,17,18,14], [20,1,17,18,19], [20,1,17,18,24], [20,1,17,23,4], [20,1,17,23,9], [20,1,17,23,14], [20,1,17,23,19], [20,1,17,23,24],
		[20,1,22,3,4], [20,1,22,3,9], [20,1,22,3,14], [20,1,22,3,19], [20,1,22,3,24], [20,1,22,8,4], [20,1,22,8,9], [20,1,22,8,14], [20,1,22,8,19], [20,1,22,8,24],
		[20,1,22,13,4], [20,1,22,13,9], [20,1,22,13,14], [20,1,22,13,19], [20,1,22,13,24], [20,1,22,18,4], [20,1,22,18,9], [20,1,22,18,14], [20,1,22,18,19], [20,1,22,18,24],
		[20,1,22,23,4], [20,1,22,23,9], [20,1,22,23,14], [20,1,22,23,19], [20,1,22,23,24],
		[20,6,2,3,4], [20,6,2,3,9], [20,6,2,3,14], [20,6,2,3,19], [20,6,2,3,24], [20,6,2,8,4], [20,6,2,8,9], [20,6,2,8,14], [20,6,2,8,19], [20,6,2,8,24],
		[20,6,2,13,4], [20,6,2,13,9], [20,6,2,13,14], [20,6,2,13,19], [20,6,2,13,24], [20,6,2,18,4], [20,6,2,18,9], [20,6,2,18,14], [20,6,2,18,19], [20,6,2,18,24],
		[20,6,2,23,4], [20,6,2,23,9], [20,6,2,23,14], [20,6,2,23,19], [20,6,2,23,24], [20,6,7,3,4], [20,6,7,3,9], [20,6,7,3,14], [20,6,7,3,19], [20,6,7,3,24],
		[20,6,7,8,4], [20,6,7,8,9], [20,6,7,8,14], [20,6,7,8,19], [20,6,7,8,24], [20,6,7,13,4], [20,6,7,13,9], [20,6,7,13,14], [20,6,7,13,19], [20,6,7,13,24],
		[20,6,7,18,4], [20,6,7,18,9], [20,6,7,18,14], [20,6,7,18,19], [20,6,7,18,24], [20,6,7,23,4], [20,6,7,23,9], [20,6,7,23,14], [20,6,7,23,19], [20,6,7,23,24],
		[20,6,12,3,4], [20,6,12,3,9], [20,6,12,3,14], [20,6,12,3,19], [20,6,12,3,24], [20,6,12,8,4], [20,6,12,8,9], [20,6,12,8,14], [20,6,12,8,19], [20,6,12,8,24],
		[20,6,12,13,4], [20,6,12,13,9], [20,6,12,13,14], [20,6,12,13,19], [20,6,12,13,24], [20,6,12,18,4], [20,6,12,18,9], [20,6,12,18,14], [20,6,12,18,19], [20,6,12,18,24],
		[20,6,12,23,4], [20,6,12,23,9], [20,6,12,23,14], [20,6,12,23,19], [20,6,12,23,24], [20,6,17,3,4], [20,6,17,3,9], [20,6,17,3,14], [20,6,17,3,19], [20,6,17,3,24],
		[20,6,17,8,4], [20,6,17,8,9], [20,6,17,8,14], [20,6,17,8,19], [20,6,17,8,24], [20,6,17,13,4], [20,6,17,13,9], [20,6,17,13,14], [20,6,17,13,19], [20,6,17,13,24],
		[20,6,17,18,4], [20,6,17,18,9], [20,6,17,18,14], [20,6,17,18,19], [20,6,17,18,24], [20,6,17,23,4], [20,6,17,23,9], [20,6,17,23,14], [20,6,17,23,19], [20,6,17,23,24],
		[20,6,22,3,4], [20,6,22,3,9], [20,6,22,3,14], [20,6,22,3,19], [20,6,22,3,24], [20,6,22,8,4], [20,6,22,8,9], [20,6,22,8,14], [20,6,22,8,19], [20,6,22,8,24],
		[20,6,22,13,4], [20,6,22,13,9], [20,6,22,13,14], [20,6,22,13,19], [20,6,22,13,24], [20,6,22,18,4], [20,6,22,18,9], [20,6,22,18,14], [20,6,22,18,19], [20,6,22,18,24],
		[20,6,22,23,4], [20,6,22,23,9], [20,6,22,23,14], [20,6,22,23,19], [20,6,22,23,24],
		[20,11,2,3,4], [20,11,2,3,9], [20,11,2,3,14], [20,11,2,3,19], [20,11,2,3,24], [20,11,2,8,4], [20,11,2,8,9], [20,11,2,8,14], [20,11,2,8,19], [20,11,2,8,24],
		[20,11,2,13,4], [20,11,2,13,9], [20,11,2,13,14], [20,11,2,13,19], [20,11,2,13,24], [20,11,2,18,4], [20,11,2,18,9], [20,11,2,18,14], [20,11,2,18,19], [20,11,2,18,24],
		[20,11,2,23,4], [20,11,2,23,9], [20,11,2,23,14], [20,11,2,23,19], [20,11,2,23,24], [20,11,7,3,4], [20,11,7,3,9], [20,11,7,3,14], [20,11,7,3,19], [20,11,7,3,24],
		[20,11,7,8,4], [20,11,7,8,9], [20,11,7,8,14], [20,11,7,8,19], [20,11,7,8,24], [20,11,7,13,4], [20,11,7,13,9], [20,11,7,13,14], [20,11,7,13,19], [20,11,7,13,24],
		[20,11,7,18,4], [20,11,7,18,9], [20,11,7,18,14], [20,11,7,18,19], [20,11,7,18,24], [20,11,7,23,4], [20,11,7,23,9], [20,11,7,23,14], [20,11,7,23,19], [20,11,7,23,24],
		[20,11,12,3,4], [20,11,12,3,9], [20,11,12,3,14], [20,11,12,3,19], [20,11,12,3,24], [20,11,12,8,4], [20,11,12,8,9], [20,11,12,8,14], [20,11,12,8,19], [20,11,12,8,24],
		[20,11,12,13,4], [20,11,12,13,9], [20,11,12,13,14], [20,11,12,13,19], [20,11,12,13,24], [20,11,12,18,4], [20,11,12,18,9], [20,11,12,18,14], [20,11,12,18,19], [20,11,12,18,24],
		[20,11,12,23,4], [20,11,12,23,9], [20,11,12,23,14], [20,11,12,23,19], [20,11,12,23,24], [20,11,17,3,4], [20,11,17,3,9], [20,11,17,3,14], [20,11,17,3,19], [20,11,17,3,24],
		[20,11,17,8,4], [20,11,17,8,9], [20,11,17,8,14], [20,11,17,8,19], [20,11,17,8,24], [20,11,17,13,4], [20,11,17,13,9], [20,11,17,13,14], [20,11,17,13,19], [20,11,17,13,24],
		[20,11,17,18,4], [20,11,17,18,9], [20,11,17,18,14], [20,11,17,18,19], [20,11,17,18,24], [20,11,17,23,4], [20,11,17,23,9], [20,11,17,23,14], [20,11,17,23,19], [20,11,17,23,24],
		[20,11,22,3,4], [20,11,22,3,9], [20,11,22,3,14], [20,11,22,3,19], [20,11,22,3,24], [20,11,22,8,4], [20,11,22,8,9], [20,11,22,8,14], [20,11,22,8,19], [20,11,22,8,24],
		[20,11,22,13,4], [20,11,22,13,9], [20,11,22,13,14], [20,11,22,13,19], [20,11,22,13,24], [20,11,22,18,4], [20,11,22,18,9], [20,11,22,18,14], [20,11,22,18,19], [20,11,22,18,24],
		[20,11,22,23,4], [20,11,22,23,9], [20,11,22,23,14], [20,11,22,23,19], [20,11,22,23,24],
		[20,16,2,3,4], [20,16,2,3,9], [20,16,2,3,14], [20,16,2,3,19], [20,16,2,3,24], [20,16,2,8,4], [20,16,2,8,9], [20,16,2,8,14], [20,16,2,8,19], [20,16,2,8,24],
		[20,16,2,13,4], [20,16,2,13,9], [20,16,2,13,14], [20,16,2,13,19], [20,16,2,13,24], [20,16,2,18,4], [20,16,2,18,9], [20,16,2,18,14], [20,16,2,18,19], [20,16,2,18,24],
		[20,16,2,23,4], [20,16,2,23,9], [20,16,2,23,14], [20,16,2,23,19], [20,16,2,23,24], [20,16,7,3,4], [20,16,7,3,9], [20,16,7,3,14], [20,16,7,3,19], [20,16,7,3,24],
		[20,16,7,8,4], [20,16,7,8,9], [20,16,7,8,14], [20,16,7,8,19], [20,16,7,8,24], [20,16,7,13,4], [20,16,7,13,9], [20,16,7,13,14], [20,16,7,13,19], [20,16,7,13,24],
		[20,16,7,18,4], [20,16,7,18,9], [20,16,7,18,14], [20,16,7,18,19], [20,16,7,18,24], [20,16,7,23,4], [20,16,7,23,9], [20,16,7,23,14], [20,16,7,23,19], [20,16,7,23,24],
		[20,16,12,3,4], [20,16,12,3,9], [20,16,12,3,14], [20,16,12,3,19], [20,16,12,3,24], [20,16,12,8,4], [20,16,12,8,9], [20,16,12,8,14], [20,16,12,8,19], [20,16,12,8,24],
		[20,16,12,13,4], [20,16,12,13,9], [20,16,12,13,14], [20,16,12,13,19], [20,16,12,13,24], [20,16,12,18,4], [20,16,12,18,9], [20,16,12,18,14], [20,16,12,18,19], [20,16,12,18,24],
		[20,16,12,23,4], [20,16,12,23,9], [20,16,12,23,14], [20,16,12,23,19], [20,16,12,23,24], [20,16,17,3,4], [20,16,17,3,9], [20,16,17,3,14], [20,16,17,3,19], [20,16,17,3,24],
		[20,16,17,8,4], [20,16,17,8,9], [20,16,17,8,14], [20,16,17,8,19], [20,16,17,8,24], [20,16,17,13,4], [20,16,17,13,9], [20,16,17,13,14], [20,16,17,13,19], [20,16,17,13,24],
		[20,16,17,18,4], [20,16,17,18,9], [20,16,17,18,14], [20,16,17,18,19], [20,16,17,18,24], [20,16,17,23,4], [20,16,17,23,9], [20,16,17,23,14], [20,16,17,23,19], [20,16,17,23,24],
		[20,16,22,3,4], [20,16,22,3,9], [20,16,22,3,14], [20,16,22,3,19], [20,16,22,3,24], [20,16,22,8,4], [20,16,22,8,9], [20,16,22,8,14], [20,16,22,8,19], [20,16,22,8,24],
		[20,16,22,13,4], [20,16,22,13,9], [20,16,22,13,14], [20,16,22,13,19], [20,16,22,13,24], [20,16,22,18,4], [20,16,22,18,9], [20,16,22,18,14], [20,16,22,18,19], [20,16,22,18,24],
		[20,16,22,23,4], [20,16,22,23,9], [20,16,22,23,14], [20,16,22,23,19], [20,16,22,23,24],
		[20,21,2,3,4], [20,21,2,3,9], [20,21,2,3,14], [20,21,2,3,19], [20,21,2,3,24], [20,21,2,8,4], [20,21,2,8,9], [20,21,2,8,14], [20,21,2,8,19], [20,21,2,8,24],
		[20,21,2,13,4], [20,21,2,13,9], [20,21,2,13,14], [20,21,2,13,19], [20,21,2,13,24], [20,21,2,18,4], [20,21,2,18,9], [20,21,2,18,14], [20,21,2,18,19], [20,21,2,18,24],
		[20,21,2,23,4], [20,21,2,23,9], [20,21,2,23,14], [20,21,2,23,19], [20,21,2,23,24], [20,21,7,3,4], [20,21,7,3,9], [20,21,7,3,14], [20,21,7,3,19], [20,21,7,3,24],
		[20,21,7,8,4], [20,21,7,8,9], [20,21,7,8,14], [20,21,7,8,19], [20,21,7,8,24], [20,21,7,13,4], [20,21,7,13,9], [20,21,7,13,14], [20,21,7,13,19], [20,21,7,13,24],
		[20,21,7,18,4], [20,21,7,18,9], [20,21,7,18,14], [20,21,7,18,19], [20,21,7,18,24], [20,21,7,23,4], [20,21,7,23,9], [20,21,7,23,14], [20,21,7,23,19], [20,21,7,23,24],
		[20,21,12,3,4], [20,21,12,3,9], [20,21,12,3,14], [20,21,12,3,19], [20,21,12,3,24], [20,21,12,8,4], [20,21,12,8,9], [20,21,12,8,14], [20,21,12,8,19], [20,21,12,8,24],
		[20,21,12,13,4], [20,21,12,13,9], [20,21,12,13,14], [20,21,12,13,19], [20,21,12,13,24], [20,21,12,18,4], [20,21,12,18,9], [20,21,12,18,14], [20,21,12,18,19], [20,21,12,18,24],
		[20,21,12,23,4], [20,21,12,23,9], [20,21,12,23,14], [20,21,12,23,19], [20,21,12,23,24], [20,21,17,3,4], [20,21,17,3,9], [20,21,17,3,14], [20,21,17,3,19], [20,21,17,3,24],
		[20,21,17,8,4], [20,21,17,8,9], [20,21,17,8,14], [20,21,17,8,19], [20,21,17,8,24], [20,21,17,13,4], [20,21,17,13,9], [20,21,17,13,14], [20,21,17,13,19], [20,21,17,13,24],
		[20,21,17,18,4], [20,21,17,18,9], [20,21,17,18,14], [20,21,17,18,19], [20,21,17,18,24], [20,21,17,23,4], [20,21,17,23,9], [20,21,17,23,14], [20,21,17,23,19], [20,21,17,23,24],
		[20,21,22,3,4], [20,21,22,3,9], [20,21,22,3,14], [20,21,22,3,19], [20,21,22,3,24], [20,21,22,8,4], [20,21,22,8,9], [20,21,22,8,14], [20,21,22,8,19], [20,21,22,8,24],
		[20,21,22,13,4], [20,21,22,13,9], [20,21,22,13,14], [20,21,22,13,19], [20,21,22,13,24], [20,21,22,18,4], [20,21,22,18,9], [20,21,22,18,14], [20,21,22,18,19], [20,21,22,18,24],
		[20,21,22,23,4], [20,21,22,23,9], [20,21,22,23,14], [20,21,22,23,19], [20,21,22,23,24],
	]
}