{
"skeleton": { "hash": "lc+HZQaLUr4", "spine": "4.0.45", "x": -352.99, "y": -250.37, "width": 704.67, "height": 489.48 },
"bones": [
	{ "name": "root" },
	{ "name": "Layer 0", "parent": "root", "length": 803.9, "rotation": 35.87, "x": -278.21, "y": -239.46 }
],
"slots": [
	{ "name": "Layer 0", "bone": "Layer 0", "attachment": "Layer 0" },
	{ "name": "1", "bone": "Layer 0", "attachment": "10", "blend": "additive" }
],
"skins": [
	{
		"name": "default",
		"attachments": {
			"1": {
				"1": {
					"type": "mesh",
					"uvs": [ 0.78477, 0.7127, 0.66249, 0.75921, 0.57441, 0.79828, 0.59337, 0.8078, 0.59136, 0.8218, 0.5625, 0.83766, 0.58094, 0.85976, 0.55482, 0.88327, 0.5124, 0.8942, 0.46052, 0.8852, 0.43875, 0.86752, 0.43562, 0.84103, 0.41516, 0.8124, 0.43315, 0.79583, 0.34891, 0.75538, 0.25435, 0.71819, 0.22575, 0.69404, 0.22504, 0.65911, 0.25856, 0.63204, 0.19558, 0.61149, 0.15997, 0.5614, 0.15076, 0.52824, 0.08113, 0.51408, 0.03485, 0.49621, 0.01233, 0.47759, 0.01488, 0.45847, 0.03655, 0.4462, 0.06642, 0.43911, 0.10481, 0.43639, 0.08322, 0.40991, 0.0896, 0.38207, 0.11651, 0.36686, 0.16389, 0.36279, 0.22138, 0.37433, 0.36079, 0.42327, 0.39311, 0.41086, 0.38013, 0.38851, 0.39137, 0.36297, 0.43844, 0.33879, 0.44684, 0.32066, 0.43965, 0.31021, 0.44978, 0.29784, 0.48661, 0.29009, 0.4868, 0.11832, 0.58554, 0.05303, 0.58204, 0.2891, 0.61186, 0.293, 0.63031, 0.30494, 0.62324, 0.31778, 0.63528, 0.33582, 0.67182, 0.33012, 0.71905, 0.33114, 0.74946, 0.34574, 0.79126, 0.33546, 0.84227, 0.34189, 0.8678, 0.35943, 0.87819, 0.38525, 0.86529, 0.42047, 0.84665, 0.44213, 0.83257, 0.45663, 0.85506, 0.46603, 0.8901, 0.49249, 0.90676, 0.53045, 0.89952, 0.56141, 0.87511, 0.59523, 0.82977, 0.62667, 0.76814, 0.64492, 0.79839, 0.67256 ],
					"triangles": [ 45, 43, 44, 42, 43, 45, 48, 46, 47, 39, 40, 41, 35, 37, 38, 36, 37, 35, 53, 55, 56, 55, 53, 54, 42, 39, 41, 30, 32, 29, 33, 28, 29, 56, 57, 53, 53, 58, 52, 57, 58, 53, 59, 52, 58, 26, 24, 25, 23, 24, 26, 28, 23, 27, 23, 26, 27, 28, 22, 23, 33, 29, 32, 31, 32, 30, 34, 28, 33, 34, 21, 28, 22, 28, 21, 20, 21, 34, 42, 45, 48, 48, 45, 46, 48, 39, 42, 38, 39, 48, 49, 38, 48, 62, 60, 61, 60, 63, 59, 62, 63, 60, 18, 19, 20, 52, 59, 49, 59, 64, 66, 63, 64, 59, 34, 18, 20, 52, 49, 50, 52, 50, 51, 35, 38, 49, 49, 59, 35, 59, 66, 35, 64, 65, 66, 16, 17, 18, 0, 66, 67, 15, 16, 18, 34, 35, 66, 18, 34, 66, 1, 14, 18, 66, 1, 18, 15, 18, 14, 0, 1, 66, 13, 14, 1, 2, 13, 1, 4, 2, 3, 5, 13, 2, 5, 2, 4, 11, 12, 13, 5, 11, 13, 10, 11, 5, 7, 10, 5, 6, 7, 5, 9, 10, 7, 8, 9, 7 ],
					"vertices": [ 593.13, 148.07, 641.02, 87.69, 681.1, 44.31, 690.44, 54.03, 704.48, 53.32, 720.67, 39.17, 742.62, 48.9, 766.45, 36.29, 777.84, 15.22, 769.38, -11, 751.9, -22.31, 725.4, -24.44, 696.94, -35.31, 680.15, -26.64, 640.52, -69.77, 604.28, -118.02, 580.38, -132.89, 545.39, -133.98, 517.92, -117.74, 498.01, -149.78, 448.2, -168.72, 415.08, -174.05, 401.64, -209.29, 384.23, -232.9, 365.82, -244.6, 346.63, -243.72, 334.11, -233.1, 326.7, -218.26, 323.56, -199.05, 297.26, -210.46, 269.31, -207.84, 253.78, -194.66, 249.2, -170.97, 260.15, -141.87, 307.69, -70.86, 294.92, -54.91, 272.67, -61.89, 246.96, -56.79, 222.24, -33.68, 203.99, -29.85, 193.59, -33.68, 181.09, -28.86, 172.94, -10.54, 0.86, -14.09, -65.6, 34.08, 170.93, 37.33, 174.52, 52.38, 186.29, 61.9, 199.23, 58.62, 217.17, 65.04, 211.08, 83.26, 211.59, 106.99, 225.9, 122.56, 215.15, 143.32, 221.05, 169.06, 238.35, 182.25, 264.11, 188.01, 299.52, 182.28, 321.42, 173.39, 336.1, 166.63, 345.28, 178.11, 371.41, 196.26, 409.26, 205.43, 440.36, 202.45, 474.5, 190.92, 506.47, 168.83, 525.41, 138.29, 552.78, 154.06 ],
					"hull": 68
				},
				"2": {
					"type": "mesh",
					"uvs": [ 0.78477, 0.7127, 0.66249, 0.75921, 0.57441, 0.79828, 0.59337, 0.8078, 0.59136, 0.8218, 0.5625, 0.83766, 0.58094, 0.85976, 0.55482, 0.88327, 0.5124, 0.8942, 0.46052, 0.8852, 0.43875, 0.86752, 0.43562, 0.84103, 0.41516, 0.8124, 0.43315, 0.79583, 0.34891, 0.75538, 0.25435, 0.71819, 0.22575, 0.69404, 0.22504, 0.65911, 0.25856, 0.63204, 0.19558, 0.61149, 0.15997, 0.5614, 0.15076, 0.52824, 0.08113, 0.51408, 0.03485, 0.49621, 0.01233, 0.47759, 0.01488, 0.45847, 0.03655, 0.4462, 0.06642, 0.43911, 0.10481, 0.43639, 0.08322, 0.40991, 0.0896, 0.38207, 0.11651, 0.36686, 0.16389, 0.36279, 0.22138, 0.37433, 0.36079, 0.42327, 0.39311, 0.41086, 0.38013, 0.38851, 0.39137, 0.36297, 0.43844, 0.33879, 0.44684, 0.32066, 0.43965, 0.31021, 0.44978, 0.29784, 0.48661, 0.29009, 0.4868, 0.11832, 0.58554, 0.05303, 0.58204, 0.2891, 0.61186, 0.293, 0.63031, 0.30494, 0.62324, 0.31778, 0.63528, 0.33582, 0.67182, 0.33012, 0.71905, 0.33114, 0.74946, 0.34574, 0.79126, 0.33546, 0.84227, 0.34189, 0.8678, 0.35943, 0.87819, 0.38525, 0.86529, 0.42047, 0.84665, 0.44213, 0.83257, 0.45663, 0.85506, 0.46603, 0.8901, 0.49249, 0.90676, 0.53045, 0.89952, 0.56141, 0.87511, 0.59523, 0.82977, 0.62667, 0.76814, 0.64492, 0.79839, 0.67256 ],
					"triangles": [ 45, 43, 44, 42, 43, 45, 48, 46, 47, 39, 40, 41, 35, 37, 38, 36, 37, 35, 53, 55, 56, 55, 53, 54, 42, 39, 41, 30, 32, 29, 33, 28, 29, 56, 57, 53, 53, 58, 52, 57, 58, 53, 59, 52, 58, 26, 24, 25, 23, 24, 26, 28, 23, 27, 23, 26, 27, 28, 22, 23, 33, 29, 32, 31, 32, 30, 34, 28, 33, 34, 21, 28, 22, 28, 21, 20, 21, 34, 42, 45, 48, 48, 45, 46, 48, 39, 42, 38, 39, 48, 49, 38, 48, 62, 60, 61, 60, 63, 59, 62, 63, 60, 18, 19, 20, 52, 59, 49, 59, 64, 66, 63, 64, 59, 34, 18, 20, 52, 49, 50, 52, 50, 51, 35, 38, 49, 49, 59, 35, 59, 66, 35, 64, 65, 66, 16, 17, 18, 0, 66, 67, 15, 16, 18, 34, 35, 66, 18, 34, 66, 1, 14, 18, 66, 1, 18, 15, 18, 14, 0, 1, 66, 13, 14, 1, 2, 13, 1, 4, 2, 3, 5, 13, 2, 5, 2, 4, 11, 12, 13, 5, 11, 13, 10, 11, 5, 7, 10, 5, 6, 7, 5, 9, 10, 7, 8, 9, 7 ],
					"vertices": [ 593.13, 148.07, 641.02, 87.69, 681.1, 44.31, 690.44, 54.03, 704.48, 53.32, 720.67, 39.17, 742.62, 48.9, 766.45, 36.29, 777.84, 15.22, 769.38, -11, 751.9, -22.31, 725.4, -24.44, 696.94, -35.31, 680.15, -26.64, 640.52, -69.77, 604.28, -118.02, 580.38, -132.89, 545.39, -133.98, 517.92, -117.74, 498.01, -149.78, 448.2, -168.72, 415.08, -174.05, 401.64, -209.29, 384.23, -232.9, 365.82, -244.6, 346.63, -243.72, 334.11, -233.1, 326.7, -218.26, 323.56, -199.05, 297.26, -210.46, 269.31, -207.84, 253.78, -194.66, 249.2, -170.97, 260.15, -141.87, 307.69, -70.86, 294.92, -54.91, 272.67, -61.89, 246.96, -56.79, 222.24, -33.68, 203.99, -29.85, 193.59, -33.68, 181.09, -28.86, 172.94, -10.54, 0.86, -14.09, -65.6, 34.08, 170.93, 37.33, 174.52, 52.38, 186.29, 61.9, 199.23, 58.62, 217.17, 65.04, 211.08, 83.26, 211.59, 106.99, 225.9, 122.56, 215.15, 143.32, 221.05, 169.06, 238.35, 182.25, 264.11, 188.01, 299.52, 182.28, 321.42, 173.39, 336.1, 166.63, 345.28, 178.11, 371.41, 196.26, 409.26, 205.43, 440.36, 202.45, 474.5, 190.92, 506.47, 168.83, 525.41, 138.29, 552.78, 154.06 ],
					"hull": 68
				},
				"3": {
					"type": "mesh",
					"uvs": [ 0.78477, 0.7127, 0.66249, 0.75921, 0.57441, 0.79828, 0.59337, 0.8078, 0.59136, 0.8218, 0.5625, 0.83766, 0.58094, 0.85976, 0.55482, 0.88327, 0.5124, 0.8942, 0.46052, 0.8852, 0.43875, 0.86752, 0.43562, 0.84103, 0.41516, 0.8124, 0.43315, 0.79583, 0.34891, 0.75538, 0.25435, 0.71819, 0.22575, 0.69404, 0.22504, 0.65911, 0.25856, 0.63204, 0.19558, 0.61149, 0.15997, 0.5614, 0.15076, 0.52824, 0.08113, 0.51408, 0.03485, 0.49621, 0.01233, 0.47759, 0.01488, 0.45847, 0.03655, 0.4462, 0.06642, 0.43911, 0.10481, 0.43639, 0.08322, 0.40991, 0.0896, 0.38207, 0.11651, 0.36686, 0.16389, 0.36279, 0.22138, 0.37433, 0.36079, 0.42327, 0.39311, 0.41086, 0.38013, 0.38851, 0.39137, 0.36297, 0.43844, 0.33879, 0.44684, 0.32066, 0.43965, 0.31021, 0.44978, 0.29784, 0.48661, 0.29009, 0.4868, 0.11832, 0.58554, 0.05303, 0.58204, 0.2891, 0.61186, 0.293, 0.63031, 0.30494, 0.62324, 0.31778, 0.63528, 0.33582, 0.67182, 0.33012, 0.71905, 0.33114, 0.74946, 0.34574, 0.79126, 0.33546, 0.84227, 0.34189, 0.8678, 0.35943, 0.87819, 0.38525, 0.86529, 0.42047, 0.84665, 0.44213, 0.83257, 0.45663, 0.85506, 0.46603, 0.8901, 0.49249, 0.90676, 0.53045, 0.89952, 0.56141, 0.87511, 0.59523, 0.82977, 0.62667, 0.76814, 0.64492, 0.79839, 0.67256 ],
					"triangles": [ 45, 43, 44, 42, 43, 45, 48, 46, 47, 39, 40, 41, 35, 37, 38, 36, 37, 35, 53, 55, 56, 55, 53, 54, 42, 39, 41, 30, 32, 29, 33, 28, 29, 56, 57, 53, 53, 58, 52, 57, 58, 53, 59, 52, 58, 26, 24, 25, 23, 24, 26, 28, 23, 27, 23, 26, 27, 28, 22, 23, 33, 29, 32, 31, 32, 30, 34, 28, 33, 34, 21, 28, 22, 28, 21, 20, 21, 34, 42, 45, 48, 48, 45, 46, 48, 39, 42, 38, 39, 48, 49, 38, 48, 62, 60, 61, 60, 63, 59, 62, 63, 60, 18, 19, 20, 52, 59, 49, 59, 64, 66, 63, 64, 59, 34, 18, 20, 52, 49, 50, 52, 50, 51, 35, 38, 49, 49, 59, 35, 59, 66, 35, 64, 65, 66, 16, 17, 18, 0, 66, 67, 15, 16, 18, 34, 35, 66, 18, 34, 66, 1, 14, 18, 66, 1, 18, 15, 18, 14, 0, 1, 66, 13, 14, 1, 2, 13, 1, 4, 2, 3, 5, 13, 2, 5, 2, 4, 11, 12, 13, 5, 11, 13, 10, 11, 5, 7, 10, 5, 6, 7, 5, 9, 10, 7, 8, 9, 7 ],
					"vertices": [ 593.13, 148.07, 641.02, 87.69, 681.1, 44.31, 690.44, 54.03, 704.48, 53.32, 720.67, 39.17, 742.62, 48.9, 766.45, 36.29, 777.84, 15.22, 769.38, -11, 751.9, -22.31, 725.4, -24.44, 696.94, -35.31, 680.15, -26.64, 640.52, -69.77, 604.28, -118.02, 580.38, -132.89, 545.39, -133.98, 517.92, -117.74, 498.01, -149.78, 448.2, -168.72, 415.08, -174.05, 401.64, -209.29, 384.23, -232.9, 365.82, -244.6, 346.63, -243.72, 334.11, -233.1, 326.7, -218.26, 323.56, -199.05, 297.26, -210.46, 269.31, -207.84, 253.78, -194.66, 249.2, -170.97, 260.15, -141.87, 307.69, -70.86, 294.92, -54.91, 272.67, -61.89, 246.96, -56.79, 222.24, -33.68, 203.99, -29.85, 193.59, -33.68, 181.09, -28.86, 172.94, -10.54, 0.86, -14.09, -65.6, 34.08, 170.93, 37.33, 174.52, 52.38, 186.29, 61.9, 199.23, 58.62, 217.17, 65.04, 211.08, 83.26, 211.59, 106.99, 225.9, 122.56, 215.15, 143.32, 221.05, 169.06, 238.35, 182.25, 264.11, 188.01, 299.52, 182.28, 321.42, 173.39, 336.1, 166.63, 345.28, 178.11, 371.41, 196.26, 409.26, 205.43, 440.36, 202.45, 474.5, 190.92, 506.47, 168.83, 525.41, 138.29, 552.78, 154.06 ],
					"hull": 68
				},
				"4": {
					"type": "mesh",
					"uvs": [ 0.78477, 0.7127, 0.66249, 0.75921, 0.57441, 0.79828, 0.59337, 0.8078, 0.59136, 0.8218, 0.5625, 0.83766, 0.58094, 0.85976, 0.55482, 0.88327, 0.5124, 0.8942, 0.46052, 0.8852, 0.43875, 0.86752, 0.43562, 0.84103, 0.41516, 0.8124, 0.43315, 0.79583, 0.34891, 0.75538, 0.25435, 0.71819, 0.22575, 0.69404, 0.22504, 0.65911, 0.25856, 0.63204, 0.19558, 0.61149, 0.15997, 0.5614, 0.15076, 0.52824, 0.08113, 0.51408, 0.03485, 0.49621, 0.01233, 0.47759, 0.01488, 0.45847, 0.03655, 0.4462, 0.06642, 0.43911, 0.10481, 0.43639, 0.08322, 0.40991, 0.0896, 0.38207, 0.11651, 0.36686, 0.16389, 0.36279, 0.22138, 0.37433, 0.36079, 0.42327, 0.39311, 0.41086, 0.38013, 0.38851, 0.39137, 0.36297, 0.43844, 0.33879, 0.44684, 0.32066, 0.43965, 0.31021, 0.44978, 0.29784, 0.48661, 0.29009, 0.4868, 0.11832, 0.58554, 0.05303, 0.58204, 0.2891, 0.61186, 0.293, 0.63031, 0.30494, 0.62324, 0.31778, 0.63528, 0.33582, 0.67182, 0.33012, 0.71905, 0.33114, 0.74946, 0.34574, 0.79126, 0.33546, 0.84227, 0.34189, 0.8678, 0.35943, 0.87819, 0.38525, 0.86529, 0.42047, 0.84665, 0.44213, 0.83257, 0.45663, 0.85506, 0.46603, 0.8901, 0.49249, 0.90676, 0.53045, 0.89952, 0.56141, 0.87511, 0.59523, 0.82977, 0.62667, 0.76814, 0.64492, 0.79839, 0.67256 ],
					"triangles": [ 45, 43, 44, 42, 43, 45, 48, 46, 47, 39, 40, 41, 35, 37, 38, 36, 37, 35, 53, 55, 56, 55, 53, 54, 42, 39, 41, 30, 32, 29, 33, 28, 29, 56, 57, 53, 53, 58, 52, 57, 58, 53, 59, 52, 58, 26, 24, 25, 23, 24, 26, 28, 23, 27, 23, 26, 27, 28, 22, 23, 33, 29, 32, 31, 32, 30, 34, 28, 33, 34, 21, 28, 22, 28, 21, 20, 21, 34, 42, 45, 48, 48, 45, 46, 48, 39, 42, 38, 39, 48, 49, 38, 48, 62, 60, 61, 60, 63, 59, 62, 63, 60, 18, 19, 20, 52, 59, 49, 59, 64, 66, 63, 64, 59, 34, 18, 20, 52, 49, 50, 52, 50, 51, 35, 38, 49, 49, 59, 35, 59, 66, 35, 64, 65, 66, 16, 17, 18, 0, 66, 67, 15, 16, 18, 34, 35, 66, 18, 34, 66, 1, 14, 18, 66, 1, 18, 15, 18, 14, 0, 1, 66, 13, 14, 1, 2, 13, 1, 4, 2, 3, 5, 13, 2, 5, 2, 4, 11, 12, 13, 5, 11, 13, 10, 11, 5, 7, 10, 5, 6, 7, 5, 9, 10, 7, 8, 9, 7 ],
					"vertices": [ 593.13, 148.07, 641.02, 87.69, 681.1, 44.31, 690.44, 54.03, 704.48, 53.32, 720.67, 39.17, 742.62, 48.9, 766.45, 36.29, 777.84, 15.22, 769.38, -11, 751.9, -22.31, 725.4, -24.44, 696.94, -35.31, 680.15, -26.64, 640.52, -69.77, 604.28, -118.02, 580.38, -132.89, 545.39, -133.98, 517.92, -117.74, 498.01, -149.78, 448.2, -168.72, 415.08, -174.05, 401.64, -209.29, 384.23, -232.9, 365.82, -244.6, 346.63, -243.72, 334.11, -233.1, 326.7, -218.26, 323.56, -199.05, 297.26, -210.46, 269.31, -207.84, 253.78, -194.66, 249.2, -170.97, 260.15, -141.87, 307.69, -70.86, 294.92, -54.91, 272.67, -61.89, 246.96, -56.79, 222.24, -33.68, 203.99, -29.85, 193.59, -33.68, 181.09, -28.86, 172.94, -10.54, 0.86, -14.09, -65.6, 34.08, 170.93, 37.33, 174.52, 52.38, 186.29, 61.9, 199.23, 58.62, 217.17, 65.04, 211.08, 83.26, 211.59, 106.99, 225.9, 122.56, 215.15, 143.32, 221.05, 169.06, 238.35, 182.25, 264.11, 188.01, 299.52, 182.28, 321.42, 173.39, 336.1, 166.63, 345.28, 178.11, 371.41, 196.26, 409.26, 205.43, 440.36, 202.45, 474.5, 190.92, 506.47, 168.83, 525.41, 138.29, 552.78, 154.06 ],
					"hull": 68
				},
				"5": {
					"type": "mesh",
					"uvs": [ 0.78477, 0.7127, 0.66249, 0.75921, 0.57441, 0.79828, 0.59337, 0.8078, 0.59136, 0.8218, 0.5625, 0.83766, 0.58094, 0.85976, 0.55482, 0.88327, 0.5124, 0.8942, 0.46052, 0.8852, 0.43875, 0.86752, 0.43562, 0.84103, 0.41516, 0.8124, 0.43315, 0.79583, 0.34891, 0.75538, 0.25435, 0.71819, 0.22575, 0.69404, 0.22504, 0.65911, 0.25856, 0.63204, 0.19558, 0.61149, 0.15997, 0.5614, 0.15076, 0.52824, 0.08113, 0.51408, 0.03485, 0.49621, 0.01233, 0.47759, 0.01488, 0.45847, 0.03655, 0.4462, 0.06642, 0.43911, 0.10481, 0.43639, 0.08322, 0.40991, 0.0896, 0.38207, 0.11651, 0.36686, 0.16389, 0.36279, 0.22138, 0.37433, 0.36079, 0.42327, 0.39311, 0.41086, 0.38013, 0.38851, 0.39137, 0.36297, 0.43844, 0.33879, 0.44684, 0.32066, 0.43965, 0.31021, 0.44978, 0.29784, 0.48661, 0.29009, 0.4868, 0.11832, 0.58554, 0.05303, 0.58204, 0.2891, 0.61186, 0.293, 0.63031, 0.30494, 0.62324, 0.31778, 0.63528, 0.33582, 0.67182, 0.33012, 0.71905, 0.33114, 0.74946, 0.34574, 0.79126, 0.33546, 0.84227, 0.34189, 0.8678, 0.35943, 0.87819, 0.38525, 0.86529, 0.42047, 0.84665, 0.44213, 0.83257, 0.45663, 0.85506, 0.46603, 0.8901, 0.49249, 0.90676, 0.53045, 0.89952, 0.56141, 0.87511, 0.59523, 0.82977, 0.62667, 0.76814, 0.64492, 0.79839, 0.67256 ],
					"triangles": [ 45, 43, 44, 42, 43, 45, 48, 46, 47, 39, 40, 41, 35, 37, 38, 36, 37, 35, 53, 55, 56, 55, 53, 54, 42, 39, 41, 30, 32, 29, 33, 28, 29, 56, 57, 53, 53, 58, 52, 57, 58, 53, 59, 52, 58, 26, 24, 25, 23, 24, 26, 28, 23, 27, 23, 26, 27, 28, 22, 23, 33, 29, 32, 31, 32, 30, 34, 28, 33, 34, 21, 28, 22, 28, 21, 20, 21, 34, 42, 45, 48, 48, 45, 46, 48, 39, 42, 38, 39, 48, 49, 38, 48, 62, 60, 61, 60, 63, 59, 62, 63, 60, 18, 19, 20, 52, 59, 49, 59, 64, 66, 63, 64, 59, 34, 18, 20, 52, 49, 50, 52, 50, 51, 35, 38, 49, 49, 59, 35, 59, 66, 35, 64, 65, 66, 16, 17, 18, 0, 66, 67, 15, 16, 18, 34, 35, 66, 18, 34, 66, 1, 14, 18, 66, 1, 18, 15, 18, 14, 0, 1, 66, 13, 14, 1, 2, 13, 1, 4, 2, 3, 5, 13, 2, 5, 2, 4, 11, 12, 13, 5, 11, 13, 10, 11, 5, 7, 10, 5, 6, 7, 5, 9, 10, 7, 8, 9, 7 ],
					"vertices": [ 593.13, 148.07, 641.02, 87.69, 681.1, 44.31, 690.44, 54.03, 704.48, 53.32, 720.67, 39.17, 742.62, 48.9, 766.45, 36.29, 777.84, 15.22, 769.38, -11, 751.9, -22.31, 725.4, -24.44, 696.94, -35.31, 680.15, -26.64, 640.52, -69.77, 604.28, -118.02, 580.38, -132.89, 545.39, -133.98, 517.92, -117.74, 498.01, -149.78, 448.2, -168.72, 415.08, -174.05, 401.64, -209.29, 384.23, -232.9, 365.82, -244.6, 346.63, -243.72, 334.11, -233.1, 326.7, -218.26, 323.56, -199.05, 297.26, -210.46, 269.31, -207.84, 253.78, -194.66, 249.2, -170.97, 260.15, -141.87, 307.69, -70.86, 294.92, -54.91, 272.67, -61.89, 246.96, -56.79, 222.24, -33.68, 203.99, -29.85, 193.59, -33.68, 181.09, -28.86, 172.94, -10.54, 0.86, -14.09, -65.6, 34.08, 170.93, 37.33, 174.52, 52.38, 186.29, 61.9, 199.23, 58.62, 217.17, 65.04, 211.08, 83.26, 211.59, 106.99, 225.9, 122.56, 215.15, 143.32, 221.05, 169.06, 238.35, 182.25, 264.11, 188.01, 299.52, 182.28, 321.42, 173.39, 336.1, 166.63, 345.28, 178.11, 371.41, 196.26, 409.26, 205.43, 440.36, 202.45, 474.5, 190.92, 506.47, 168.83, 525.41, 138.29, 552.78, 154.06 ],
					"hull": 68
				},
				"6": {
					"type": "mesh",
					"uvs": [ 0.78477, 0.7127, 0.66249, 0.75921, 0.57441, 0.79828, 0.59337, 0.8078, 0.59136, 0.8218, 0.5625, 0.83766, 0.58094, 0.85976, 0.55482, 0.88327, 0.5124, 0.8942, 0.46052, 0.8852, 0.43875, 0.86752, 0.43562, 0.84103, 0.41516, 0.8124, 0.43315, 0.79583, 0.34891, 0.75538, 0.25435, 0.71819, 0.22575, 0.69404, 0.22504, 0.65911, 0.25856, 0.63204, 0.19558, 0.61149, 0.15997, 0.5614, 0.15076, 0.52824, 0.08113, 0.51408, 0.03485, 0.49621, 0.01233, 0.47759, 0.01488, 0.45847, 0.03655, 0.4462, 0.06642, 0.43911, 0.10481, 0.43639, 0.08322, 0.40991, 0.0896, 0.38207, 0.11651, 0.36686, 0.16389, 0.36279, 0.22138, 0.37433, 0.36079, 0.42327, 0.39311, 0.41086, 0.38013, 0.38851, 0.39137, 0.36297, 0.43844, 0.33879, 0.44684, 0.32066, 0.43965, 0.31021, 0.44978, 0.29784, 0.48661, 0.29009, 0.4868, 0.11832, 0.58554, 0.05303, 0.58204, 0.2891, 0.61186, 0.293, 0.63031, 0.30494, 0.62324, 0.31778, 0.63528, 0.33582, 0.67182, 0.33012, 0.71905, 0.33114, 0.74946, 0.34574, 0.79126, 0.33546, 0.84227, 0.34189, 0.8678, 0.35943, 0.87819, 0.38525, 0.86529, 0.42047, 0.84665, 0.44213, 0.83257, 0.45663, 0.85506, 0.46603, 0.8901, 0.49249, 0.90676, 0.53045, 0.89952, 0.56141, 0.87511, 0.59523, 0.82977, 0.62667, 0.76814, 0.64492, 0.79839, 0.67256 ],
					"triangles": [ 45, 43, 44, 42, 43, 45, 48, 46, 47, 39, 40, 41, 35, 37, 38, 36, 37, 35, 53, 55, 56, 55, 53, 54, 42, 39, 41, 30, 32, 29, 33, 28, 29, 56, 57, 53, 53, 58, 52, 57, 58, 53, 59, 52, 58, 26, 24, 25, 23, 24, 26, 28, 23, 27, 23, 26, 27, 28, 22, 23, 33, 29, 32, 31, 32, 30, 34, 28, 33, 34, 21, 28, 22, 28, 21, 20, 21, 34, 42, 45, 48, 48, 45, 46, 48, 39, 42, 38, 39, 48, 49, 38, 48, 62, 60, 61, 60, 63, 59, 62, 63, 60, 18, 19, 20, 52, 59, 49, 59, 64, 66, 63, 64, 59, 34, 18, 20, 52, 49, 50, 52, 50, 51, 35, 38, 49, 49, 59, 35, 59, 66, 35, 64, 65, 66, 16, 17, 18, 0, 66, 67, 15, 16, 18, 34, 35, 66, 18, 34, 66, 1, 14, 18, 66, 1, 18, 15, 18, 14, 0, 1, 66, 13, 14, 1, 2, 13, 1, 4, 2, 3, 5, 13, 2, 5, 2, 4, 11, 12, 13, 5, 11, 13, 10, 11, 5, 7, 10, 5, 6, 7, 5, 9, 10, 7, 8, 9, 7 ],
					"vertices": [ 593.13, 148.07, 641.02, 87.69, 681.1, 44.31, 690.44, 54.03, 704.48, 53.32, 720.67, 39.17, 742.62, 48.9, 766.45, 36.29, 777.84, 15.22, 769.38, -11, 751.9, -22.31, 725.4, -24.44, 696.94, -35.31, 680.15, -26.64, 640.52, -69.77, 604.28, -118.02, 580.38, -132.89, 545.39, -133.98, 517.92, -117.74, 498.01, -149.78, 448.2, -168.72, 415.08, -174.05, 401.64, -209.29, 384.23, -232.9, 365.82, -244.6, 346.63, -243.72, 334.11, -233.1, 326.7, -218.26, 323.56, -199.05, 297.26, -210.46, 269.31, -207.84, 253.78, -194.66, 249.2, -170.97, 260.15, -141.87, 307.69, -70.86, 294.92, -54.91, 272.67, -61.89, 246.96, -56.79, 222.24, -33.68, 203.99, -29.85, 193.59, -33.68, 181.09, -28.86, 172.94, -10.54, 0.86, -14.09, -65.6, 34.08, 170.93, 37.33, 174.52, 52.38, 186.29, 61.9, 199.23, 58.62, 217.17, 65.04, 211.08, 83.26, 211.59, 106.99, 225.9, 122.56, 215.15, 143.32, 221.05, 169.06, 238.35, 182.25, 264.11, 188.01, 299.52, 182.28, 321.42, 173.39, 336.1, 166.63, 345.28, 178.11, 371.41, 196.26, 409.26, 205.43, 440.36, 202.45, 474.5, 190.92, 506.47, 168.83, 525.41, 138.29, 552.78, 154.06 ],
					"hull": 68
				},
				"7": {
					"type": "mesh",
					"uvs": [ 0.78477, 0.7127, 0.66249, 0.75921, 0.57441, 0.79828, 0.59337, 0.8078, 0.59136, 0.8218, 0.5625, 0.83766, 0.58094, 0.85976, 0.55482, 0.88327, 0.5124, 0.8942, 0.46052, 0.8852, 0.43875, 0.86752, 0.43562, 0.84103, 0.41516, 0.8124, 0.43315, 0.79583, 0.34891, 0.75538, 0.25435, 0.71819, 0.22575, 0.69404, 0.22504, 0.65911, 0.25856, 0.63204, 0.19558, 0.61149, 0.15997, 0.5614, 0.15076, 0.52824, 0.08113, 0.51408, 0.03485, 0.49621, 0.01233, 0.47759, 0.01488, 0.45847, 0.03655, 0.4462, 0.06642, 0.43911, 0.10481, 0.43639, 0.08322, 0.40991, 0.0896, 0.38207, 0.11651, 0.36686, 0.16389, 0.36279, 0.22138, 0.37433, 0.36079, 0.42327, 0.39311, 0.41086, 0.38013, 0.38851, 0.39137, 0.36297, 0.43844, 0.33879, 0.44684, 0.32066, 0.43965, 0.31021, 0.44978, 0.29784, 0.48661, 0.29009, 0.4868, 0.11832, 0.58554, 0.05303, 0.58204, 0.2891, 0.61186, 0.293, 0.63031, 0.30494, 0.62324, 0.31778, 0.63528, 0.33582, 0.67182, 0.33012, 0.71905, 0.33114, 0.74946, 0.34574, 0.79126, 0.33546, 0.84227, 0.34189, 0.8678, 0.35943, 0.87819, 0.38525, 0.86529, 0.42047, 0.84665, 0.44213, 0.83257, 0.45663, 0.85506, 0.46603, 0.8901, 0.49249, 0.90676, 0.53045, 0.89952, 0.56141, 0.87511, 0.59523, 0.82977, 0.62667, 0.76814, 0.64492, 0.79839, 0.67256 ],
					"triangles": [ 45, 43, 44, 42, 43, 45, 48, 46, 47, 39, 40, 41, 35, 37, 38, 36, 37, 35, 53, 55, 56, 55, 53, 54, 42, 39, 41, 30, 32, 29, 33, 28, 29, 56, 57, 53, 53, 58, 52, 57, 58, 53, 59, 52, 58, 26, 24, 25, 23, 24, 26, 28, 23, 27, 23, 26, 27, 28, 22, 23, 33, 29, 32, 31, 32, 30, 34, 28, 33, 34, 21, 28, 22, 28, 21, 20, 21, 34, 42, 45, 48, 48, 45, 46, 48, 39, 42, 38, 39, 48, 49, 38, 48, 62, 60, 61, 60, 63, 59, 62, 63, 60, 18, 19, 20, 52, 59, 49, 59, 64, 66, 63, 64, 59, 34, 18, 20, 52, 49, 50, 52, 50, 51, 35, 38, 49, 49, 59, 35, 59, 66, 35, 64, 65, 66, 16, 17, 18, 0, 66, 67, 15, 16, 18, 34, 35, 66, 18, 34, 66, 1, 14, 18, 66, 1, 18, 15, 18, 14, 0, 1, 66, 13, 14, 1, 2, 13, 1, 4, 2, 3, 5, 13, 2, 5, 2, 4, 11, 12, 13, 5, 11, 13, 10, 11, 5, 7, 10, 5, 6, 7, 5, 9, 10, 7, 8, 9, 7 ],
					"vertices": [ 593.13, 148.07, 641.02, 87.69, 681.1, 44.31, 690.44, 54.03, 704.48, 53.32, 720.67, 39.17, 742.62, 48.9, 766.45, 36.29, 777.84, 15.22, 769.38, -11, 751.9, -22.31, 725.4, -24.44, 696.94, -35.31, 680.15, -26.64, 640.52, -69.77, 604.28, -118.02, 580.38, -132.89, 545.39, -133.98, 517.92, -117.74, 498.01, -149.78, 448.2, -168.72, 415.08, -174.05, 401.64, -209.29, 384.23, -232.9, 365.82, -244.6, 346.63, -243.72, 334.11, -233.1, 326.7, -218.26, 323.56, -199.05, 297.26, -210.46, 269.31, -207.84, 253.78, -194.66, 249.2, -170.97, 260.15, -141.87, 307.69, -70.86, 294.92, -54.91, 272.67, -61.89, 246.96, -56.79, 222.24, -33.68, 203.99, -29.85, 193.59, -33.68, 181.09, -28.86, 172.94, -10.54, 0.86, -14.09, -65.6, 34.08, 170.93, 37.33, 174.52, 52.38, 186.29, 61.9, 199.23, 58.62, 217.17, 65.04, 211.08, 83.26, 211.59, 106.99, 225.9, 122.56, 215.15, 143.32, 221.05, 169.06, 238.35, 182.25, 264.11, 188.01, 299.52, 182.28, 321.42, 173.39, 336.1, 166.63, 345.28, 178.11, 371.41, 196.26, 409.26, 205.43, 440.36, 202.45, 474.5, 190.92, 506.47, 168.83, 525.41, 138.29, 552.78, 154.06 ],
					"hull": 68
				},
				"8": {
					"type": "mesh",
					"uvs": [ 0.78477, 0.7127, 0.66249, 0.75921, 0.57441, 0.79828, 0.59337, 0.8078, 0.59136, 0.8218, 0.5625, 0.83766, 0.58094, 0.85976, 0.55482, 0.88327, 0.5124, 0.8942, 0.46052, 0.8852, 0.43875, 0.86752, 0.43562, 0.84103, 0.41516, 0.8124, 0.43315, 0.79583, 0.34891, 0.75538, 0.25435, 0.71819, 0.22575, 0.69404, 0.22504, 0.65911, 0.25856, 0.63204, 0.19558, 0.61149, 0.15997, 0.5614, 0.15076, 0.52824, 0.08113, 0.51408, 0.03485, 0.49621, 0.01233, 0.47759, 0.01488, 0.45847, 0.03655, 0.4462, 0.06642, 0.43911, 0.10481, 0.43639, 0.08322, 0.40991, 0.0896, 0.38207, 0.11651, 0.36686, 0.16389, 0.36279, 0.22138, 0.37433, 0.36079, 0.42327, 0.39311, 0.41086, 0.38013, 0.38851, 0.39137, 0.36297, 0.43844, 0.33879, 0.44684, 0.32066, 0.43965, 0.31021, 0.44978, 0.29784, 0.48661, 0.29009, 0.4868, 0.11832, 0.58554, 0.05303, 0.58204, 0.2891, 0.61186, 0.293, 0.63031, 0.30494, 0.62324, 0.31778, 0.63528, 0.33582, 0.67182, 0.33012, 0.71905, 0.33114, 0.74946, 0.34574, 0.79126, 0.33546, 0.84227, 0.34189, 0.8678, 0.35943, 0.87819, 0.38525, 0.86529, 0.42047, 0.84665, 0.44213, 0.83257, 0.45663, 0.85506, 0.46603, 0.8901, 0.49249, 0.90676, 0.53045, 0.89952, 0.56141, 0.87511, 0.59523, 0.82977, 0.62667, 0.76814, 0.64492, 0.79839, 0.67256 ],
					"triangles": [ 45, 43, 44, 42, 43, 45, 48, 46, 47, 39, 40, 41, 35, 37, 38, 36, 37, 35, 53, 55, 56, 55, 53, 54, 42, 39, 41, 30, 32, 29, 33, 28, 29, 56, 57, 53, 53, 58, 52, 57, 58, 53, 59, 52, 58, 26, 24, 25, 23, 24, 26, 28, 23, 27, 23, 26, 27, 28, 22, 23, 33, 29, 32, 31, 32, 30, 34, 28, 33, 34, 21, 28, 22, 28, 21, 20, 21, 34, 42, 45, 48, 48, 45, 46, 48, 39, 42, 38, 39, 48, 49, 38, 48, 62, 60, 61, 60, 63, 59, 62, 63, 60, 18, 19, 20, 52, 59, 49, 59, 64, 66, 63, 64, 59, 34, 18, 20, 52, 49, 50, 52, 50, 51, 35, 38, 49, 49, 59, 35, 59, 66, 35, 64, 65, 66, 16, 17, 18, 0, 66, 67, 15, 16, 18, 34, 35, 66, 18, 34, 66, 1, 14, 18, 66, 1, 18, 15, 18, 14, 0, 1, 66, 13, 14, 1, 2, 13, 1, 4, 2, 3, 5, 13, 2, 5, 2, 4, 11, 12, 13, 5, 11, 13, 10, 11, 5, 7, 10, 5, 6, 7, 5, 9, 10, 7, 8, 9, 7 ],
					"vertices": [ 593.13, 148.07, 641.02, 87.69, 681.1, 44.31, 690.44, 54.03, 704.48, 53.32, 720.67, 39.17, 742.62, 48.9, 766.45, 36.29, 777.84, 15.22, 769.38, -11, 751.9, -22.31, 725.4, -24.44, 696.94, -35.31, 680.15, -26.64, 640.52, -69.77, 604.28, -118.02, 580.38, -132.89, 545.39, -133.98, 517.92, -117.74, 498.01, -149.78, 448.2, -168.72, 415.08, -174.05, 401.64, -209.29, 384.23, -232.9, 365.82, -244.6, 346.63, -243.72, 334.11, -233.1, 326.7, -218.26, 323.56, -199.05, 297.26, -210.46, 269.31, -207.84, 253.78, -194.66, 249.2, -170.97, 260.15, -141.87, 307.69, -70.86, 294.92, -54.91, 272.67, -61.89, 246.96, -56.79, 222.24, -33.68, 203.99, -29.85, 193.59, -33.68, 181.09, -28.86, 172.94, -10.54, 0.86, -14.09, -65.6, 34.08, 170.93, 37.33, 174.52, 52.38, 186.29, 61.9, 199.23, 58.62, 217.17, 65.04, 211.08, 83.26, 211.59, 106.99, 225.9, 122.56, 215.15, 143.32, 221.05, 169.06, 238.35, 182.25, 264.11, 188.01, 299.52, 182.28, 321.42, 173.39, 336.1, 166.63, 345.28, 178.11, 371.41, 196.26, 409.26, 205.43, 440.36, 202.45, 474.5, 190.92, 506.47, 168.83, 525.41, 138.29, 552.78, 154.06 ],
					"hull": 68
				},
				"9": {
					"type": "mesh",
					"uvs": [ 0.78477, 0.7127, 0.66249, 0.75921, 0.57441, 0.79828, 0.59337, 0.8078, 0.59136, 0.8218, 0.5625, 0.83766, 0.58094, 0.85976, 0.55482, 0.88327, 0.5124, 0.8942, 0.46052, 0.8852, 0.43875, 0.86752, 0.43562, 0.84103, 0.41516, 0.8124, 0.43315, 0.79583, 0.34891, 0.75538, 0.25435, 0.71819, 0.22575, 0.69404, 0.22504, 0.65911, 0.25856, 0.63204, 0.19558, 0.61149, 0.15997, 0.5614, 0.15076, 0.52824, 0.08113, 0.51408, 0.03485, 0.49621, 0.01233, 0.47759, 0.01488, 0.45847, 0.03655, 0.4462, 0.06642, 0.43911, 0.10481, 0.43639, 0.08322, 0.40991, 0.0896, 0.38207, 0.11651, 0.36686, 0.16389, 0.36279, 0.22138, 0.37433, 0.36079, 0.42327, 0.39311, 0.41086, 0.38013, 0.38851, 0.39137, 0.36297, 0.43844, 0.33879, 0.44684, 0.32066, 0.43965, 0.31021, 0.44978, 0.29784, 0.48661, 0.29009, 0.4868, 0.11832, 0.58554, 0.05303, 0.58204, 0.2891, 0.61186, 0.293, 0.63031, 0.30494, 0.62324, 0.31778, 0.63528, 0.33582, 0.67182, 0.33012, 0.71905, 0.33114, 0.74946, 0.34574, 0.79126, 0.33546, 0.84227, 0.34189, 0.8678, 0.35943, 0.87819, 0.38525, 0.86529, 0.42047, 0.84665, 0.44213, 0.83257, 0.45663, 0.85506, 0.46603, 0.8901, 0.49249, 0.90676, 0.53045, 0.89952, 0.56141, 0.87511, 0.59523, 0.82977, 0.62667, 0.76814, 0.64492, 0.79839, 0.67256 ],
					"triangles": [ 45, 43, 44, 42, 43, 45, 48, 46, 47, 39, 40, 41, 35, 37, 38, 36, 37, 35, 53, 55, 56, 55, 53, 54, 42, 39, 41, 30, 32, 29, 33, 28, 29, 56, 57, 53, 53, 58, 52, 57, 58, 53, 59, 52, 58, 26, 24, 25, 23, 24, 26, 28, 23, 27, 23, 26, 27, 28, 22, 23, 33, 29, 32, 31, 32, 30, 34, 28, 33, 34, 21, 28, 22, 28, 21, 20, 21, 34, 42, 45, 48, 48, 45, 46, 48, 39, 42, 38, 39, 48, 49, 38, 48, 62, 60, 61, 60, 63, 59, 62, 63, 60, 18, 19, 20, 52, 59, 49, 59, 64, 66, 63, 64, 59, 34, 18, 20, 52, 49, 50, 52, 50, 51, 35, 38, 49, 49, 59, 35, 59, 66, 35, 64, 65, 66, 16, 17, 18, 0, 66, 67, 15, 16, 18, 34, 35, 66, 18, 34, 66, 1, 14, 18, 66, 1, 18, 15, 18, 14, 0, 1, 66, 13, 14, 1, 2, 13, 1, 4, 2, 3, 5, 13, 2, 5, 2, 4, 11, 12, 13, 5, 11, 13, 10, 11, 5, 7, 10, 5, 6, 7, 5, 9, 10, 7, 8, 9, 7 ],
					"vertices": [ 593.13, 148.07, 641.02, 87.69, 681.1, 44.31, 690.44, 54.03, 704.48, 53.32, 720.67, 39.17, 742.62, 48.9, 766.45, 36.29, 777.84, 15.22, 769.38, -11, 751.9, -22.31, 725.4, -24.44, 696.94, -35.31, 680.15, -26.64, 640.52, -69.77, 604.28, -118.02, 580.38, -132.89, 545.39, -133.98, 517.92, -117.74, 498.01, -149.78, 448.2, -168.72, 415.08, -174.05, 401.64, -209.29, 384.23, -232.9, 365.82, -244.6, 346.63, -243.72, 334.11, -233.1, 326.7, -218.26, 323.56, -199.05, 297.26, -210.46, 269.31, -207.84, 253.78, -194.66, 249.2, -170.97, 260.15, -141.87, 307.69, -70.86, 294.92, -54.91, 272.67, -61.89, 246.96, -56.79, 222.24, -33.68, 203.99, -29.85, 193.59, -33.68, 181.09, -28.86, 172.94, -10.54, 0.86, -14.09, -65.6, 34.08, 170.93, 37.33, 174.52, 52.38, 186.29, 61.9, 199.23, 58.62, 217.17, 65.04, 211.08, 83.26, 211.59, 106.99, 225.9, 122.56, 215.15, 143.32, 221.05, 169.06, 238.35, 182.25, 264.11, 188.01, 299.52, 182.28, 321.42, 173.39, 336.1, 166.63, 345.28, 178.11, 371.41, 196.26, 409.26, 205.43, 440.36, 202.45, 474.5, 190.92, 506.47, 168.83, 525.41, 138.29, 552.78, 154.06 ],
					"hull": 68
				},
				"10": {
					"type": "mesh",
					"uvs": [ 0.78477, 0.7127, 0.66249, 0.75921, 0.57441, 0.79828, 0.59337, 0.8078, 0.59136, 0.8218, 0.5625, 0.83766, 0.58094, 0.85976, 0.55482, 0.88327, 0.5124, 0.8942, 0.46052, 0.8852, 0.43875, 0.86752, 0.43562, 0.84103, 0.41516, 0.8124, 0.43315, 0.79583, 0.34891, 0.75538, 0.25435, 0.71819, 0.22575, 0.69404, 0.22504, 0.65911, 0.25856, 0.63204, 0.19558, 0.61149, 0.15997, 0.5614, 0.15076, 0.52824, 0.08113, 0.51408, 0.03485, 0.49621, 0.01233, 0.47759, 0.01488, 0.45847, 0.03655, 0.4462, 0.06642, 0.43911, 0.10481, 0.43639, 0.08322, 0.40991, 0.0896, 0.38207, 0.11651, 0.36686, 0.16389, 0.36279, 0.22138, 0.37433, 0.36079, 0.42327, 0.39311, 0.41086, 0.38013, 0.38851, 0.39137, 0.36297, 0.43844, 0.33879, 0.44684, 0.32066, 0.43965, 0.31021, 0.44978, 0.29784, 0.48661, 0.29009, 0.4868, 0.11832, 0.58554, 0.05303, 0.58204, 0.2891, 0.61186, 0.293, 0.63031, 0.30494, 0.62324, 0.31778, 0.63528, 0.33582, 0.67182, 0.33012, 0.71905, 0.33114, 0.74946, 0.34574, 0.79126, 0.33546, 0.84227, 0.34189, 0.8678, 0.35943, 0.87819, 0.38525, 0.86529, 0.42047, 0.84665, 0.44213, 0.83257, 0.45663, 0.85506, 0.46603, 0.8901, 0.49249, 0.90676, 0.53045, 0.89952, 0.56141, 0.87511, 0.59523, 0.82977, 0.62667, 0.76814, 0.64492, 0.79839, 0.67256 ],
					"triangles": [ 45, 43, 44, 42, 43, 45, 48, 46, 47, 39, 40, 41, 35, 37, 38, 36, 37, 35, 53, 55, 56, 55, 53, 54, 42, 39, 41, 30, 32, 29, 33, 28, 29, 56, 57, 53, 53, 58, 52, 57, 58, 53, 59, 52, 58, 26, 24, 25, 23, 24, 26, 28, 23, 27, 23, 26, 27, 28, 22, 23, 33, 29, 32, 31, 32, 30, 34, 28, 33, 34, 21, 28, 22, 28, 21, 20, 21, 34, 42, 45, 48, 48, 45, 46, 48, 39, 42, 38, 39, 48, 49, 38, 48, 62, 60, 61, 60, 63, 59, 62, 63, 60, 18, 19, 20, 52, 59, 49, 59, 64, 66, 63, 64, 59, 34, 18, 20, 52, 49, 50, 52, 50, 51, 35, 38, 49, 49, 59, 35, 59, 66, 35, 64, 65, 66, 16, 17, 18, 0, 66, 67, 15, 16, 18, 34, 35, 66, 18, 34, 66, 1, 14, 18, 66, 1, 18, 15, 18, 14, 0, 1, 66, 13, 14, 1, 2, 13, 1, 4, 2, 3, 5, 13, 2, 5, 2, 4, 11, 12, 13, 5, 11, 13, 10, 11, 5, 7, 10, 5, 6, 7, 5, 9, 10, 7, 8, 9, 7 ],
					"vertices": [ 593.13, 148.07, 641.02, 87.69, 681.1, 44.31, 690.44, 54.03, 704.48, 53.32, 720.67, 39.17, 742.62, 48.9, 766.45, 36.29, 777.84, 15.22, 769.38, -11, 751.9, -22.31, 725.4, -24.44, 696.94, -35.31, 680.15, -26.64, 640.52, -69.77, 604.28, -118.02, 580.38, -132.89, 545.39, -133.98, 517.92, -117.74, 498.01, -149.78, 448.2, -168.72, 415.08, -174.05, 401.64, -209.29, 384.23, -232.9, 365.82, -244.6, 346.63, -243.72, 334.11, -233.1, 326.7, -218.26, 323.56, -199.05, 297.26, -210.46, 269.31, -207.84, 253.78, -194.66, 249.2, -170.97, 260.15, -141.87, 307.69, -70.86, 294.92, -54.91, 272.67, -61.89, 246.96, -56.79, 222.24, -33.68, 203.99, -29.85, 193.59, -33.68, 181.09, -28.86, 172.94, -10.54, 0.86, -14.09, -65.6, 34.08, 170.93, 37.33, 174.52, 52.38, 186.29, 61.9, 199.23, 58.62, 217.17, 65.04, 211.08, 83.26, 211.59, 106.99, 225.9, 122.56, 215.15, 143.32, 221.05, 169.06, 238.35, 182.25, 264.11, 188.01, 299.52, 182.28, 321.42, 173.39, 336.1, 166.63, 345.28, 178.11, 371.41, 196.26, 409.26, 205.43, 440.36, 202.45, 474.5, 190.92, 506.47, 168.83, 525.41, 138.29, 552.78, 154.06 ],
					"hull": 68
				}
			},
			"Layer 0": {
				"Layer 0": {
					"type": "mesh",
					"uvs": [ 0.7922, 0.05246, 0.80434, 0.07338, 0.81007, 0.09503, 0.80986, 0.12546, 0.80382, 0.15389, 0.79521, 0.17099, 0.78204, 0.17861, 0.77658, 0.21556, 0.76893, 0.23595, 0.75063, 0.24425, 0.74226, 0.3216, 0.74161, 0.39667, 0.74065, 0.46834, 0.73238, 0.51953, 0.71776, 0.54865, 0.69833, 0.56811, 0.67359, 0.57679, 0.67355, 0.62529, 0.66336, 0.6921, 0.64997, 0.72552, 0.62425, 0.78206, 0.6353, 0.86292, 0.63186, 0.92743, 0.61438, 0.96615, 0.589, 0.97089, 0.56597, 0.93607, 0.54919, 0.97854, 0.52979, 1, 0.50315, 0.9945, 0.48704, 0.95392, 0.48147, 0.89658, 0.48414, 0.82892, 0.4916, 0.77641, 0.472, 0.70116, 0.46302, 0.71777, 0.44976, 0.75947, 0.43592, 0.77958, 0.41145, 0.78824, 0.39221, 0.77808, 0.37436, 0.79705, 0.37301, 0.79711, 0.36929, 0.81177, 0.36222, 0.81507, 0.34984, 0.81533, 0.34122, 0.80541, 0.33741, 0.80549, 0.20688, 0.99999, 0.12233, 1, 0.30667, 0.7229, 0.30111, 0.69154, 0.30668, 0.66814, 0.33496, 0.62499, 0.32471, 0.61976, 0.3055, 0.5866, 0.30037, 0.55725, 0.30324, 0.52882, 0.28831, 0.51209, 0.27508, 0.47184, 0.27494, 0.43968, 0.28047, 0.41456, 0.29858, 0.37653, 0.33687, 0.33987, 0.36509, 0.32998, 0.36629, 0.30031, 0.38228, 0.22419, 0.42041, 0.15704, 0.44814, 0.13811, 0.48819, 0.13025, 0.53072, 0.1545, 0.54126, 0.1124, 0.55843, 0.08122, 0.58547, 0.07022, 0.62742, 0.09294, 0.66326, 0.115, 0.70705, 0.12793, 0.71474, 0.09435, 0.72651, 0.0865, 0.74407, 0.08421, 0.75078, 0.06377, 0.77044, 0.04413, 0.49758, 0.77098, 0.50486, 0.74781, 0.51738, 0.71867, 0.53046, 0.70222, 0.54466, 0.70035, 0.55662, 0.7097, 0.55251, 0.71792, 0.5499, 0.7239, 0.53214, 0.72539, 0.52243, 0.73548, 0.51421, 0.7523, 0.50673, 0.77846, 0.50019, 0.81135, 0.498, 0.83006, 0.49555, 0.86392, 0.498, 0.91292, 0.50495, 0.94119, 0.51443, 0.95338, 0.52661, 0.95778, 0.53643, 0.94999, 0.54625, 0.93611, 0.55455, 0.91376, 0.55793, 0.89751, 0.56747, 0.81175, 0.57657, 0.80987, 0.5761, 0.83561, 0.5739, 0.8692, 0.5706, 0.89872, 0.5626, 0.87329, 0.5659, 0.84943, 0.54531, 0.75121, 0.54314, 0.78113, 0.54434, 0.81492, 0.54772, 0.84436, 0.55424, 0.88152, 0.5651, 0.92024, 0.56293, 0.70169, 0.57028, 0.69786, 0.58051, 0.69914, 0.58898, 0.70585, 0.57939, 0.71831, 0.56872, 0.72053, 0.56212, 0.72753, 0.55679, 0.73899, 0.55275, 0.75436, 0.5514, 0.77574, 0.55226, 0.80728, 0.55441, 0.83308, 0.55835, 0.85712, 0.58016, 0.9184, 0.59151, 0.93065, 0.60323, 0.92921, 0.61188, 0.92164, 0.61747, 0.90794, 0.62179, 0.88379, 0.62179, 0.85603, 0.61963, 0.82611, 0.61476, 0.798, 0.61044, 0.78538, 0.62177, 0.77151, 0.36735, 0.33581, 0.368, 0.35772, 0.35236, 0.36241, 0.33828, 0.37102, 0.32316, 0.38429, 0.3097, 0.40578, 0.30154, 0.43122, 0.29933, 0.45611, 0.30389, 0.47518, 0.30887, 0.48804, 0.32836, 0.50587, 0.34287, 0.50587, 0.35614, 0.50379, 0.37169, 0.49799, 0.38931, 0.48596, 0.40163, 0.47273, 0.4134, 0.45037, 0.42139, 0.42402, 0.42239, 0.39608, 0.41685, 0.38198, 0.41086, 0.37114, 0.41186, 0.34632, 0.41928, 0.35259, 0.4284, 0.37, 0.43311, 0.39025, 0.4334, 0.40708, 0.43241, 0.42339, 0.42944, 0.44165, 0.42213, 0.46357, 0.41118, 0.48138, 0.3904, 0.50375, 0.3646, 0.5211, 0.34255, 0.52962, 0.32571, 0.528, 0.37772, 0.42129, 0.36132, 0.43693, 0.34543, 0.45938, 0.33787, 0.47476, 0.33194, 0.49116, 0.31438, 0.49621, 0.3202, 0.47929, 0.33085, 0.45675, 0.34063, 0.44064, 0.35129, 0.42504, 0.36553, 0.41017, 0.37399, 0.40366, 0.32465, 0.53577, 0.32594, 0.55123, 0.32962, 0.56778, 0.33771, 0.58361, 0.34746, 0.58986, 0.36329, 0.59023, 0.38205, 0.57882, 0.40045, 0.56079, 0.41591, 0.53835, 0.42437, 0.52179, 0.43505, 0.4306, 0.43839, 0.44618, 0.43817, 0.4662, 0.43639, 0.48222, 0.43216, 0.50002, 0.43319, 0.39505, 0.44106, 0.40924, 0.4484, 0.43283, 0.44818, 0.46576, 0.44484, 0.49068, 0.43928, 0.5107, 0.42838, 0.53785, 0.41258, 0.565, 0.39545, 0.58903, 0.34353, 0.61804, 0.35829, 0.61509, 0.37288, 0.60788 ],
					"triangles": [ 3, 1, 2, 0, 3, 6, 3, 0, 1, 3, 4, 6, 0, 77, 79, 5, 6, 4, 77, 78, 79, 0, 6, 77, 77, 6, 74, 6, 7, 9, 8, 9, 7, 75, 76, 74, 77, 74, 76, 9, 74, 6, 10, 74, 9, 161, 140, 63, 62, 63, 140, 161, 64, 65, 161, 63, 64, 162, 161, 65, 141, 140, 161, 142, 61, 62, 142, 62, 140, 142, 140, 141, 66, 162, 65, 163, 162, 66, 163, 66, 67, 68, 163, 67, 143, 61, 142, 160, 141, 161, 160, 161, 162, 159, 160, 162, 144, 60, 61, 163, 159, 162, 143, 144, 61, 202, 164, 163, 158, 159, 163, 202, 201, 164, 164, 158, 163, 158, 164, 201, 74, 10, 73, 185, 141, 160, 145, 60, 144, 202, 165, 201, 158, 201, 165, 202, 163, 68, 184, 142, 141, 184, 141, 185, 146, 59, 60, 174, 185, 160, 165, 157, 158, 166, 165, 202, 157, 159, 158, 166, 157, 165, 183, 143, 142, 183, 142, 184, 196, 166, 202, 145, 146, 60, 203, 202, 68, 196, 202, 203, 175, 183, 184, 184, 185, 174, 175, 184, 174, 183, 144, 143, 182, 144, 183, 145, 144, 182, 167, 157, 166, 167, 166, 196, 197, 196, 203, 167, 196, 197, 174, 159, 157, 159, 174, 160, 156, 157, 167, 156, 174, 157, 146, 58, 59, 147, 58, 146, 181, 145, 182, 146, 145, 181, 180, 147, 146, 176, 182, 183, 176, 183, 175, 181, 182, 176, 168, 156, 167, 204, 197, 203, 198, 167, 197, 198, 197, 204, 168, 167, 198, 11, 15, 10, 57, 58, 147, 155, 174, 156, 177, 181, 176, 180, 148, 147, 146, 181, 180, 178, 180, 181, 169, 155, 156, 169, 156, 168, 199, 168, 198, 154, 174, 155, 175, 174, 154, 149, 148, 180, 205, 198, 204, 199, 198, 205, 177, 178, 181, 179, 149, 180, 153, 175, 154, 176, 175, 153, 200, 168, 199, 200, 199, 205, 169, 168, 200, 170, 154, 155, 153, 154, 170, 170, 155, 169, 152, 176, 153, 177, 176, 152, 151, 178, 177, 150, 180, 178, 179, 180, 150, 152, 151, 177, 150, 178, 151, 206, 200, 205, 148, 56, 57, 148, 57, 147, 56, 148, 149, 11, 12, 14, 171, 152, 153, 171, 153, 170, 195, 169, 200, 195, 200, 206, 173, 179, 150, 55, 56, 149, 55, 149, 179, 55, 179, 173, 172, 150, 151, 173, 150, 172, 172, 151, 152, 172, 152, 171, 186, 55, 173, 207, 195, 206, 194, 169, 195, 194, 195, 207, 170, 169, 194, 12, 13, 14, 172, 186, 173, 187, 186, 172, 193, 170, 194, 208, 193, 194, 208, 194, 207, 188, 187, 172, 73, 10, 16, 14, 15, 11, 15, 16, 10, 192, 171, 170, 192, 170, 193, 189, 188, 172, 54, 186, 187, 186, 54, 55, 53, 187, 188, 53, 54, 187, 209, 192, 193, 209, 193, 208, 191, 190, 172, 171, 191, 172, 189, 172, 190, 192, 191, 171, 212, 191, 192, 212, 192, 209, 211, 190, 191, 211, 191, 212, 210, 189, 190, 210, 190, 211, 52, 53, 188, 52, 188, 189, 51, 52, 189, 210, 51, 189, 72, 73, 16, 117, 16, 118, 16, 69, 72, 71, 69, 70, 69, 71, 72, 118, 16, 17, 16, 68, 69, 16, 203, 68, 16, 204, 203, 117, 204, 16, 84, 205, 204, 206, 83, 33, 17, 119, 118, 204, 117, 84, 33, 207, 206, 83, 206, 205, 208, 207, 33, 116, 84, 117, 84, 83, 205, 18, 119, 17, 85, 84, 116, 34, 208, 33, 209, 208, 34, 86, 84, 85, 120, 117, 118, 120, 118, 119, 82, 33, 83, 121, 116, 117, 121, 117, 120, 122, 85, 116, 48, 49, 50, 87, 84, 86, 88, 83, 84, 88, 84, 87, 82, 83, 88, 19, 119, 18, 121, 122, 116, 86, 85, 122, 89, 82, 88, 123, 86, 122, 87, 86, 123, 81, 33, 82, 90, 81, 82, 110, 88, 87, 110, 87, 123, 89, 90, 82, 124, 110, 123, 34, 38, 209, 81, 32, 33, 139, 119, 19, 125, 110, 124, 32, 81, 80, 38, 212, 209, 35, 38, 34, 211, 212, 38, 91, 81, 90, 80, 81, 91, 35, 37, 38, 110, 89, 88, 111, 110, 125, 111, 89, 110, 90, 89, 111, 20, 139, 19, 138, 119, 139, 138, 139, 20, 120, 119, 138, 36, 37, 35, 38, 40, 211, 39, 40, 38, 137, 138, 20, 51, 40, 48, 48, 50, 51, 40, 44, 48, 51, 210, 211, 211, 40, 51, 45, 48, 44, 125, 103, 126, 111, 125, 126, 104, 121, 120, 104, 120, 138, 122, 121, 104, 123, 122, 104, 124, 123, 104, 104, 125, 124, 92, 80, 91, 32, 80, 92, 104, 103, 125, 44, 40, 43, 112, 111, 126, 41, 42, 40, 42, 43, 40, 136, 137, 20, 31, 32, 92, 93, 31, 92, 127, 126, 103, 112, 126, 127, 105, 103, 104, 109, 127, 103, 113, 112, 127, 105, 109, 103, 21, 135, 136, 128, 127, 109, 113, 127, 128, 21, 136, 20, 94, 31, 93, 106, 109, 105, 108, 128, 109, 108, 109, 106, 114, 113, 128, 114, 128, 108, 134, 135, 21, 135, 104, 136, 30, 31, 94, 91, 90, 111, 102, 114, 108, 107, 108, 106, 102, 108, 107, 104, 138, 137, 136, 104, 137, 104, 135, 105, 134, 105, 135, 134, 106, 105, 133, 106, 134, 129, 107, 106, 93, 113, 94, 95, 94, 113, 30, 94, 95, 101, 114, 102, 106, 131, 129, 115, 102, 107, 115, 107, 129, 101, 102, 115, 106, 133, 131, 22, 134, 21, 133, 134, 22, 132, 131, 133, 130, 129, 131, 25, 115, 129, 92, 112, 93, 114, 96, 113, 100, 114, 101, 93, 112, 113, 91, 112, 92, 111, 112, 91, 114, 100, 96, 96, 95, 113, 99, 96, 100, 97, 96, 99, 29, 30, 95, 29, 95, 96, 98, 97, 99, 22, 23, 132, 22, 132, 133, 131, 132, 23, 130, 25, 129, 24, 25, 130, 24, 130, 131, 24, 131, 23, 100, 25, 26, 101, 25, 100, 115, 25, 101, 99, 100, 26, 28, 29, 96, 28, 96, 97, 46, 48, 45, 46, 47, 48, 26, 27, 98, 26, 98, 99, 97, 98, 27, 28, 97, 27 ],
					"vertices": [ 773.17, 26.19, 776.97, 10.22, 775.23, -2.19, 765.92, -14.7, 752.38, -22.87, 740.11, -24.79, 726.9, -20.05, 711.28, -32.1, 698.81, -35.97, 681.14, -28.44, 650.99, -55.51, 627.92, -86.25, 605.62, -115.41, 583.4, -131.69, 562.53, -135, 540.57, -131.41, 517.44, -120.17, 502.85, -140.26, 474.36, -161.87, 453.22, -167.7, 414.91, -175.72, 399.82, -215.9, 377.61, -240.6, 351.49, -246.18, 329, -232.91, 320.35, -204.64, 293.68, -212.19, 271.15, -209.46, 250.69, -191.19, 249.5, -164.69, 262.08, -137.56, 284.6, -111.09, 306.54, -93.78, 312.85, -50.8, 300.42, -52.3, 276.91, -61.64, 259.39, -61.69, 236.48, -50.59, 223.57, -34.83, 203.07, -31.99, 201.93, -31.2, 194.45, -35.05, 187.59, -32.18, 177.24, -24.86, 173.07, -15.57, 169.87, -13.32, 3.21, -15.68, -66.95, 35.05, 169.14, 39.39, 173.94, 55.74, 185.58, 62.1, 222, 63.03, 215.07, 71.36, 209.07, 96.64, 213.62, 111.89, 224.53, 121.97, 217.16, 137.87, 218.26, 162.51, 227.8, 175.94, 239.92, 183.03, 266.36, 187.95, 309.13, 180.18, 335.52, 167.35, 345.41, 178.94, 381.51, 200.93, 433.3, 205.9, 461.99, 197.12, 497.58, 176.34, 525.6, 140.76, 546.97, 151.9, 570.57, 154.54, 596.31, 142.87, 624.3, 108.27, 647.42, 77.62, 679.87, 45.98, 696.33, 55.29, 708.45, 51.48, 723.71, 41.9, 735.41, 46.35, 757.62, 42.7, 313.13, -95.11, 326.12, -89.87, 345.26, -85.29, 361.05, -86.32, 373.39, -94.07, 380.51, -105.12, 374.63, -106.06, 370.67, -106.97, 355.49, -96.94, 344.4, -95.3, 332.53, -97.34, 318.48, -103.71, 303.19, -113.43, 295.76, -119.88, 283.56, -132.46, 270.89, -154.26, 268.17, -170.15, 272.38, -180.9, 281.18, -190.04, 291.66, -192.7, 303.97, -192.83, 317.56, -188.54, 325.24, -183.83, 358.89, -153.97, 367.01, -158.65, 358.89, -169.05, 346.99, -181.66, 335.4, -191.93, 336.38, -176.57, 346.28, -168.65, 358.67, -115.55, 347.89, -126.66, 338.75, -141.4, 332.72, -155.64, 326.98, -174.97, 324.38, -197.56, 388.14, -105.58, 395.39, -108.4, 403.5, -115.07, 408.51, -122.94, 396.82, -122.36, 387.3, -116.87, 379.72, -115.82, 371.86, -117.38, 363.89, -121.32, 356.36, -129.38, 347.61, -142.98, 341.65, -154.98, 337.71, -167.31, 337.42, -205.83, 343.16, -217.72, 353.32, -224.16, 362.77, -226.21, 371.51, -223.88, 382.35, -216.45, 390.68, -204.94, 397.86, -191.23, 402.26, -176.64, 402.45, -168.81, 416.02, -169.86, 335.64, 163.57, 329.61, 154.09, 315.22, 161.53, 300.95, 166.41, 284.43, 169.98, 266.81, 169.14, 252.41, 163.48, 243.11, 154.48, 241.17, 143.83, 241.44, 135.51, 252.26, 116.42, 264.3, 107.71, 275.94, 100.61, 290.58, 93.69, 308.81, 88.1, 323, 86.2, 339.48, 88.41, 354.01, 94.55, 363.22, 105.54, 362.86, 114.72, 361.14, 122.81, 369.42, 132.5, 373.69, 125.45, 376.04, 112.75, 373.87, 101.53, 369.06, 94.37, 363.35, 88.2, 355.4, 82.41, 342.76, 77.7, 328.33, 76.88, 304.38, 80.07, 277.76, 88.35, 256.91, 98.05, 243.43, 108.83, 318.59, 121.89, 300.3, 125.24, 280.38, 125.46, 269.48, 123.62, 259.65, 120.37, 243.56, 128.81, 253.46, 132.34, 269.07, 135.3, 282.02, 136.11, 295.54, 136.2, 311.82, 133.81, 320.79, 131.44, 240.21, 106.24, 236.64, 99.05, 234.73, 89.98, 236.7, 78.55, 242.91, 70.11, 255.93, 60.46, 274.93, 53.93, 295.6, 50.37, 315.16, 50.41, 327.15, 52.2, 363.38, 83.62, 361.47, 75.16, 355.28, 66.98, 348.99, 61.4, 340.15, 56.56, 372.5, 99.49, 374.77, 88.88, 373.79, 74.69, 363.72, 61.16, 353.47, 52.82, 342.85, 47.85, 325.66, 43.13, 304.4, 41.35, 282.98, 41.66, 231.19, 60.78, 244.32, 53.14, 258.6, 47.38 ],
					"hull": 80
				}
			}
		}
	}
],
"animations": {
	"Win": {
		"slots": {
			"1": {
				"attachment": [
					{ "name": null },
					{ "time": 0.2, "name": "1" },
					{ "time": 0.2333, "name": "2" },
					{ "time": 0.2667, "name": "3" },
					{ "time": 0.3, "name": "4" },
					{ "time": 0.3333, "name": "5" },
					{ "time": 0.3667, "name": "6" },
					{ "time": 0.4, "name": "7" },
					{ "time": 0.4333, "name": "8" },
					{ "time": 0.4667, "name": "9" },
					{ "time": 0.5, "name": "10" },
					{ "time": 0.5333, "name": null }
				]
			}
		},
		"bones": {
			"Layer 0": {
				"rotate": [
					{
						"curve": [ 0.222, 0, 0.444, -12.05 ]
					},
					{
						"time": 0.6667,
						"value": -12.05,
						"curve": [ 0.889, -12.05, 1.111, 0 ]
					},
					{ "time": 1.3333 }
				]
			}
		},
		"deform": {
			"default": {
				"Layer 0": {
					"Layer 0": [
						{
							"curve": [ 0.222, 0, 0.444, 1 ]
						},
						{
							"time": 0.6667,
							"offset": 40,
							"vertices": [ 2.2836, -16.72791, 2.84961, -12.69685, 3.19058, -12.99921, -3.04727, -8.78872, -3.22705, -9.0984, -2.94354, -2.30381, -13.02551, 6.29688, -12.64423, 8.51381, -10.7359, 10.44856, -8.10641, 10.43652, -5.48291, 9.05781, -0.43393, 7.14121, -1.18753, 1.86494, 0, 0, 0, 0, 0, 0, 0, 0, 0, 0, 0, 0, 0, 0, 0, 0, 0, 0, 0, 0, 0, 0, 0, 0, 0, 0, 0, 0, 0, 0, 0, 0, 0, 0, 0, 0, 0, 0, 0, 0, 2.77621, -10.8491, 1.35266, -10.49487, -3.41922, -14.38388, -8.5401, -9.42471, -4.6084, -1.44593, 1.63593, -2.19593, 5.07312, -2.59928, 4.50842, -0.18596, 6.12848, 6.64885, 3.05603, 10.6226, 0, 0, 0, 0, 0, 0, 0, 0, 0, 0, 0, 0, 0, 0, 0, 0, 0, 0, 0, 0, 0, 0, 0, 0, 0, 0, 0, 0, 0, 0, 0, 0, 0, 0, 4.37305, 2.75282, 4.82776, 1.44052, 0, 0, 0, 0, 0, 0, 0, 0, 0, 0, 0, 0, 0, 0, 0, 0, 4.05737, 0.84296, 0, 0, 2.79108, 5.75687, -3.8985, 5.63797, -5.08337, 6.90642, -7.17917, 8.26756, -8.7388, 8.61477, -9.82297, 8.25088, -10.7709, 7.42553, -10.14606, 3.97514, -9.90662, 1.94852, -8.79059, -3.77362, -3.97263, -3.92133, -1.67682, -1.48748, -2.18002, -2.26819, -4.17831, -3.46114, -4.0043, -3.62325, -3.86227, -3.78136, -4.073, -3.76925, -4.18271, -3.63422, 0, 0, 1.07959, -0.53269, -0.33444, 0.44385, -1.71436, 1.11063, -4.09406, -3.89847, -3.78412, -3.93202, 0, 0, 0, 0, 0, 0, 0, 0, 0, 0, 0, 0, 0, 0, 0, 0, 0, 0, 0.76883, -1.35782, -0.53439, -0.42508, -1.69232, 0.2235, -4.20023, -3.75195, -3.59943, -8.98553, -3.43686, -8.90566, -3.34958, -8.76562, 2.99457, -13.20414, 2.96191, -13.08437, 2.85883, -12.93652, 2.69998, -12.8233, 2.5112, -12.72608, 2.25497, -15.47054, 0, 0, 0, 0, 7.32654, 10.13091, 7.32654, 10.13091, 7.81918, 7.28857, 7.43042, 5.95439, 7.17227, 4.41789, 6.2377, -0.06534, 6.82053, -1.36678, 1.8956, -4.4337, -2.79135, -10.95911, -2.02652, -10.89877, 0.77173, -6.95695, 1.52231, -5.81119, 2.1268, -4.71008, 2.70193, -3.33253, 3.13879, -1.63039, 3.25348, -0.316, 2.98013, 1.19193, 2.35312, 2.50378, 1.30139, 3.30524, 0.45883, 3.23293, 0, 0, 0, 0, 0, 0, 0.5835, 4.45466, 0, 0, 2.3056, 3.88984, 2.89786, 3.39009, 3.46527, 2.68348, 3.95233, 1.53988, 4.0885, 0.21422, 3.89713, -2.00446, 3.24756, -4.49001, 2.44321, -6.45131, -1.20273, -9.72364, 0, 0, -0.24408, -2.57185, -0.17999, -4.40665, 0.03583, -5.40191, 0.37646, -6.2937, -1.98352, -11.54939, -0.69952, -6.91379, -1.03845, -5.48986, -1.16776, -4.30108, -1.23279, -3.05664, -1.08273, -1.54784, 0, 0, 1.76025, -8.02304, 2.43686, -8.32104, 3.2807, -8.45879, 4.32413, -8.2289, 0, 0, 0, 0, 0, 0, 0, 0, 0, 0, 0, 0, 0, 0, 0, 0, 0, 0, 0, 0, 0, 0, 1.81992, 4.18483 ],
							"curve": [ 0.889, 0, 1.111, 1 ]
						},
						{ "time": 1.3333 }
					]
				}
			}
		}
	}
}
}