SanZangStaff.png
size:4096,2048
filter:Linear,Linear
pma:true
1
bounds:2,869,466,865
offsets:0,97,502,1002
10
bounds:2,2,466,865
offsets:0,97,502,1002
2
bounds:470,869,466,865
offsets:0,97,502,1002
3
bounds:470,2,466,865
offsets:0,97,502,1002
4
bounds:938,869,466,865
offsets:0,97,502,1002
5
bounds:938,2,466,865
offsets:0,97,502,1002
6
bounds:1406,869,466,865
offsets:0,97,502,1002
7
bounds:1406,2,466,865
offsets:0,97,502,1002
8
bounds:1874,869,466,865
offsets:0,97,502,1002
9
bounds:1874,2,466,865
offsets:0,97,502,1002
Layer 0
bounds:2342,1232,731,502
offsets:111,0,1024,512
