{
"skeleton": {
	"hash": "+NcJ81AdXjs",
	"spine": "4.0.45",
	"x": -511.02,
	"y": -333.23,
	"width": 1024,
	"height": 645.6,
	"images": "../images/",
	"audio": "C:/Users/latis/Pictures/illustrations/RedRain/Slot-Journey To The West/Icons/Icons/Charac/Wujing"
},
"bones": [
	{ "name": "root" },
	{ "name": "bone", "parent": "root", "x": 2.16, "y": -2.43 },
	{
		"name": "Body",
		"parent": "bone",
		"rotation": 87.53,
		"x": -69.71,
		"y": -233.81,
		"scaleX": 0.6,
		"scaleY": 0.6
	},
	{ "name": "Head", "parent": "Body", "length": 399.82, "rotation": 15.24, "x": 213.93, "y": -1.94 },
	{ "name": "Crown", "parent": "Head", "length": 171.08, "rotation": -10.67, "x": 482.7, "y": 22.75 },
	{ "name": "Head3", "parent": "Head", "x": 344.92, "y": 130.49 },
	{ "name": "Head4", "parent": "Head", "x": 330.46, "y": -106.33 },
	{ "name": "Head5", "parent": "Head", "x": 296.74, "y": 68.65 },
	{ "name": "Head6", "parent": "Head", "x": 237.71, "y": -131.86 },
	{ "name": "Head7", "parent": "Head", "x": 264.88, "y": 171.89 },
	{ "name": "Head8", "parent": "Head", "length": 223.4, "rotation": 170.99, "x": 86.34, "y": 78.37 },
	{ "name": "Head2", "parent": "Head8", "length": 163.11, "rotation": 5.92, "x": 247.58, "y": 5.74 },
	{ "name": "Head10", "parent": "Head", "length": 187.66, "rotation": 160.52, "x": 77.93, "y": -182.02 },
	{ "name": "Head9", "parent": "Head10", "length": 162.88, "rotation": 3.49, "x": 199.94, "y": 5.12 },
	{ "name": "Beads", "parent": "Head", "length": 260.62, "rotation": 175.16, "x": 154.74, "y": -265.19 },
	{ "name": "Head12", "parent": "Head", "length": 129.31, "rotation": -131.61, "x": 343.34, "y": -319.36 },
	{ "name": "Head13", "parent": "Head", "length": 122.55, "rotation": -141.78, "x": 217.21, "y": -378.31 },
	{ "name": "Head14", "parent": "Head", "length": 101.23, "rotation": 151.07, "x": 178.72, "y": 189.88 },
	{ "name": "Head11", "parent": "Head14", "length": 126.94, "rotation": 18.71, "x": 115.65, "y": 26.18 },
	{ "name": "Head16", "parent": "Head", "length": 109.24, "rotation": 159.31, "x": 51.46, "y": 152.81 },
	{ "name": "Head15", "parent": "Head16", "length": 147.06, "rotation": 3.12, "x": 131.17, "y": 11.35 },
	{ "name": "Beads2", "parent": "Head", "length": 161.33, "rotation": 170.04, "x": 32.76, "y": -84.56 },
	{ "name": "Head17", "parent": "Beads2", "length": 213.51, "rotation": -13.04, "x": 173.26, "y": -14.82 }
],
"slots": [
	{ "name": "WujingBG", "bone": "root", "attachment": "WujingBG" },
	{ "name": "Body", "bone": "Body", "attachment": "Body" },
	{ "name": "Beads S", "bone": "Body", "attachment": "Beads S", "blend": "multiply" },
	{ "name": "Beads", "bone": "Body", "attachment": "Beads" },
	{ "name": "Head", "bone": "Head", "attachment": "Head" },
	{ "name": "Crown", "bone": "Crown", "attachment": "Crown" }
],
"skins": [
	{
		"name": "default",
		"attachments": {
			"Beads": {
				"Beads": {
					"type": "mesh",
					"uvs": [ 1, 0.38676, 0, 0.38676, 0, 0, 1, 0 ],
					"triangles": [ 0, 1, 2, 3, 0, 2 ],
					"vertices": [ 42.43, -633.23, -3.9, 438.77, 355.07, 454.28, 401.39, -617.72 ],
					"hull": 4,
					"edges": [ 4, 6, 2, 4, 0, 6, 2, 0 ],
					"width": 1073,
					"height": 929
				}
			},
			"Beads S": {
				"Beads S": {
					"type": "mesh",
					"uvs": [ 0.99988, 0.37579, 1.0E-5, 0.37579, 0, 0, 1, 0 ],
					"triangles": [ 0, 1, 2, 3, 0, 2 ],
					"vertices": [ 41.71, -612.12, -2.93, 420.92, 345.85, 435.87, 390.49, -597.17 ],
					"hull": 4,
					"edges": [ 0, 2, 2, 4, 4, 6, 0, 6 ],
					"width": 1034,
					"height": 929
				}
			},
			"Body": {
				"Body": {
					"type": "mesh",
					"uvs": [ 0.90603, 0.25659, 0.88389, 0.2697, 0.8725, 0.27367, 0.18911, 0.2741, 0.15726, 1.0E-5, 0.90889, 0 ],
					"triangles": [ 4, 5, 2, 0, 1, 5, 1, 2, 5, 3, 4, 2 ],
					"vertices": [ 74.85, -863.88, 56.03, -820.44, 49.93, -797.94, -9.54, 565.49, 341.24, 644.32, 406.05, -855.3 ],
					"hull": 6,
					"edges": [ 8, 6, 8, 10, 0, 10, 4, 6, 0, 2, 2, 4 ],
					"width": 1997,
					"height": 1291
				}
			},
			"Crown": {
				"Crown": {
					"type": "mesh",
					"uvs": [ 0.46994, 0.00631, 0.50284, 0.02891, 0.53398, 0.0578, 0.56007, 0.1077, 0.5751, 0.17609, 0.57412, 0.24513, 0.56302, 0.3012, 0.54822, 0.33258, 0.51976, 0.36209, 0.49691, 0.36766, 0.47375, 0.3558, 0.45972, 0.33533, 0.45039, 0.29209, 0.4526, 0.23392, 0.44109, 0.18585, 0.41647, 0.17249, 0.38902, 0.18944, 0.36638, 0.23491, 0.35923, 0.29441, 0.35914, 0.33896, 0.36643, 0.59442, 0.45574, 0.58315, 0.59602, 0.58307, 0.74768, 0.60062, 0.88392, 0.63736, 0.97742, 0.67831, 0.99347, 0.75503, 0.99861, 0.83656, 0.89467, 0.79979, 0.78295, 0.77274, 0.70507, 0.76316, 0.58895, 0.75563, 0.50957, 0.75574, 0.44796, 0.76182, 0.3406, 0.78758, 0.20258, 0.8353, 0.09627, 0.90002, 0.05224, 0.93936, 0.022, 0.97743, 0.01579, 1, 0, 0.98176, 0, 0.79158, 0.05413, 0.73196, 0.12385, 0.67903, 0.19725, 0.63596, 0.18754, 0.32733, 0.16535, 0.39498, 0.1247, 0.40256, 0.08296, 0.36929, 0.05871, 0.30309, 0.06482, 0.19614, 0.10755, 0.12345, 0.15313, 0.09633, 0.20541, 0.09544, 0.23733, 0.11562, 0.26934, 0.15386, 0.2796, 0.11338, 0.30094, 0.07465, 0.33799, 0.03165, 0.39455, 0, 0.27282, 0.63057 ],
					"triangles": [ 15, 59, 0, 58, 59, 15, 14, 15, 0, 14, 0, 1, 14, 1, 2, 14, 2, 3, 14, 3, 4, 16, 58, 15, 57, 58, 16, 56, 57, 16, 17, 55, 56, 13, 14, 4, 16, 17, 56, 5, 13, 4, 13, 7, 12, 18, 55, 17, 5, 6, 13, 45, 52, 53, 45, 53, 54, 45, 54, 55, 60, 45, 55, 51, 52, 45, 50, 51, 45, 49, 50, 45, 6, 7, 13, 8, 10, 11, 60, 55, 19, 11, 12, 8, 7, 8, 12, 9, 10, 8, 48, 49, 45, 45, 47, 48, 46, 47, 45, 60, 19, 20, 55, 18, 19, 60, 44, 45, 22, 32, 21, 30, 31, 22, 31, 32, 22, 33, 20, 21, 33, 21, 32, 23, 30, 22, 29, 23, 24, 30, 23, 29, 34, 60, 20, 34, 20, 33, 28, 24, 25, 28, 25, 26, 29, 24, 28, 35, 44, 60, 35, 60, 34, 43, 44, 35, 28, 26, 27, 36, 42, 43, 36, 43, 35, 41, 42, 36, 37, 41, 36, 37, 40, 41, 38, 40, 37, 39, 40, 38 ],
					"vertices": [ 228.84, -111.58, 220.34, -128.79, 209.69, -144.98, 191.83, -158.21, 167.75, -165.33, 143.76, -163.93, 124.48, -157.32, 113.85, -149.05, 104.14, -133.54, 102.65, -121.33, 107.23, -109.16, 114.62, -101.96, 129.84, -97.55, 150.02, -99.47, 166.96, -93.96, 172.09, -81.04, 166.73, -66.23, 151.35, -53.62, 130.8, -49.06, 115.31, -48.44, 26.33, -49.07, 28.51, -96.69, 25.81, -171.28, 16.76, -251.68, 1.33, -323.64, -14.73, -372.83, -41.72, -380.39, -70.18, -382.08, -55.37, -327.29, -43.79, -268.24, -38.94, -226.96, -34.06, -165.32, -32.56, -123.12, -33.47, -90.28, -40.34, -32.88, -54.25, 41.11, -74.7, 98.45, -87.52, 122.35, -100.17, 138.92, -107.9, 142.51, -101.25, 150.67, -35.11, 148.25, -15.43, 118.71, 1.62, 80.97, 15.17, 41.4, 122.69, 42.64, 99.6, 55.3, 97.75, 77, 110.13, 98.77, 133.63, 110.82, 170.7, 106.21, 195.15, 82.57, 203.7, 57.99, 202.99, 30.19, 195.35, 13.47, 181.43, -3.06, 195.31, -9.03, 208.36, -20.87, 222.59, -41.11, 232.5, -71.58, 15.58, 1.16 ],
					"hull": 60,
					"edges": [ 0, 2, 2, 4, 4, 6, 6, 8, 10, 12, 12, 14, 16, 18, 18, 20, 20, 22, 24, 26, 34, 36, 36, 38, 42, 44, 46, 48, 48, 50, 54, 56, 56, 58, 62, 64, 72, 74, 76, 78, 80, 82, 82, 84, 84, 86, 88, 90, 90, 92, 102, 104, 106, 108, 110, 112, 112, 114, 114, 116, 116, 118, 32, 34, 30, 32, 28, 30, 26, 28, 22, 24, 14, 16, 8, 10, 118, 0, 108, 110, 104, 106, 100, 102, 98, 100, 96, 98, 94, 96, 92, 94, 38, 40, 86, 88, 78, 80, 74, 76, 70, 72, 68, 70, 66, 68, 64, 66, 60, 62, 58, 60, 52, 54, 40, 42, 44, 46, 50, 52, 110, 120 ],
					"width": 532,
					"height": 348
				}
			},
			"Head": {
				"Head": {
					"type": "mesh",
					"uvs": [ 0.43526, 0, 0.34137, 0, 0.25293, 0.00834, 0.19835, 0.02864, 0.13393, 0.05704, 0.08917, 0.09438, 0.05314, 0.12847, 0.03349, 0.16906, 0.03021, 0.19665, 0.03131, 0.24941, 0.0324, 0.28188, 0.03345, 0.30518, 0.05501, 0.32491, 0.06497, 0.3391, 0.07009, 0.35448, 0.06887, 0.37121, 0.06522, 0.4083, 0.06705, 0.43544, 0.07191, 0.46257, 0.05188, 0.49261, 0.02412, 0.49135, 0.03375, 0.50609, 0.02865, 0.52968, 0.00259, 0.55285, 0.01959, 0.55285, 0, 0.57938, 0, 0.59175, 0.01256, 0.58933, 0.01852, 0.60183, 0.03371, 0.61676, 0.06138, 0.63491, 0.07874, 0.65467, 0.0782, 0.67363, 0.07495, 0.69016, 0.079, 0.71241, 0.09379, 0.71988, 0.10621, 0.70625, 0.11272, 0.71417, 0.121, 0.72692, 0.12159, 0.73704, 0.1068, 0.75903, 0.12219, 0.76167, 0.12344, 0.77575, 0.12589, 0.79434, 0.13815, 0.81367, 0.14502, 0.80273, 0.14698, 0.81294, 0.13913, 0.82789, 0.12097, 0.83716, 0.13455, 0.84322, 0.1458, 0.84322, 0.14812, 0.85619, 0.1586, 0.86657, 0.16597, 0.86975, 0.16713, 0.88474, 0.18071, 0.87926, 0.18652, 0.88301, 0.20437, 0.90205, 0.22704, 0.91926, 0.26441, 0.93983, 0.29566, 0.96013, 0.31506, 0.98203, 0.32225, 1, 0.33626, 1, 0.34273, 0.98577, 0.35674, 0.98096, 0.365, 0.99085, 0.3783, 0.98257, 0.38943, 0.98951, 0.42386, 0.96635, 0.43107, 0.98005, 0.45778, 0.96258, 0.46605, 0.97846, 0.48279, 0.95785, 0.5131, 0.94023, 0.53059, 0.93849, 0.54263, 0.91423, 0.5539, 0.90816, 0.56284, 0.91509, 0.57178, 0.90267, 0.58103, 0.88957, 0.60999, 0.8838, 0.62602, 0.86958, 0.63222, 0.85613, 0.64308, 0.85959, 0.65084, 0.84613, 0.66945, 0.82768, 0.6891, 0.81653, 0.70099, 0.80039, 0.7096, 0.76844, 0.72394, 0.73839, 0.74349, 0.7195, 0.77022, 0.69721, 0.80606, 0.68413, 0.80598, 0.64332, 0.81562, 0.60867, 0.84454, 0.57563, 0.8815, 0.55572, 0.93041, 0.54309, 0.94726, 0.52598, 0.98445, 0.49257, 1, 0.47785, 0.99368, 0.47137, 0.97534, 0.48023, 0.97687, 0.45365, 0.95639, 0.47137, 0.95089, 0.45819, 0.93745, 0.46432, 0.93072, 0.45478, 0.93897, 0.43138, 0.93541, 0.41826, 0.92611, 0.40596, 0.92128, 0.40058, 0.9361, 0.3993, 0.9554, 0.39162, 0.93507, 0.39059, 0.90475, 0.38035, 0.91543, 0.37779, 0.89648, 0.36242, 0.90061, 0.3432, 0.90475, 0.32032, 0.89348, 0.3076, 0.8651, 0.28882, 0.8721, 0.27957, 0.85499, 0.25731, 0.84177, 0.25211, 0.827, 0.24517, 0.8375, 0.23853, 0.81689, 0.23188, 0.79135, 0.21576, 0.77097, 0.2044, 0.77398, 0.19166, 0.75893, 0.1951, 0.7455, 0.18563, 0.74041, 0.16911, 0.72423, 0.12105, 0.69433, 0.08417, 0.66442, 0.05272, 0.62284, 0.03102, 0.56594, 0.00933, 0.50977, 0, 0.10039, 0.22056, 0.23801, 0.19528, 0.40478, 0.18264, 0.53592, 0.18565, 0.64836, 0.19735, 0.70242, 0.19891, 0.74415, 0.20278, 0.09872, 0.15152, 0.23888, 0.11788, 0.26316, 0.04568, 0.41547, 0.07357, 0.66269, 0.14168, 0.62958, 0.06044, 0.2161, 0.29376, 0.15549, 0.2901, 0.0957, 0.28767, 0.0654, 0.29071, 0.07195, 0.26453, 0.10963, 0.26331, 0.19808, 0.27123, 0.32362, 0.27775, 0.46177, 0.23079, 0.5044, 0.22903, 0.59992, 0.23842, 0.55966, 0.21964, 0.49888, 0.20497, 0.4523, 0.20732, 0.40335, 0.22199, 0.28731, 0.26131, 0.12796, 0.24101, 0.22474, 0.22545, 0.36793, 0.20601, 0.15935, 0.22837, 0.30647, 0.20309, 0.19139, 0.2517, 0.07924, 0.33587, 0.09528, 0.32971, 0.12238, 0.3149, 0.14948, 0.30668, 0.20314, 0.31655, 0.36652, 0.28901, 0.40286, 0.27898, 0.45685, 0.27667, 0.50356, 0.27782, 0.54872, 0.29519, 0.35666, 0.284, 0.3712, 0.27512, 0.40649, 0.25312, 0.43245, 0.24656, 0.46152, 0.24811, 0.48799, 0.25351, 0.50875, 0.2647, 0.52173, 0.25467, 0.18455, 0.30913, 0.16513, 0.29349, 0.13726, 0.28936, 0.10041, 0.30191, 0.0907, 0.31544, 0.08585, 0.32386, 0.07978, 0.31725, 0.11497, 0.29078, 0.08476, 0.33816, 0.09692, 0.34079, 0.11066, 0.34633, 0.13774, 0.34458, 0.15932, 0.33933, 0.17581, 0.32999, 0.18444, 0.32124, 0.36444, 0.29659, 0.38921, 0.30175, 0.42042, 0.30985, 0.46402, 0.30949, 0.50811, 0.29991, 0.53239, 0.29549, 0.56767, 0.29363, 0.65015, 0.28214, 0.56251, 0.30273, 0.64112, 0.32381, 0.54319, 0.30465, 0.61535, 0.33531, 0.55543, 0.28453, 0.63339, 0.25962, 0.09422, 0.34417, 0.08165, 0.35384, 0.10159, 0.34933, 0.07948, 0.36544, 0.2245, 0.3056, 0.22845, 0.31956, 0.22203, 0.33793, 0.2161, 0.35629, 0.20474, 0.37686, 0.19935, 0.39444, 0.20512, 0.40696, 0.22003, 0.41447, 0.23013, 0.42019, 0.23446, 0.43092, 0.22051, 0.43306, 0.20416, 0.42662, 0.19695, 0.41804, 0.1931, 0.40231, 0.19695, 0.38801, 0.25715, 0.42142, 0.25669, 0.41245, 0.26689, 0.40797, 0.29055, 0.41004, 0.29982, 0.41279, 0.29704, 0.41693, 0.27988, 0.41935, 0.28823, 0.42142, 0.32116, 0.41693, 0.33554, 0.40728, 0.33554, 0.39728, 0.32487, 0.38555, 0.30724, 0.38038, 0.28915, 0.37176, 0.22699, 0.38039, 0.20031, 0.29281, 0.21174, 0.31004, 0.21437, 0.32645, 0.21069, 0.34717, 0.20123, 0.36788, 0.18914, 0.38664, 0.18704, 0.40384, 0.42352, 0.32925, 0.46959, 0.33423, 0.51398, 0.31742, 0.47042, 0.4376, 0.55837, 0.43386, 0.6237, 0.37782, 0.47712, 0.38343, 0.56423, 0.35665, 0.14279, 0.37347, 0.17574, 0.35073, 0.16789, 0.44578, 0.12005, 0.46327, 0.09809, 0.4656, 0.08475, 0.38396, 0.13809, 0.40904, 0.271, 0.28479, 0.30076, 0.29257, 0.33134, 0.2836, 0.27261, 0.30812, 0.27341, 0.33862, 0.28387, 0.35238, 0.40538, 0.36922, 0.18138, 0.5114, 0.26188, 0.48507, 0.42448, 0.48088, 0.1363, 0.51499, 0.13952, 0.48806, 0.16045, 0.46472, 0.19265, 0.44557, 0.24336, 0.44198, 0.27476, 0.43061, 0.34962, 0.42343, 0.38584, 0.42702, 0.16367, 0.53295, 0.1685, 0.58022, 0.14516, 0.55389, 0.13389, 0.57424, 0.12906, 0.53893, 0.45748, 0.48507, 0.49612, 0.52157, 0.50658, 0.47549, 0.476, 0.45574, 0.42206, 0.44976, 0.17816, 0.46233, 0.16448, 0.49524, 0.19028, 0.50849, 0.24775, 0.51415, 0.31241, 0.5083, 0.37358, 0.48219, 0.28874, 0.51044, 0.31416, 0.53559, 0.37271, 0.54793, 0.43126, 0.55183, 0.48282, 0.55248, 0.50467, 0.54079, 0.24425, 0.53819, 0.22765, 0.55443, 0.19968, 0.57327, 0.65246, 0.24355, 0.68907, 0.28856, 0.68625, 0.35451, 0.68062, 0.42151, 0.62852, 0.46757, 0.56656, 0.52515, 0.54544, 0.53771, 0.52855, 0.5063, 0.11201, 0.48055, 0.10226, 0.55738, 0.09349, 0.52404, 0.06327, 0.55738, 0.08276, 0.5023, 0.20451, 0.62378, 0.20565, 0.65083, 0.19091, 0.71657, 0.20833, 0.68344, 0.20833, 0.71885, 0.22779, 0.71314, 0.22779, 0.75883, 0.2367, 0.78818, 0.2621, 0.814, 0.29683, 0.84612, 0.32224, 0.87949, 0.3341, 0.84171, 0.37221, 0.79826, 0.37729, 0.81526, 0.41371, 0.78189, 0.41625, 0.80834, 0.44421, 0.74537, 0.43997, 0.72144, 0.48401, 0.72522, 0.52128, 0.73655, 0.48655, 0.69499, 0.47385, 0.64587, 0.45468, 0.5839, 0.46854, 0.61724, 0.52457, 0.61655, 0.50569, 0.60452, 0.52592, 0.64061, 0.18736, 0.61641, 0.16894, 0.65816, 0.13735, 0.68817, 0.11717, 0.70056, 0.16367, 0.69404, 0.16543, 0.72535, 0.18649, 0.68621, 0.51287, 0.6353, 0.53086, 0.66607, 0.56599, 0.70524, 0.57615, 0.73135, 0.53456, 0.70455, 0.51053, 0.68394, 0.55305, 0.75197, 0.44635, 0.78395, 0.43272, 0.82245, 0.4627, 0.86906, 0.4627, 0.89743, 0.32831, 0.91856, 0.33794, 0.9651, 0.21397, 0.82461, 0.18227, 0.761, 0.1794, 0.80227, 0.53877, 0.74504, 0.50865, 0.78568, 0.50596, 0.83567, 0.51044, 0.859, 0.36911, 0.84294, 0.39304, 0.88446, 0.407, 0.91041, 0.39603, 0.93858, 0.26882, 0.51224, 0.27948, 0.55426, 0.2971, 0.60946, 0.30969, 0.67122, 0.29207, 0.71613, 0.29584, 0.7704, 0.31346, 0.8097, 0.35373, 0.74233, 0.3701, 0.6918, 0.39652, 0.64128, 0.39149, 0.60198, 0.35877, 0.5683, 0.26816, 0.67215, 0.27193, 0.62537, 0.2669, 0.55894, 0.58985, 0.5867, 0.60233, 0.65855, 0.62103, 0.72925, 0.60233, 0.79067, 0.54776, 0.83008, 0.64286, 0.60756, 0.62415, 0.54729, 0.63506, 0.4963, 0.70831, 0.47333, 0.6902, 0.542, 0.68074, 0.5551, 0.70288, 0.63222, 0.68477, 0.68339, 0.58704, 0.83013, 0.72997, 0.3761, 0.76127, 0.41055, 0.79257, 0.44499, 0.83389, 0.4934, 0.84391, 0.5176, 0.77026, 0.50666, 0.77295, 0.55868, 0.7447, 0.6267, 0.74029, 0.31995, 0.80462, 0.33769, 0.77142, 0.28524, 0.74963, 0.2513, 0.68841, 0.21504, 0.76679, 0.27803, 0.79217, 0.2837, 0.82226, 0.30067, 0.82226, 0.32844, 0.82849, 0.35467, 0.83782, 0.37626, 0.8316, 0.39478, 0.81292, 0.41252, 0.77719, 0.33013, 0.80255, 0.36006, 0.78698, 0.38321, 0.78076, 0.40481, 0.78698, 0.42255, 0.87475, 0.39311, 0.88606, 0.41834, 0.85892, 0.44273, 0.86797, 0.473, 0.87815, 0.50075, 0.91429, 0.46238, 0.92893, 0.48415, 0.86131, 0.35082, 0.6919, 0.25418, 0.72428, 0.26409, 0.75031, 0.28675, 0.78633, 0.30879, 0.78903, 0.26173, 0.83537, 0.28391, 0.7757, 0.23011, 0.80236, 0.25607, 0.84848, 0.31285, 0.8703, 0.33483, 0.13714, 0.66593, 0.15335, 0.63437, 0.06228, 0.60052, 0.08775, 0.64011, 0.11168, 0.67167, 0.0613, 0.50768 ],
					"triangles": [ 405, 406, 396, 401, 396, 402, 340, 338, 405, 397, 405, 396, 397, 396, 401, 340, 405, 397, 400, 397, 401, 400, 401, 352, 341, 340, 397, 398, 397, 400, 341, 397, 398, 342, 341, 398, 398, 400, 347, 343, 342, 398, 21, 20, 19, 21, 19, 471, 301, 332, 289, 24, 23, 22, 22, 21, 471, 24, 22, 471, 334, 332, 333, 334, 333, 24, 331, 332, 301, 300, 331, 301, 333, 332, 331, 27, 25, 24, 26, 25, 27, 333, 27, 24, 468, 27, 333, 28, 27, 468, 29, 28, 468, 468, 333, 331, 300, 468, 331, 30, 29, 468, 469, 468, 300, 469, 300, 467, 30, 468, 469, 31, 30, 469, 466, 469, 467, 470, 31, 469, 466, 470, 469, 32, 31, 470, 365, 470, 466, 364, 365, 466, 470, 33, 32, 470, 36, 33, 470, 365, 36, 34, 33, 36, 37, 36, 365, 35, 34, 36, 38, 37, 365, 467, 300, 298, 362, 363, 467, 363, 362, 336, 466, 467, 363, 338, 336, 405, 368, 363, 336, 336, 337, 368, 364, 466, 363, 366, 364, 363, 368, 366, 363, 365, 364, 366, 338, 337, 336, 339, 337, 338, 367, 366, 368, 340, 339, 338, 337, 367, 368, 38, 365, 366, 38, 366, 39, 367, 39, 366, 339, 340, 341, 383, 367, 337, 383, 337, 339, 383, 339, 341, 39, 367, 383, 41, 40, 39, 383, 41, 39, 42, 41, 383, 42, 45, 43, 42, 383, 45, 383, 341, 342, 383, 384, 45, 46, 45, 384, 44, 43, 45, 342, 384, 383, 382, 342, 343, 382, 384, 342, 49, 48, 47, 50, 47, 46, 49, 47, 50, 56, 50, 384, 384, 50, 46, 399, 398, 347, 399, 343, 398, 346, 399, 347, 348, 346, 347, 389, 346, 348, 344, 343, 399, 344, 399, 346, 345, 344, 346, 345, 346, 389, 345, 389, 390, 380, 345, 390, 380, 390, 391, 344, 382, 343, 58, 344, 345, 392, 380, 391, 380, 59, 345, 68, 67, 69, 351, 352, 353, 400, 352, 351, 349, 400, 351, 386, 376, 351, 350, 349, 351, 386, 353, 354, 386, 385, 375, 386, 351, 353, 347, 400, 349, 376, 350, 351, 348, 347, 349, 350, 348, 349, 377, 350, 376, 387, 376, 386, 387, 386, 412, 377, 376, 387, 388, 387, 412, 378, 377, 387, 378, 387, 388, 348, 377, 389, 377, 348, 350, 390, 377, 378, 390, 389, 377, 379, 378, 388, 390, 378, 379, 388, 76, 379, 391, 390, 379, 77, 76, 388, 76, 74, 379, 75, 74, 76, 73, 379, 74, 379, 69, 391, 391, 69, 392, 379, 73, 71, 379, 71, 69, 72, 71, 73, 70, 69, 71, 69, 67, 392, 410, 409, 420, 410, 372, 409, 89, 410, 420, 372, 375, 373, 411, 372, 410, 411, 410, 89, 375, 372, 411, 386, 375, 411, 412, 386, 411, 421, 412, 411, 421, 411, 86, 85, 421, 86, 83, 421, 85, 84, 83, 85, 82, 421, 83, 81, 421, 82, 80, 412, 421, 80, 421, 81, 388, 412, 80, 80, 77, 388, 80, 79, 77, 78, 77, 79, 352, 402, 356, 360, 318, 328, 359, 360, 328, 317, 318, 360, 358, 357, 360, 361, 369, 360, 358, 360, 369, 409, 361, 359, 361, 360, 359, 356, 358, 369, 402, 358, 356, 370, 361, 409, 369, 361, 370, 370, 374, 356, 370, 356, 369, 355, 356, 374, 371, 373, 370, 374, 370, 373, 352, 356, 355, 353, 352, 355, 373, 371, 372, 354, 355, 374, 385, 374, 375, 355, 354, 353, 354, 374, 385, 375, 374, 373, 386, 354, 385, 408, 359, 328, 414, 327, 415, 414, 415, 417, 418, 414, 417, 408, 327, 414, 328, 327, 408, 413, 414, 418, 408, 414, 413, 419, 413, 418, 409, 408, 413, 409, 359, 408, 419, 409, 413, 420, 409, 419, 409, 371, 370, 372, 371, 409, 415, 326, 416, 422, 430, 443, 445, 423, 422, 442, 446, 445, 446, 423, 445, 325, 422, 423, 447, 446, 442, 423, 446, 447, 424, 447, 442, 424, 442, 450, 423, 447, 424, 107, 106, 105, 451, 450, 453, 416, 325, 423, 416, 423, 424, 454, 453, 107, 454, 107, 105, 425, 424, 450, 425, 450, 451, 452, 451, 453, 452, 453, 454, 425, 451, 452, 427, 416, 424, 427, 424, 425, 426, 425, 452, 417, 415, 416, 417, 416, 427, 96, 426, 452, 426, 428, 427, 426, 427, 425, 426, 95, 428, 417, 427, 428, 428, 418, 417, 429, 428, 95, 429, 418, 428, 429, 419, 418, 420, 429, 92, 429, 420, 419, 464, 122, 121, 437, 461, 464, 438, 437, 464, 459, 437, 438, 443, 430, 459, 431, 443, 459, 465, 464, 121, 465, 121, 120, 438, 464, 465, 438, 431, 459, 119, 465, 120, 455, 438, 465, 439, 438, 455, 431, 438, 439, 444, 443, 431, 444, 431, 439, 465, 118, 455, 119, 118, 465, 422, 443, 444, 448, 440, 439, 116, 118, 117, 445, 422, 444, 448, 455, 118, 448, 118, 116, 448, 439, 455, 440, 444, 439, 441, 440, 448, 440, 445, 444, 441, 445, 440, 113, 115, 114, 112, 116, 115, 112, 115, 113, 441, 442, 445, 112, 449, 448, 112, 448, 116, 449, 112, 111, 449, 450, 441, 449, 441, 448, 442, 441, 450, 110, 449, 111, 109, 449, 110, 109, 108, 449, 453, 450, 449, 108, 453, 449, 453, 108, 107, 147, 146, 133, 147, 133, 132, 130, 132, 131, 462, 130, 129, 147, 132, 130, 462, 147, 130, 462, 129, 128, 126, 128, 127, 433, 147, 462, 434, 146, 147, 433, 434, 147, 463, 462, 128, 463, 128, 126, 460, 433, 462, 463, 460, 462, 457, 456, 433, 435, 433, 460, 457, 433, 435, 461, 436, 460, 435, 460, 436, 125, 463, 126, 461, 125, 124, 461, 124, 123, 461, 463, 125, 461, 460, 463, 432, 435, 436, 458, 457, 435, 458, 435, 432, 323, 457, 458, 122, 461, 123, 437, 436, 461, 459, 432, 436, 459, 436, 437, 458, 432, 459, 464, 461, 122, 430, 458, 459, 434, 145, 146, 329, 304, 268, 304, 305, 268, 217, 215, 218, 219, 185, 217, 212, 184, 213, 210, 211, 264, 285, 267, 251, 326, 268, 269, 324, 269, 220, 266, 214, 219, 266, 213, 214, 266, 219, 271, 265, 212, 266, 285, 264, 265, 271, 219, 220, 285, 265, 270, 268, 270, 271, 268, 271, 269, 270, 267, 285, 267, 270, 268, 305, 267, 268, 270, 266, 271, 271, 220, 269, 270, 265, 266, 285, 210, 264, 264, 212, 265, 212, 213, 266, 220, 217, 218, 219, 217, 220, 324, 220, 218, 264, 211, 212, 219, 214, 185, 217, 185, 215, 218, 215, 216, 167, 143, 166, 161, 167, 162, 168, 143, 167, 168, 167, 161, 161, 280, 169, 168, 161, 169, 164, 165, 145, 221, 164, 222, 185, 221, 215, 186, 281, 161, 280, 161, 281, 209, 280, 281, 187, 186, 161, 281, 186, 209, 188, 187, 161, 181, 186, 187, 181, 187, 182, 209, 186, 181, 210, 181, 182, 209, 181, 210, 209, 210, 285, 166, 143, 144, 166, 144, 165, 163, 166, 165, 162, 167, 166, 162, 166, 163, 163, 165, 164, 190, 189, 162, 162, 189, 188, 191, 162, 163, 190, 162, 191, 193, 163, 164, 191, 163, 193, 192, 191, 193, 161, 162, 188, 183, 189, 190, 183, 190, 191, 184, 191, 192, 183, 191, 184, 182, 187, 188, 182, 188, 189, 182, 189, 183, 221, 193, 164, 192, 193, 221, 184, 192, 221, 215, 221, 222, 185, 184, 221, 214, 184, 185, 213, 184, 214, 212, 183, 184, 211, 182, 183, 211, 183, 212, 210, 182, 211, 285, 280, 209, 165, 144, 145, 222, 164, 322, 215, 222, 216, 239, 274, 278, 278, 274, 275, 14, 13, 224, 225, 203, 204, 225, 204, 272, 204, 205, 272, 273, 272, 205, 272, 273, 262, 226, 225, 272, 278, 272, 263, 277, 226, 272, 278, 277, 272, 278, 275, 17, 15, 226, 277, 16, 15, 277, 16, 277, 278, 15, 14, 226, 226, 224, 225, 226, 14, 224, 224, 223, 225, 224, 202, 223, 223, 203, 225, 13, 176, 224, 177, 204, 203, 206, 205, 178, 273, 205, 206, 178, 205, 204, 223, 202, 203, 224, 176, 202, 179, 194, 180, 194, 257, 258, 208, 179, 180, 207, 179, 208, 156, 159, 196, 201, 156, 196, 198, 197, 178, 177, 198, 178, 177, 178, 204, 160, 155, 159, 179, 196, 155, 178, 196, 179, 178, 179, 206, 194, 195, 257, 206, 179, 207, 155, 160, 257, 195, 155, 257, 179, 155, 195, 179, 195, 194, 155, 196, 159, 197, 201, 196, 178, 197, 196, 197, 156, 201, 199, 198, 177, 176, 199, 177, 202, 176, 177, 202, 177, 203, 159, 158, 141, 10, 9, 158, 156, 158, 159, 157, 10, 158, 157, 158, 156, 11, 10, 157, 157, 197, 200, 197, 157, 156, 198, 200, 197, 12, 11, 157, 199, 200, 198, 200, 12, 157, 176, 12, 200, 176, 200, 199, 13, 12, 176, 180, 194, 258, 180, 258, 259, 208, 180, 207, 207, 180, 273, 273, 180, 259, 273, 206, 207, 260, 273, 259, 275, 276, 17, 18, 17, 276, 318, 317, 303, 318, 303, 329, 415, 327, 326, 327, 329, 326, 329, 268, 326, 326, 325, 416, 325, 326, 269, 325, 269, 324, 324, 218, 323, 218, 216, 323, 323, 456, 457, 456, 434, 433, 159, 170, 175, 142, 149, 143, 168, 172, 143, 172, 174, 143, 169, 171, 172, 160, 175, 171, 174, 171, 173, 170, 141, 173, 170, 173, 171, 362, 321, 335, 336, 335, 406, 402, 403, 358, 357, 317, 360, 321, 406, 335, 406, 407, 395, 362, 298, 321, 316, 302, 303, 316, 315, 288, 403, 404, 316, 315, 312, 288, 316, 404, 315, 301, 289, 297, 299, 301, 297, 299, 300, 301, 297, 289, 308, 309, 320, 297, 404, 394, 314, 394, 313, 314, 311, 287, 312, 313, 311, 314, 394, 393, 313, 313, 287, 311, 393, 310, 287, 319, 309, 310, 291, 275, 274, 290, 275, 291, 308, 291, 307, 286, 297, 308, 309, 297, 286, 312, 294, 295, 292, 287, 307, 292, 307, 291, 292, 291, 274, 258, 257, 154, 227, 279, 282, 285, 284, 280, 251, 252, 285, 250, 246, 252, 249, 247, 250, 252, 253, 285, 284, 253, 254, 284, 254, 255, 263, 272, 262, 239, 278, 263, 247, 245, 246, 248, 245, 247, 294, 248, 249, 248, 244, 245, 292, 274, 239, 260, 259, 229, 229, 259, 228, 283, 282, 280, 284, 283, 280, 256, 284, 255, 261, 260, 230, 231, 261, 230, 284, 230, 283, 284, 256, 230, 231, 230, 256, 262, 273, 261, 262, 261, 231, 241, 262, 231, 232, 241, 231, 241, 232, 240, 241, 240, 262, 263, 262, 240, 232, 231, 256, 233, 232, 256, 240, 232, 233, 244, 256, 255, 256, 234, 233, 244, 243, 256, 243, 234, 256, 239, 240, 233, 239, 233, 234, 235, 234, 243, 235, 243, 242, 238, 239, 234, 236, 235, 242, 237, 234, 235, 237, 235, 236, 238, 234, 237, 293, 237, 236, 293, 292, 237, 292, 239, 238, 292, 238, 237, 263, 240, 239, 283, 230, 229, 282, 279, 280, 228, 227, 282, 229, 228, 283, 228, 282, 283, 230, 260, 229, 261, 273, 260, 242, 243, 244, 293, 236, 242, 242, 244, 248, 293, 242, 294, 294, 242, 248, 245, 244, 255, 249, 248, 247, 293, 287, 292, 287, 293, 294, 246, 245, 254, 254, 245, 255, 246, 254, 253, 285, 253, 284, 246, 253, 252, 247, 246, 250, 294, 249, 250, 251, 250, 252, 258, 227, 228, 259, 258, 228, 227, 154, 279, 258, 154, 227, 279, 154, 160, 294, 250, 295, 250, 251, 295, 312, 287, 294, 307, 287, 309, 310, 309, 287, 308, 307, 309, 286, 308, 309, 290, 291, 308, 289, 290, 308, 393, 287, 313, 319, 310, 393, 312, 295, 296, 312, 315, 311, 315, 314, 311, 320, 309, 319, 393, 407, 319, 394, 407, 393, 320, 319, 407, 321, 297, 320, 407, 321, 320, 298, 299, 297, 298, 300, 299, 297, 321, 298, 407, 394, 395, 406, 321, 407, 404, 395, 394, 404, 314, 315, 395, 404, 403, 403, 316, 357, 395, 403, 402, 403, 357, 358, 357, 316, 317, 317, 316, 303, 396, 395, 402, 406, 395, 396, 467, 298, 362, 336, 362, 335, 405, 336, 406, 159, 141, 170, 175, 170, 171, 160, 171, 169, 142, 173, 141, 174, 173, 142, 171, 174, 172, 174, 142, 143, 154, 257, 160, 279, 160, 169, 160, 159, 175, 322, 145, 434, 322, 434, 456, 164, 145, 322, 323, 216, 322, 216, 222, 322, 456, 323, 322, 430, 323, 458, 324, 323, 430, 422, 324, 430, 325, 324, 422, 328, 329, 327, 303, 304, 329, 328, 318, 329, 330, 275, 290, 289, 330, 290, 334, 18, 276, 334, 276, 330, 19, 18, 334, 471, 19, 334, 334, 330, 289, 332, 334, 289, 334, 24, 471, 330, 276, 275, 17, 16, 278, 392, 67, 381, 66, 65, 67, 65, 64, 381, 60, 380, 381, 51, 50, 53, 382, 344, 58, 53, 50, 55, 382, 57, 56, 61, 60, 381, 452, 454, 99, 103, 105, 104, 103, 454, 105, 101, 103, 102, 100, 454, 103, 87, 411, 88, 90, 89, 420, 90, 420, 91, 92, 429, 94, 94, 429, 95, 452, 97, 96, 97, 452, 98, 133, 146, 134, 134, 146, 152, 152, 135, 134, 143, 151, 144, 136, 152, 153, 136, 153, 137, 139, 138, 153, 153, 151, 139, 158, 9, 141, 8, 7, 148, 150, 2, 1, 3, 2, 150, 151, 1, 0, 150, 1, 151, 149, 3, 150, 4, 3, 149, 4, 149, 148, 4, 148, 5, 6, 5, 148, 7, 6, 148, 151, 149, 150, 143, 149, 151, 142, 148, 149, 141, 148, 142, 401, 402, 352, 141, 8, 148, 9, 8, 141, 151, 0, 140, 139, 151, 140, 153, 138, 137, 152, 136, 135, 151, 153, 144, 144, 153, 152, 145, 144, 152, 146, 145, 152, 98, 452, 99, 96, 95, 426, 92, 94, 93, 91, 420, 92, 88, 411, 89, 86, 411, 87, 454, 100, 99, 101, 100, 103, 64, 61, 381, 62, 61, 64, 63, 62, 64, 60, 59, 380, 59, 58, 345, 57, 382, 58, 50, 56, 55, 54, 53, 55, 53, 52, 51, 56, 384, 382, 381, 380, 392, 67, 65, 381, 251, 267, 296, 305, 306, 296, 305, 296, 267, 296, 295, 251, 305, 302, 306, 302, 305, 304, 303, 302, 304, 302, 288, 306, 312, 306, 288, 316, 288, 302, 312, 296, 306, 169, 172, 168, 280, 279, 169 ],
					"vertices": [ 4, 3, 598.34, -159.09, 0.85317, 5, 253.42, -289.57, 7.7E-4, 6, 267.88, -52.76, 0.08392, 15, -289.16, 84.24, 0.06214, 1, 3, 613.67, -91.42, 1, 1, 3, 620.02, -25.85, 1, 4, 3, 609.26, 17.95, 0.9956, 5, 264.35, -112.53, 0.00192, 6, 278.8, 124.28, 0.00166, 15, -428.79, -25.15, 8.1E-4, 1, 3, 592.24, 70.62, 1, 1, 3, 563.36, 111.08, 1, 1, 3, 536.19, 144.53, 1, 1, 3, 500.06, 167.61, 1, 3, 3, 473.84, 176.03, 0.98768, 5, 128.92, 45.55, 0.01232, 15, -457.06, -231.38, 0, 1, 3, 422.51, 186.83, 1, 2, 3, 390.86, 193.18, 0.16485, 5, 45.94, 62.69, 0.83515, 1, 5, 23.18, 67.05, 1, 1, 5, 0.53, 55.84, 1, 2, 5, -14.84, 51.79, 0.48212, 9, 65.2, 10.38, 0.51788, 1, 9, 49.45, 10.06, 1, 1, 9, 33.42, 14.62, 1, 2, 7, -25.09, 128.64, 0.7416, 9, -1.93, 25.39, 0.2584, 1, 7, -51.7, 133.28, 1, 1, 7, -78.8, 135.73, 1, 3, 7, -104.65, 156.77, 0.74818, 9, -81.49, 53.52, 0.00192, 17, 13.11, -33.36, 0.2499, 1, 17, 17.62, -53.42, 1, 1, 17, 29.71, -42.5, 1, 1, 17, 53.28, -39.59, 1, 1, 17, 80.76, -51.68, 1, 1, 17, 77.26, -39.62, 1, 1, 17, 106.63, -46.18, 1, 2, 18, -19.47, -66.19, 0.00222, 17, 118.43, -42.75, 0.99778, 2, 18, -21.47, -56.81, 0.01959, 17, 113.54, -34.51, 0.98041, 2, 18, -8.85, -52.96, 0.1114, 17, 124.25, -26.82, 0.8886, 2, 18, 6.46, -42.4, 0.36752, 17, 135.37, -11.91, 0.63248, 2, 18, 25.4, -22.78, 0.86887, 17, 147.01, 12.76, 0.13113, 2, 18, 45.59, -10.83, 0.99845, 17, 162.3, 30.55, 0.00155, 1, 18, 64.4, -12.07, 1, 1, 18, 80.71, -15.2, 1, 1, 18, 102.94, -13.19, 1, 1, 18, 110.85, -2.61, 1, 3, 20, -27.2, -55.44, 0.01025, 19, 107.03, -45.49, 0.14239, 18, 97.71, 7.17, 0.84736, 3, 20, -19.76, -49.99, 0.06551, 19, 114.16, -39.64, 0.38201, 18, 105.79, 11.62, 0.55249, 3, 20, -7.64, -42.82, 0.29589, 19, 125.87, -31.83, 0.46015, 18, 118.73, 17.18, 0.24395, 3, 20, 2.35, -41.54, 0.54124, 19, 135.77, -30.01, 0.34291, 18, 128.79, 17.17, 0.11585, 3, 20, 25.05, -50.6, 0.79661, 19, 158.93, -37.82, 0.16612, 18, 150.15, 5.28, 0.03726, 3, 20, 26.71, -39.06, 0.84349, 19, 159.96, -26.2, 0.12919, 18, 153.27, 16.52, 0.02732, 3, 20, 40.57, -36.96, 0.94848, 19, 173.69, -23.35, 0.04429, 18, 167.29, 16.82, 0.00723, 3, 20, 58.84, -33.61, 0.99192, 19, 191.75, -19.01, 0.00742, 18, 185.84, 17.81, 6.6E-4, 1, 20, 77.23, -22.97, 1, 2, 20, 65.97, -18.82, 0.9998, 19, 198.06, -3.85, 2.0E-4, 1, 20, 75.96, -16.53, 1, 1, 20, 91.25, -21.06, 1, 1, 20, 101.56, -33.66, 1, 1, 20, 106.72, -23.16, 1, 2, 3, -171.83, 234.74, 0.25387, 20, 106.02, -14.88, 0.74613, 2, 3, -184.79, 235.91, 0.49146, 20, 118.73, -12.08, 0.50854, 1, 3, -196.57, 230.64, 1, 1, 3, -200.85, 226.03, 1, 1, 3, -215.58, 228.48, 1, 1, 3, -212.48, 217.49, 1, 1, 3, -217.06, 214.12, 1, 1, 3, -238.43, 205.44, 1, 1, 3, -258.82, 192.88, 1, 1, 3, -284.86, 170.47, 1, 1, 3, -309.65, 152.4, 1, 1, 3, -334.05, 143.23, 1, 1, 3, -352.64, 142, 1, 1, 3, -354.93, 131.9, 1, 1, 3, -342.19, 124.11, 1, 3, 3, -339.82, 112.96, 0.95541, 22, 248, -60.92, 0.00364, 11, 180.56, 8.28, 0.04095, 3, 3, -350.75, 109.17, 0.68209, 22, 256.58, -53.17, 0.04242, 11, 191.27, 12.65, 0.27549, 3, 3, -344.89, 97.77, 0.2564, 22, 246.74, -44.96, 0.16611, 11, 184.8, 23.72, 0.57749, 2, 22, 252.07, -35.63, 0.30661, 11, 192.99, 30.67, 0.69339, 2, 22, 224.89, -14.68, 0.81402, 11, 174.57, 59.62, 0.18598, 2, 22, 237.35, -7.02, 0.95707, 11, 188.89, 62.59, 0.04293, 2, 13, 260.51, -87.97, 0.00173, 22, 216.75, 9.32, 0.99827, 2, 13, 275.93, -80.98, 8.4E-4, 22, 231.2, 18.14, 0.99916, 2, 13, 254.78, -69.78, 0.01908, 22, 208.84, 26.67, 0.98092, 2, 13, 236.03, -48.39, 0.12726, 22, 187.63, 45.6, 0.87274, 2, 13, 233.59, -35.59, 0.18234, 22, 183.64, 58.02, 0.81766, 2, 13, 209, -28.05, 0.38441, 22, 158.32, 62.49, 0.61559, 2, 13, 202.52, -20.08, 0.55225, 22, 150.9, 69.62, 0.44775, 2, 13, 209.03, -13.1, 0.59369, 22, 156.51, 77.34, 0.40631, 2, 13, 196.33, -7.2, 0.68147, 22, 143.19, 81.65, 0.31853, 2, 13, 182.94, -1.1, 0.86457, 22, 129.16, 86.07, 0.13543, 2, 13, 176.02, 19.95, 0.99391, 22, 119.72, 106.11, 0.00609, 2, 14, 442.48, -122.72, 3.1E-4, 13, 161.24, 30.98, 0.99969, 2, 14, 429.86, -116.33, 0.00178, 13, 147.63, 34.81, 0.99822, 2, 14, 434.38, -108.86, 0.0024, 13, 150.61, 43.01, 0.9976, 3, 3, -257.13, -128.62, 0.26308, 14, 421.92, -101.34, 0.00463, 13, 136.94, 47.99, 0.73229, 1, 3, -242.28, -146.09, 1, 1, 3, -234.68, -162.7, 1, 1, 3, -220.97, -174.82, 1, 1, 3, -191.4, -188.04, 1, 1, 3, -164.62, -204.98, 1, 1, 3, -149.5, -223.22, 1, 1, 3, -132.25, -247.37, 1, 1, 3, -125.42, -276.08, 1, 1, 3, -85.85, -284.99, 1, 1, 3, -53.84, -299.54, 1, 1, 3, -26.52, -327.65, 1, 1, 3, -13.26, -358.65, 1, 1, 3, -9, -396.68, 1, 1, 3, 4.83, -412.58, 1, 1, 3, 31.15, -446.72, 1, 1, 3, 42.88, -461.16, 1, 1, 3, 50.19, -458.03, 1, 1, 3, 44.6, -442.87, 1, 4, 3, 70.12, -449.81, 0.34522, 15, 278.97, -117.66, 5.0E-5, 16, 159.8, -34.81, 0.28854, 14, 68.74, 191.1, 0.36619, 4, 3, 56.28, -431.16, 0.31953, 15, 274.21, -140.39, 5.0E-5, 16, 159.14, -58.03, 0.30185, 14, 84.11, 173.69, 0.37858, 3, 15, 264.33, -130.88, 7.0E-5, 16, 147.73, -50.41, 0.45683, 14, 70.57, 171.47, 0.5431, 3, 15, 258.57, -141.02, 7.0E-5, 16, 143.85, -61.4, 0.46946, 14, 75.24, 160.78, 0.53047, 3, 15, 249.64, -135.1, 8.0E-5, 16, 134.02, -57.16, 0.53621, 14, 65.16, 157.17, 0.46372, 3, 15, 243.76, -111.78, 1.1E-4, 16, 124.11, -35.25, 0.66151, 14, 42.96, 166.42, 0.33838, 3, 15, 235.17, -101.63, 1.2E-4, 16, 113.85, -26.77, 0.71134, 14, 29.68, 165.61, 0.28855, 3, 15, 223.25, -94.24, 1.3E-4, 16, 100.82, -21.61, 0.7775, 14, 16.63, 160.48, 0.22237, 3, 15, 217.54, -91.28, 1.4E-4, 16, 94.68, -19.7, 0.82087, 14, 10.84, 157.69, 0.17899, 3, 15, 226.52, -84.88, 1.6E-4, 16, 102.39, -11.81, 0.86178, 14, 11.09, 168.71, 0.13806, 3, 15, 235.33, -71.31, 1.7E-4, 16, 108.66, 3.1, 0.8707, 14, 5.49, 183.89, 0.12913, 3, 15, 221.68, -77.67, 1.6E-4, 16, 96.34, -5.57, 0.86066, 14, 2.41, 169.15, 0.13918, 3, 15, 197.13, -79.55, 1.2E-4, 16, 72.52, -11.76, 0.91328, 14, -10.77, 148.36, 0.08661, 3, 15, 202.82, -73.52, 1.2E-4, 16, 77.05, -4.81, 0.92997, 14, -12.2, 156.53, 0.06991, 2, 16, 56.55, -1.76, 0.98845, 14, -29.27, 144.76, 0.01155, 3, 15, 176.65, -48.69, 0.01313, 16, 46.9, 15, 0.98675, 14, -47.76, 150.42, 1.3E-4, 3, 15, 168.36, -27.29, 0.09178, 16, 34.96, 34.6, 0.90816, 14, -69.86, 156.59, 7.0E-5, 3, 15, 154.96, -20.23, 0.18471, 16, 20.53, 39.17, 0.81527, 14, -83.53, 150.09, 3.0E-5, 2, 15, 127.58, -13.99, 0.72355, 16, -7.52, 40.48, 0.27645, 2, 15, 127.68, -3.45, 0.98782, 16, -9.29, 50.88, 0.01218, 1, 15, 105.93, 9.83, 1, 1, 15, 94.88, 9.65, 1, 1, 15, 81.99, 10.42, 1, 1, 15, 85.6, 19.96, 1, 1, 15, 69.07, 18.4, 1, 2, 8, 93.32, -236.48, 0, 15, 44.81, 23.33, 1, 3, 3, 345.37, -356.16, 1.0E-4, 8, 107.66, -224.29, 0, 15, 26.17, 25.95, 0.9999, 3, 3, 357.23, -361.12, 0.05022, 8, 119.52, -229.26, 0, 15, 22.01, 38.12, 0.94978, 4, 3, 356.35, -349.52, 0.03439, 6, 25.89, -243.19, 0.0022, 8, 118.64, -217.66, 0, 15, 13.92, 29.75, 0.96341, 3, 3, 367.72, -341.92, 0.45015, 6, 37.26, -235.59, 0.01351, 15, 0.68, 33.21, 0.53634, 1, 3, 384.57, -341.88, 1, 1, 3, 433.8, -340.78, 1, 3, 3, 474.44, -327.32, 0.94801, 6, 143.97, -220.99, 0.01443, 15, -81.1, 103.31, 0.03756, 1, 3, 509.82, -312.67, 1, 1, 3, 537.64, -287.47, 1, 1, 3, 567.96, -251.23, 1, 1, 3, 586.17, -212.79, 1, 2, 3, 439.2, 130.71, 0.51379, 7, 151.17, 62.05, 0.48621, 5, 3, 441.23, 25.96, 0.49539, 7, 153.2, -42.69, 0.49705, 5, 96.32, -104.52, 0.00652, 6, 110.77, 132.3, 7.2E-4, 15, -323.2, -156.11, 3.2E-4, 1, 7, 138.22, -165.66, 1, 5, 3, 401.92, -190.87, 0.06447, 6, 71.46, -84.54, 0.55656, 8, 164.22, -59, 0.02548, 15, -134.97, -41.52, 0.35027, 14, -240.03, -94.91, 0.00323, 7, 3, 372.23, -269.34, 0.15463, 7, 84.19, -337.99, 0.57052, 6, 41.76, -163, 0.06055, 8, 134.52, -137.47, 0.01026, 15, -56.58, -11.62, 0.20093, 16, -189.21, 10.28, 1.6E-4, 14, -217.06, -14.21, 0.00294, 6, 3, 361.89, -307.96, 0.26869, 6, 31.42, -201.63, 0.04172, 8, 124.18, -176.09, 0.00515, 15, -20.84, 6.3, 0.6828, 16, -157.19, 34.23, 4.0E-5, 14, -210.02, 25.15, 0.0016, 3, 3, 351.32, -337.18, 8.1E-4, 6, 20.85, -230.85, 0.00343, 15, 8.03, 17.8, 0.99576, 4, 3, 506.4, 116.75, 0.97364, 5, 161.48, -13.74, 0.02592, 6, 175.94, 223.08, 2.5E-4, 15, -434.35, -167.67, 1.8E-4, 4, 3, 516.13, 8.34, 0.99725, 5, 171.21, -122.15, 0.00136, 6, 185.66, 114.67, 9.8E-4, 15, -359.75, -88.41, 4.2E-4, 1, 3, 582.16, -25.02, 1, 1, 3, 530.25, -128.67, 1, 5, 3, 423.85, -291.89, 0.93757, 6, 93.39, -185.56, 0.01485, 8, 186.15, -160.02, 1.9E-4, 15, -74, 41.96, 0.04738, 14, -270.41, 3.9, 0, 1, 3, 508.01, -285.87, 1, 2, 7, 61.31, -5.26, 0.90186, 5, 4.43, -67.1, 0.09814, 1, 5, 17.87, -24.22, 1, 1, 5, 29.99, 18.34, 1, 1, 5, 31.99, 40.85, 1, 2, 3, 401.22, 160.86, 0.23559, 5, 56.3, 30.37, 0.76441, 1, 5, 51.33, 2.95, 1, 2, 7, 86.1, 2.77, 0.66239, 5, 29.21, -59.06, 0.33761, 4, 3, 347.31, -17.63, 0.00614, 6, 16.85, 88.71, 0.99385, 8, 109.61, 114.24, 0, 15, -228.24, -197.39, 0, 5, 3, 370.27, -127.51, 4.2E-4, 6, 39.81, -21.18, 0.9989, 8, 132.56, 4.36, 6.0E-5, 15, -161.33, -107.26, 6.1E-4, 14, -203.15, -155.37, 1.0E-5, 1, 6, 34.55, -52.29, 1, 1, 6, 9.85, -119.07, 1, 1, 6, 34.63, -94.18, 1, 5, 3, 389.25, -159.92, 0.03483, 6, 58.79, -53.59, 0.84029, 8, 151.54, -28.06, 0.0115, 15, -149.69, -71.55, 0.11206, 14, -224.8, -124.67, 0.00132, 5, 3, 394.58, -125.84, 0.15311, 6, 64.11, -19.51, 0.71679, 8, 156.87, 6.03, 0.00271, 15, -178.72, -90.2, 0.12717, 14, -227.23, -159.08, 2.3E-4, 3, 3, 388.35, -87.34, 0.32138, 6, 57.88, 18.99, 0.63251, 15, -203.36, -120.42, 0.04611, 3, 3, 369.17, 4.94, 0.77112, 7, 81.14, -63.71, 0.22204, 5, 24.26, -125.55, 0.00684, 3, 3, 414.88, 115.32, 0.03999, 7, 126.84, 46.67, 0.80602, 5, 69.96, -15.16, 0.154, 1, 7, 126.12, -26.49, 1, 4, 3, 409.62, -65.32, 0.05333, 7, 121.59, -133.97, 0.90349, 6, 79.16, 41.01, 0.03897, 15, -233.96, -119.13, 0.0042, 1, 7, 133.97, 21.28, 1, 1, 7, 134.45, -90.31, 1, 2, 7, 106.12, 3.31, 0.9578, 5, 49.23, -58.53, 0.0422, 2, 5, -14.05, 40.79, 0.7869, 9, 65.99, -0.62, 0.2131, 1, 5, -10.69, 27.87, 1, 1, 5, -0.77, 5.09, 1, 1, 5, 2.78, -16.25, 1, 2, 7, 41.34, 9.08, 0.12372, 5, -15.55, -52.75, 0.87628, 1, 6, -1.08, 60.26, 1, 1, 6, 2.71, 31.87, 1, 1, 6, -3.86, -7.55, 1, 1, 6, -12.61, -40.97, 1, 2, 6, -36.82, -69.7, 0.4196, 8, 55.94, -44.17, 0.5804, 1, 6, 5.39, 66.27, 1, 1, 6, 11.62, 53.84, 1, 1, 6, 27.18, 23.57, 1, 1, 6, 29.31, 3.42, 1, 1, 6, 23.06, -17.19, 1, 1, 6, 13.5, -35.08, 1, 1, 6, -0.74, -47.59, 1, 1, 6, 6.87, -59.15, 1, 1, 5, -5.32, -40.98, 1, 1, 5, 13.01, -30.43, 1, 1, 5, 21.57, -11.24, 1, 1, 5, 15.42, 18.07, 1, 1, 5, 3.88, 28.04, 1, 1, 5, -3.49, 33.39, 1, 1, 5, 3.92, 36.31, 1, 1, 5, 23.83, 5.13, 1, 2, 5, -17.17, 37.32, 0.78932, 9, 62.87, -4.09, 0.21068, 2, 5, -21.7, 29.13, 0.73741, 9, 58.34, -12.28, 0.26259, 2, 5, -29.32, 20.44, 0.36695, 9, 50.72, -20.97, 0.63305, 2, 5, -32.05, 0.54, 0.45619, 9, 47.99, -40.87, 0.54381, 2, 5, -30.48, -16.17, 0.85053, 9, 49.56, -57.58, 0.14947, 1, 5, -24.12, -30.1, 1, 1, 5, -17.04, -38.25, 1, 1, 6, -8.09, 63.43, 1, 1, 6, -17.13, 46.71, 1, 2, 6, -30.08, 25.99, 0.43277, 8, 62.67, 51.52, 0.56723, 2, 6, -36.85, -5.51, 0.09693, 8, 55.91, 20.02, 0.90307, 2, 6, -34.76, -39.4, 0.27021, 8, 58, -13.86, 0.72979, 2, 6, -34.44, -57.86, 0.43278, 8, 58.32, -32.33, 0.56722, 2, 6, -38.4, -83.7, 0.52076, 8, 54.35, -58.17, 0.47924, 7, 7, 1.7, -320.65, 0.7117, 6, -40.73, -145.67, 0.10191, 8, 52.03, -120.13, 0.17223, 15, -14.77, -84.81, 0.00979, 16, -135.12, -54.37, 9.8E-4, 14, -133.41, -24.53, 0.0034, 12, -223.02, -4.64, 0, 2, 6, -46.38, -77.98, 0.08735, 8, 46.38, -52.45, 0.91265, 2, 7, -37.23, -304.99, 0.3088, 8, 13.1, -104.48, 0.6912, 2, 6, -45.09, -63.63, 0.04126, 8, 47.67, -38.1, 0.95874, 1, 8, 6.16, -83.38, 1, 5, 6, -27.58, -76.87, 0.99569, 8, 65.17, -51.34, 0.00252, 15, -74.93, -120.66, 0.00134, 16, -188, -100.29, 2.0E-5, 14, -140.7, -94.19, 4.2E-4, 2, 7, 26.26, -313.52, 0.41954, 6, -16.16, -138.54, 0.58046, 2, 5, -24.54, 31.82, 0.5008, 9, 55.5, -9.59, 0.4992, 2, 5, -31.87, 43, 0.0434, 9, 48.18, 1.59, 0.9566, 2, 5, -30.74, 27.64, 0.24348, 9, 49.3, -13.77, 0.75652, 1, 9, 37.28, 5.7, 1, 2, 7, 48.46, -8.72, 0.97641, 5, -8.42, -70.55, 0.02359, 2, 7, 34.28, -8.5, 0.848, 5, -22.6, -70.34, 0.152, 2, 7, 17.53, 0.16, 0.88312, 5, -39.36, -61.67, 0.11688, 1, 7, 0.69, 8.47, 1, 1, 7, -17.4, 21.18, 1, 1, 7, -33.56, 28.92, 1, 1, 7, -46.63, 27.51, 1, 1, 7, -56.35, 18.41, 1, 1, 7, -63.54, 12.39, 1, 1, 7, -74.65, 11.63, 1, 1, 7, -74.45, 22.15, 1, 1, 7, -65.54, 32.52, 1, 7, 3, 231.99, 104.49, 0.00872, 7, -56.05, 35.84, 0.95226, 5, -112.93, -26, 3.5E-4, 9, -32.89, -67.41, 0.02174, 19, -185.96, -18.58, 1.1E-4, 17, -87.93, 48.97, 0.01186, 10, -139.76, -48.62, 0.00495, 1, 7, -40.17, 35.15, 1, 6, 3, 261.11, 97.89, 0.00145, 7, -26.93, 29.24, 0.98556, 5, -83.81, -32.59, 0.00148, 9, -3.77, -74, 0.00883, 17, -116.6, 40.66, 0.00186, 10, -169.54, -46.66, 8.1E-4, 1, 7, -69.15, -6.81, 1, 1, 7, -60.38, -8.45, 1, 1, 7, -57.7, -16.79, 1, 5, 3, 224.47, 35.27, 0.07575, 7, -63.57, -33.38, 0.91608, 9, -40.41, -136.62, 0.00245, 17, -114.83, 113.19, 0.00271, 10, -143.17, 20.92, 0.00301, 5, 3, 220.28, 29.19, 0.24106, 7, -67.76, -39.46, 0.74017, 9, -44.6, -142.7, 0.00512, 17, -114.1, 120.53, 0.00619, 10, -139.99, 27.59, 0.00746, 6, 3, 216.72, 32.1, 0.24415, 7, -71.31, -36.55, 0.7313, 9, -48.16, -139.79, 0.00648, 19, -197.25, 54.53, 0, 17, -109.58, 119.7, 0.00804, 10, -136.02, 25.27, 0.01003, 6, 3, 217.18, 45, 0.08442, 7, -70.85, -23.65, 0.89762, 9, -47.69, -126.89, 0.00519, 19, -193.13, 42.3, 1.0E-5, 17, -103.74, 108.19, 0.00594, 10, -134.45, 12.45, 0.00682, 6, 3, 213.82, 39.44, 0.15403, 7, -74.22, -29.21, 0.8207, 9, -51.06, -132.45, 0.0066, 19, -191.94, 48.69, 1.0E-5, 17, -103.48, 114.69, 0.00825, 10, -132, 18.47, 0.01041, 5, 3, 212.78, 14.72, 0.30129, 7, -75.25, -53.93, 0.691, 9, -52.1, -157.17, 0.00176, 17, -114.54, 136.82, 0.00247, 10, -134.85, 43.05, 0.00348, 5, 3, 219.8, 2.24, 0.36295, 7, -68.24, -66.41, 0.63668, 9, -45.08, -169.66, 1.0E-4, 17, -126.72, 144.36, 1.3E-4, 10, -143.73, 54.28, 1.5E-4, 5, 3, 229.49, 0.04, 0.09385, 7, -58.55, -68.61, 0.90614, 9, -35.39, -171.85, 0, 17, -136.26, 141.59, 0, 10, -153.65, 54.93, 0, 1, 7, -45.44, -63.5, 1, 1, 7, -37.55, -51.93, 1, 1, 7, -26.23, -40.79, 1, 1, 7, -24.45, 5.91, 1, 2, 7, 64.81, 5.91, 0.34725, 5, 7.93, -55.93, 0.65275, 2, 7, 46.24, 1.45, 0.50114, 5, -10.64, -60.39, 0.49886, 2, 7, 29.9, 3.16, 0.37762, 5, -26.98, -58.67, 0.62238, 6, 3, 298.45, 79.01, 6.4E-4, 7, 10.42, 10.36, 0.77084, 5, -46.46, -51.47, 0.22753, 9, 33.58, -92.88, 9.6E-4, 17, -158.42, 39.11, 1.0E-5, 10, -209.39, -33.87, 0, 6, 3, 279.92, 90.38, 1.8E-4, 7, -8.12, 21.73, 0.95177, 5, -65, -40.1, 0.01618, 9, 15.04, -81.51, 0.02752, 17, -136.7, 38.13, 0.00297, 10, -189.3, -42.2, 0.00137, 6, 3, 263.7, 103.22, 0.00538, 7, -24.33, 34.57, 0.8511, 5, -81.21, -27.27, 0.01303, 9, -1.17, -68.68, 0.1158, 17, -116.3, 34.74, 0.01046, 10, -171.28, -52.33, 0.00423, 7, 3, 247.38, 108.51, 0.00696, 7, -40.66, 39.86, 0.88294, 5, -97.54, -21.98, 0.00279, 9, -17.5, -63.38, 0.09026, 19, -198.93, -27.78, 3.0E-5, 17, -99.45, 38, 0.01248, 10, -154.32, -55, 0.00454, 1, 8, 43.36, 53.55, 1, 1, 8, 31.01, 21.44, 1, 1, 8, 40.06, -14.24, 1, 5, 3, 168.37, -88.32, 0.09731, 8, -69.33, 43.54, 0.84932, 14, 1.33, -177.39, 0.00118, 12, -54.03, -118.49, 0.03391, 21, -134.22, -19.75, 0.01828, 6, 3, 157.64, -152.53, 0.02133, 8, -80.07, -20.66, 0.82909, 15, -1.42, -249.63, 1.8E-4, 14, 6.62, -112.5, 0.03635, 12, -65.31, -54.38, 0.09816, 21, -134.74, 45.35, 0.01489, 1, 8, -36.41, -80.06, 1, 6, 3, 219.8, -105.05, 0.17525, 6, -110.67, 1.28, 0.00991, 8, -17.91, 26.81, 0.77141, 14, -51.32, -165.05, 6.0E-4, 12, -108.08, -119.87, 0.03176, 21, -187.76, -12.17, 0.01107, 7, 6, -98.93, -67.38, 0.01638, 8, -6.18, -41.85, 0.8985, 15, -34.65, -180.32, 0.0177, 16, -137.82, -151.89, 9.2E-4, 14, -68.8, -97.63, 0.05289, 12, -142.04, -59.04, 0.01308, 21, -211.19, 53.43, 5.2E-4, 1, 9, 19.16, -38.17, 1, 6, 3, 300.71, 104.99, 2.0E-5, 7, 12.68, 36.34, 0.06994, 5, -44.21, -25.5, 0.73097, 9, 35.83, -66.9, 0.19865, 17, -147.83, 15.28, 2.8E-4, 10, -207.55, -59.88, 1.4E-4, 6, 3, 209.85, 131.52, 0.04177, 7, -78.19, 62.87, 0.2971, 9, -55.03, -40.37, 0.36382, 19, -155.7, -36.05, 0.00519, 17, -55.47, 36.02, 0.23489, 10, -113.65, -71.85, 0.05723, 6, 3, 200.7, 169.85, 0.00596, 7, -87.33, 101.19, 0.02735, 9, -64.17, -2.05, 0.55599, 19, -133.6, -68.67, 0.00222, 17, -28.93, 6.9, 0.39168, 10, -98.61, -108.27, 0.0168, 6, 3, 202.03, 186.19, 3.4E-4, 7, -86.01, 117.54, 0.70449, 9, -62.85, 14.29, 0.15893, 19, -129.06, -84.42, 8.0E-5, 17, -22.18, -8.04, 0.13508, 10, -97.36, -124.61, 0.00108, 1, 9, 18.47, 5.97, 1, 1, 9, -14.55, -26.96, 1, 1, 7, 61.04, -46.8, 1, 4, 3, 336.68, 2.1, 0.57628, 7, 48.64, -66.55, 0.01153, 5, -8.24, -128.38, 0.00102, 6, 6.21, 108.43, 0.41118, 1, 6, 9.92, 84.43, 1, 3, 3, 326.2, 25.81, 0.01236, 7, 38.16, -42.84, 0.96514, 5, -18.72, -104.67, 0.0225, 1, 7, 8.46, -36.72, 1, 1, 7, -6.59, -41.23, 1, 1, 8, 7.58, 75.4, 1, 7, 3, 144.03, 136.21, 0.01816, 7, -144.01, 67.56, 0.53577, 9, -120.85, -35.68, 0.01335, 19, -92.46, -17.18, 0.05943, 18, -93.31, 71.26, 0.00284, 17, 4.41, 63.75, 0.23497, 10, -47.91, -66.17, 0.13548, 6, 3, 156.41, 72.41, 0.00994, 7, -131.62, 3.76, 0.97573, 9, -108.47, -99.48, 9.6E-4, 19, -126.59, 38.13, 3.9E-4, 17, -37.29, 113.6, 0.00358, 10, -70.13, -5.1, 0.00939, 4, 3, 133.92, -45.7, 0.73229, 8, -103.79, 86.16, 0.10357, 12, -7.33, -147.19, 0.06432, 21, -92.91, -55.77, 0.09982, 7, 3, 147.91, 169.49, 0.00429, 7, -140.13, 100.84, 0.32658, 9, -116.97, -2.4, 0.0042, 19, -84.33, -49.68, 0.05584, 18, -91.22, 37.83, 0.00747, 17, 17.11, 32.75, 0.53607, 10, -46.53, -99.64, 0.06556, 7, 3, 173.49, 161.25, 0.00596, 7, -114.55, 92.6, 0.67567, 9, -91.39, -10.64, 0.02355, 19, -111.18, -51.01, 0.01063, 18, -117.86, 41.39, 1.6E-4, 17, -9.26, 27.58, 0.25542, 10, -73.08, -95.52, 0.02861, 6, 3, 192.7, 141.04, 0.0144, 7, -95.34, 72.39, 0.74402, 9, -72.18, -30.85, 0.05968, 19, -136.28, -38.89, 0.00517, 17, -35.85, 35.98, 0.14628, 10, -95.22, -78.57, 0.03046, 6, 3, 206.01, 113.63, 0.00723, 7, -82.03, 44.98, 0.95578, 9, -58.87, -58.26, 0.01323, 19, -158.42, -17.95, 5.1E-4, 17, -60.76, 53.53, 0.01635, 10, -112.66, -53.58, 0.0069, 1, 7, -86.83, 7.64, 1, 6, 3, 207.1, 51.17, 0.01106, 7, -80.93, -17.48, 0.98531, 9, -57.78, -120.73, 9.1E-4, 19, -181.52, 40.09, 1.0E-5, 17, -91.94, 107.67, 0.0012, 10, -123.53, 7.94, 0.00151, 6, 3, 201.84, -4.36, 0.37686, 7, -86.19, -73.02, 0.61948, 6, -128.62, 101.97, 6.0E-5, 8, -35.87, 127.5, 0.00311, 12, -57.59, -208.8, 2.9E-4, 21, -152.66, -108.23, 1.9E-4, 5, 3, 192.44, -29.68, 0.86451, 6, -138.02, 76.65, 0.00133, 8, -45.26, 102.18, 0.10818, 12, -57.17, -181.8, 0.01501, 21, -147.78, -81.67, 0.01097, 1, 7, -162, 85.06, 1, 5, 7, -208.62, 91.96, 0.66067, 19, -23.39, -17.17, 0.21348, 18, -25.39, 58.72, 0.0411, 17, 72.76, 73.66, 0.05483, 10, 19.73, -80.14, 0.02993, 5, 7, -179.29, 103, 0.86588, 19, -46.94, -37.86, 0.03941, 18, -52.3, 42.65, 0.01385, 17, 52.43, 49.8, 0.06743, 10, -7.51, -95.64, 0.01343, 5, 7, -197.17, 115.59, 7.2E-4, 19, -25.76, -43.32, 0.33847, 18, -32.47, 33.43, 0.26437, 17, 74.17, 47.43, 0.36251, 10, 12.12, -105.28, 0.03394, 6, 3, 125.88, 179.97, 1.4E-4, 7, -162.15, 111.32, 0.65463, 19, -60.03, -51.7, 0.05073, 18, -67.69, 31.42, 0.01789, 17, 41.46, 34.23, 0.25225, 10, -23.13, -106.54, 0.02436, 5, 3, 124.47, -68.57, 0.53098, 8, -113.24, 63.3, 0.14912, 14, 46.74, -193.37, 5.0E-5, 12, -6.05, -122.48, 0.13595, 21, -87.56, -31.61, 0.18389, 5, 3, 82.77, -88.4, 0.18748, 7, -205.26, -157.05, 0.27079, 8, -154.93, 43.47, 0.05145, 12, 26.65, -89.88, 0.15655, 21, -49.92, -4.87, 0.33373, 5, 3, 125.73, -106.06, 0.26148, 8, -111.97, 25.8, 0.23319, 14, 42.32, -156.11, 0.00709, 12, -19.74, -87.55, 0.31152, 21, -95.29, 5.1, 0.18671, 5, 3, 149.87, -88.35, 0.39834, 8, -87.83, 43.51, 0.30207, 14, 19.76, -175.79, 0.00422, 12, -36.59, -112.3, 0.17909, 21, -116, -16.52, 0.11627, 4, 3, 164.48, -50.8, 0.70208, 8, -73.22, 81.07, 0.18474, 12, -37.84, -152.57, 0.05988, 21, -123.89, -56.04, 0.05329, 6, 3, 192.13, 127.75, 0.03031, 7, -95.91, 59.1, 0.6935, 9, -72.75, -44.14, 0.07005, 19, -140.45, -26.26, 0.00701, 17, -41.78, 47.89, 0.14902, 10, -96.74, -65.35, 0.05011, 1, 7, -125.58, 76.2, 1, 7, 3, 145.4, 129.15, 0.016, 7, -142.64, 60.5, 0.71075, 9, -119.48, -42.74, 0.01005, 19, -96.24, -11.06, 0.0336, 18, -95.91, 77.97, 0.00105, 17, -0.21, 69.27, 0.1328, 10, -50.37, -59.41, 0.09575, 6, 3, 130.53, 88.98, 0.01783, 7, -157.51, 20.33, 0.8947, 9, -134.35, -82.91, 0.00188, 19, -96.52, 31.78, 0.00586, 17, -6.62, 111.62, 0.01692, 10, -41.97, -17.41, 0.06282, 1, 7, -162.4, -27.56, 1, 1, 7, -147.08, -77.38, 1, 1, 7, -160.61, -10.03, 1, 5, 3, 98.9, 45.82, 0.05241, 7, -189.14, -22.83, 0.88411, 9, -165.98, -126.07, 8.0E-5, 17, 0.18, 164.69, 6.2E-4, 10, -17.5, 30.17, 0.06279, 1, 7, -210.67, -62.31, 1, 1, 7, -224.01, -103.66, 1, 5, 3, 54.98, -72.02, 0.03279, 7, -233.06, -140.67, 0.86465, 8, -182.73, 59.84, 0.00224, 12, 58.32, -96.05, 0.00481, 21, -19.71, -16.19, 0.09551, 5, 3, 62.75, -90.34, 0.13367, 7, -225.29, -158.99, 0.10483, 8, -174.96, 41.52, 0.02934, 12, 44.88, -81.37, 0.15998, 21, -30.53, 0.51, 0.57219, 1, 7, -180.24, 28.13, 1, 1, 7, -193.28, 43.67, 1, 1, 7, -206.98, 67.96, 1, 1, 7, 38.74, -330.79, 1, 1, 7, -10.88, -347.29, 1, 1, 7, -74.36, -330.77, 1, 7, 7, -138.39, -312, 0.94923, 6, -180.82, -137.02, 0, 8, -88.06, -111.48, 0.00329, 15, 71.79, -195.3, 1.3E-4, 14, 6.91, -21.33, 0.04366, 12, -88.06, 33.91, 0.00368, 21, -142.58, 136.18, 1.0E-5, 6, 3, 113.5, -195.68, 0.00138, 7, -174.53, -264.33, 0.78477, 8, -124.2, -63.82, 0.02146, 14, 46.95, -65.78, 0.06549, 12, -38.09, 1.02, 0.12478, 21, -98.74, 95.48, 0.00212, 5, 3, 67.8, -138.39, 0.01007, 7, -220.23, -207.04, 0.65304, 8, -169.9, -6.52, 0.0122, 12, 24.1, -37.76, 0.24546, 21, -43.82, 46.95, 0.07923, 5, 3, 59.08, -120.4, 0.0128, 7, -228.96, -189.05, 0.64194, 8, -178.63, 11.46, 0.01022, 12, 38.32, -51.81, 0.17938, 21, -32.11, 30.75, 0.15566, 1, 7, -195.76, -183.77, 1, 6, 3, 185.26, 179.43, 0.00186, 7, -102.78, 110.78, 0.53751, 9, -79.62, 7.54, 0.03531, 19, -115.76, -72.18, 0.0022, 17, -10.77, 5.98, 0.41506, 10, -81.86, -115.31, 0.00805, 5, 7, -175.67, 134.68, 2.6E-4, 19, -39.13, -68.78, 0.08768, 18, -50.24, 10.82, 0.09823, 17, 64.58, 20.32, 0.80119, 10, -6.12, -127.5, 0.01264, 6, 3, 146.12, 202.33, 2.0E-5, 7, -141.91, 133.68, 0.39177, 19, -71.06, -79.77, 0.00486, 18, -83.64, 5.82, 0.00153, 17, 34.56, 4.87, 0.59894, 10, -39.62, -131.8, 0.00288, 1, 17, 72.61, -7.36, 1, 1, 7, -119.08, 136.64, 1, 1, 7, -256.73, 75.57, 1, 4, 7, -283.14, 80.69, 0.13044, 20, -88.24, 13.17, 4.2E-4, 19, 42.34, 19.7, 0.71116, 10, 91.57, -57.34, 0.15799, 3, 20, -22.22, 7.8, 0.29261, 19, 108.55, 17.93, 0.60171, 10, 156.05, -72.48, 0.10568, 3, 20, -56.11, 17.86, 0.03834, 19, 74.17, 26.13, 0.72687, 10, 124.04, -57.49, 0.23479, 3, 20, -21.04, 20.81, 0.35763, 19, 109.03, 30.99, 0.39477, 10, 159.16, -59.79, 0.2476, 3, 20, -27.9, 34.67, 0.2292, 19, 101.42, 44.45, 0.31955, 10, 154.43, -45.07, 0.45125, 4, 11, -53.12, -48.56, 0.00611, 20, 17.36, 38.47, 0.55819, 19, 146.4, 50.71, 0.01102, 10, 199.75, -48.04, 0.42469, 3, 11, -23.25, -46.97, 0.12416, 20, 45.88, 47.48, 0.48992, 10, 229.3, -43.38, 0.38592, 3, 11, 5.2, -32.77, 0.56312, 20, 69.88, 68.34, 0.26262, 10, 256.14, -26.32, 0.17426, 2, 11, 40.98, -12.84, 0.94222, 20, 99.54, 96.59, 0.05778, 1, 11, 76.84, 0.1, 1, 2, 22, 114.75, -101.97, 0.07637, 11, 41.29, 15.05, 0.92363, 4, 3, -165.22, 61.68, 0.00681, 22, 67.25, -81.92, 0.35256, 11, 3.45, 50.07, 0.47512, 10, 245.85, 55.9, 0.16552, 4, 3, -182.54, 61.75, 0.00238, 22, 83.21, -75.22, 0.38671, 11, 20.74, 50.93, 0.54175, 10, 262.96, 58.54, 0.06917, 4, 3, -156.13, 28.17, 0.01575, 22, 45.78, -54.62, 0.63863, 11, -7.44, 83.04, 0.18943, 10, 231.61, 87.57, 0.15618, 4, 3, -182.18, 32.15, 0.00359, 22, 71.32, -48.11, 0.67532, 11, 18.79, 80.47, 0.25727, 10, 257.97, 87.72, 0.06382, 5, 3, -125.7, -1.83, 0.04609, 21, 170.39, -54.08, 0.04965, 22, 6.06, -38.9, 0.7297, 11, -39.44, 111.35, 0.03963, 10, 196.86, 112.43, 0.13493, 5, 3, -101.81, -4.03, 0.10558, 21, 146.48, -56.04, 0.18778, 22, -16.8, -46.2, 0.51974, 11, -63.41, 112.26, 0.01931, 10, 172.92, 110.86, 0.16759, 5, 3, -112.67, -34.95, 0.02589, 21, 151.82, -23.72, 0.36076, 22, -18.88, -13.5, 0.5819, 11, -54.24, 143.72, 0.00238, 10, 178.8, 143.09, 0.02907, 4, 12, 236.71, -46.45, 0.00171, 21, 164.42, 3.24, 0.9392, 13, 33.56, -53.72, 0.04775, 22, -12.68, 15.6, 0.01135, 5, 3, -83.78, -43.42, 0.05582, 21, 121.91, -20.37, 0.76594, 22, -48.78, -16.99, 0.15173, 11, -83.54, 150.62, 3.4E-4, 10, 148.94, 146.93, 0.02617, 4, 3, -34.09, -45.05, 0.21812, 21, 72.68, -27.36, 0.75262, 22, -95.16, -34.9, 0.02092, 10, 99.61, 140.76, 0.00833, 1, 7, -258.92, -113.49, 1, 3, 3, -5.47, -47.51, 0.31866, 21, 44.07, -29.88, 0.67956, 22, -122.47, -43.81, 0.00178, 2, 12, 117.96, -57.97, 0.10441, 21, 45.4, 11.51, 0.89559, 2, 3, 0.8, -77.08, 0.00986, 21, 32.78, -1.84, 0.99014, 2, 12, 141.6, -54.18, 0.11711, 21, 69.35, 11.33, 0.88289, 3, 7, -246.79, 86.31, 0.77018, 19, 10.31, 1.6, 0.22777, 10, 56.54, -68.59, 0.00205, 2, 19, 53.29, -6.16, 0.93849, 18, 52.02, 55.6, 0.06151, 2, 19, 86.05, -25.17, 0.59144, 18, 80.78, 30.96, 0.40856, 3, 20, -33.51, -47.84, 0.00963, 19, 100.31, -38.24, 0.2969, 18, 92.42, 15.51, 0.69346, 2, 19, 89.15, -5.1, 0.95314, 18, 87.47, 50.13, 0.04686, 3, 20, -11.95, -10.24, 0.3571, 19, 119.8, 0.48, 0.63001, 18, 118.62, 50.04, 0.01289, 3, 20, -52.02, 2.01, 0.01741, 19, 79.12, 10.52, 0.91737, 10, 125.73, -73.77, 0.06522, 2, 12, 137.48, -64.38, 0.01387, 21, 63.6, 1.96, 0.98613, 2, 12, 166.31, -47.6, 0.18158, 21, 94.8, 13.74, 0.81842, 3, 12, 201.94, -17.27, 0.30116, 21, 134.96, 37.76, 0.34295, 13, 0.63, -22.48, 0.35589, 3, 12, 226.84, -6.78, 0.01781, 21, 161.25, 43.99, 0.17567, 13, 26.12, -13.52, 0.80652, 3, 12, 203.97, -40.41, 0.11235, 21, 133.14, 14.6, 0.80905, 13, 1.25, -45.7, 0.0786, 5, 3, -76.99, -63.12, 0.00331, 21, 111.8, -2.13, 0.99131, 22, -62.73, -1.5, 0.00444, 11, -91.39, 169.93, 0, 10, 139.15, 165.33, 9.4E-4, 4, 12, 249.18, -21.34, 0.00106, 21, 180.88, 25.94, 0.34133, 13, 47.54, -29.42, 0.54965, 22, -1.77, 41.42, 0.10796, 4, 3, -163.46, 5.1, 0.00833, 22, 43.52, -30.53, 0.84289, 11, -1.37, 106.47, 0.0822, 10, 235.24, 111.5, 0.06658, 4, 3, -198.56, 23.38, 7.9E-4, 22, 82.97, -33.64, 0.79804, 11, 34.67, 90.11, 0.17872, 10, 272.77, 98.94, 0.02245, 2, 22, 124.63, -3.61, 0.9868, 11, 84.06, 104.17, 0.0132, 2, 13, 195.65, -87.97, 0.00264, 22, 152.38, 1.4, 0.99736, 3, 3, -274.68, 119.74, 0.26286, 11, 115.88, -2.01, 0.73516, 20, 169.35, 125.81, 0.00198, 1, 3, -321.36, 123.02, 1, 4, 3, -164.93, 181.52, 0.70347, 11, 9.62, -69.61, 0.06476, 20, 83.36, 33.77, 0.21291, 10, 264.33, -62.51, 0.01887, 3, 11, -56.65, -82.08, 6.3E-4, 20, 22.33, 5.13, 0.97343, 10, 199.71, -81.75, 0.02594, 3, 11, -16.56, -91.07, 0.0133, 20, 63.38, 6.46, 0.96865, 10, 240.5, -86.55, 0.01805, 4, 12, 243.57, -32.63, 0.00406, 21, 173.48, 15.74, 0.57751, 13, 41.25, -40.34, 0.31124, 22, -6.68, 29.82, 0.10719, 3, 21, 212.74, -8.47, 0.02319, 13, 82.84, -60.3, 0.13377, 22, 37.03, 15.09, 0.84303, 2, 13, 132.56, -59.49, 0.2091, 22, 86.29, 21.96, 0.7909, 2, 13, 155.53, -54.88, 0.27984, 22, 108.52, 29.33, 0.72016, 4, 3, -208.03, 73.73, 1.0E-4, 22, 111.36, -76.29, 0.31083, 11, 46.85, 40.35, 0.68317, 10, 290.02, 50.7, 0.00591, 2, 22, 148.83, -51.55, 0.5029, 11, 90.5, 50.85, 0.4971, 2, 22, 172.38, -36.82, 0.64036, 11, 117.66, 56.68, 0.35964, 2, 22, 201.38, -39.82, 0.51027, 11, 143.9, 43.99, 0.48973, 1, 7, -159.1, 4.73, 1, 1, 7, -201.58, 6.27, 1, 1, 7, -257.97, 5.7, 1, 4, 3, -31.86, 78.84, 0.08216, 21, 91.91, -149.76, 8.7E-4, 22, -48.82, -149.81, 0.01398, 10, 116.81, 18.05, 0.90299, 5, 3, -72.52, 101.4, 0.00173, 21, 135.86, -164.95, 1.1E-4, 22, -2.58, -154.7, 0.00225, 11, -86.98, 5.4, 2.6E-4, 10, 160.51, 2.14, 0.99565, 4, 3, -125.74, 110.6, 2.7E-4, 22, 50.01, -142.37, 0.00266, 11, -33.33, -0.91, 0.00193, 10, 214.52, 1.39, 0.99514, 3, 3, -166.72, 106.53, 2.0E-4, 22, 86.14, -122.62, 0.01601, 11, 7.36, 5.36, 0.98379, 5, 3, -107.98, 62.71, 0.05248, 21, 164.1, -120.71, 0.00785, 22, 14.96, -105.23, 0.21516, 11, -53.65, 45.95, 0.07929, 10, 189.48, 45.91, 0.64522, 5, 3, -61.67, 39.82, 0.25596, 21, 114.53, -106.17, 0.05638, 22, -36.61, -102.25, 0.15069, 11, -101.13, 66.31, 0.00603, 10, 140.15, 61.26, 0.53094, 5, 3, -17.01, 9.68, 0.61409, 7, -305.05, -58.98, 0.21513, 21, 65.32, -84.21, 0.03885, 22, -89.51, -91.95, 0.02398, 10, 91.32, 84.04, 0.10795, 1, 7, -266.13, -63.98, 1, 1, 7, -228.13, -47.79, 1, 3, 20, -71, 60.98, 0.00408, 19, 56.96, 68.37, 0.10477, 10, 115.73, -12.63, 0.89115, 1, 7, -269.28, 27.33, 1, 1, 7, -204.06, 16.37, 1, 2, 12, 82.85, -13.52, 0.88326, 21, 18.13, 61.15, 0.11674, 3, 14, 232.31, -111.13, 0.01056, 12, 152.71, 3.98, 0.97811, 13, -47.21, 1.73, 0.01133, 2, 14, 303.81, -107.13, 0.04617, 13, 22.18, 19.48, 0.95383, 2, 14, 362.38, -129.24, 0.00353, 13, 83.91, 9.1, 0.99647, 3, 21, 258.24, 18.24, 1.3E-4, 13, 125.28, -28.96, 0.68641, 22, 75.33, 51.37, 0.31345, 3, 14, 186.23, -74.47, 0.19159, 12, 98.87, 27.8, 0.80513, 13, -99.5, 28.8, 0.00327, 2, 14, 124.99, -79.9, 0.03369, 12, 40.99, 7.07, 0.96631, 4, 3, 84.59, -194.09, 4.0E-5, 8, -153.12, -62.23, 0.01204, 14, 75.9, -64.93, 0.15855, 12, -10.3, 9.16, 0.82936, 3, 8, -142.82, -120.06, 0.00145, 14, 60.75, -8.16, 0.9547, 12, -39.29, 60.25, 0.04386, 2, 14, 126.52, -30.84, 0.66639, 12, 30.07, 54.93, 0.33361, 2, 14, 138.45, -39.56, 0.5506, 12, 43.82, 49.51, 0.4494, 3, 14, 216.63, -33.92, 0.71079, 12, 118.03, 74.72, 0.26111, 13, -77.51, 74.46, 0.0281, 3, 14, 265.16, -54.19, 0.45713, 12, 170.11, 67.37, 0.22664, 13, -25.98, 63.95, 0.31622, 1, 13, 123.71, 0.02, 1, 7, 7, -102.43, -357.54, 0.03081, 6, -144.85, -182.56, 0.00247, 8, -52.1, -157.02, 0.03677, 15, 81.96, -138.17, 0.04654, 16, -30.49, -89.8, 0.21102, 14, -32.76, 21.01, 0.67203, 12, -137.14, 64.85, 3.6E-4, 3, 15, 118.74, -157, 9.7E-4, 16, 9.04, -101.84, 0.23505, 14, 4.34, 39.2, 0.76398, 3, 15, 155.52, -175.83, 0, 16, 48.57, -113.87, 0.25412, 14, 41.44, 57.39, 0.74588, 3, 15, 205.48, -203.24, 2.0E-5, 16, 102.58, -132.03, 0.24118, 14, 93.31, 81, 0.75881, 3, 15, 223.57, -220.75, 2.0E-5, 16, 123.48, -146.06, 0.20622, 14, 118.15, 85.01, 0.79376, 3, 15, 170.65, -237.48, 0, 16, 74.36, -171.89, 0.0578, 14, 99.89, 32.61, 0.9422, 3, 15, 197.34, -281.81, 0, 16, 108.45, -210.8, 0.02354, 14, 151.37, 27.45, 0.97646, 3, 14, 215.45, -2.55, 0.99067, 12, 108.97, 104.77, 0.00841, 13, -84.73, 105.01, 9.2E-4, 5, 6, -92.11, -202.33, 0.01075, 8, 0.65, -176.8, 0.06807, 15, 61.72, -85.6, 0.3072, 16, -59.7, -41.64, 0.33318, 14, -86.99, 36.27, 0.2808, 5, 6, -119.81, -244.8, 6.0E-5, 8, -27.06, -219.27, 0.00674, 15, 111.87, -78.12, 0.05238, 16, -11.66, -25.41, 0.7931, 14, -62.96, 80.92, 0.14772, 5, 6, -63.54, -232.39, 0.00251, 8, 29.22, -206.86, 0.02345, 15, 65.22, -44.28, 0.64998, 16, -63.55, -0.35, 0.24395, 14, -117.99, 63.81, 0.0801, 5, 6, -27.08, -224.14, 0.00383, 8, 65.68, -198.61, 0.01685, 15, 34.84, -22.49, 0.90495, 16, -97.3, 15.73, 0.04447, 14, -153.62, 52.51, 0.02991, 7, 3, 348.53, -294.32, 8.5E-4, 7, 60.5, -362.97, 0.57021, 6, 18.07, -187.99, 0.03414, 8, 110.82, -162.45, 0.0123, 15, -22.17, -12.75, 0.37503, 16, -155.14, 15.25, 0.00139, 14, -195.56, 12.68, 0.00607, 5, 6, -55.79, -230.64, 0.00303, 8, 36.97, -205.11, 0.02352, 15, 58.77, -39.65, 0.72088, 16, -70.72, 3.07, 0.18349, 14, -125.56, 61.41, 0.06908, 5, 6, -65.43, -247.69, 4.2E-4, 8, 27.33, -222.15, 0.01092, 15, 77.92, -35.54, 0.69369, 16, -52.6, 10.5, 0.25137, 14, -117.39, 79.21, 0.0436, 4, 8, 5.96, -240.11, 0.00291, 15, 105.53, -39.59, 0.4466, 16, -24.7, 11.39, 0.53205, 14, -97.62, 98.91, 0.01843, 4, 8, -20.96, -234.01, 0.00244, 15, 118.85, -63.76, 0.03079, 16, -7.32, -10.05, 0.91685, 14, -70.28, 95.1, 0.04991, 4, 8, -47.4, -232.74, 7.8E-4, 15, 135.45, -84.38, 1.0E-4, 16, 12.66, -27.41, 0.87212, 14, -43.82, 96.06, 0.127, 2, 16, 31.54, -39.75, 0.79999, 14, -21.61, 99.94, 0.20001, 2, 16, 39.55, -56.94, 0.66863, 14, -4.02, 92.84, 0.33137, 2, 16, 39.93, -79.33, 0.48743, 14, 11.55, 76.74, 0.51257, 5, 6, -108, -226.69, 0.00157, 8, -15.24, -201.16, 0.02328, 15, 90.48, -81.31, 0.17175, 16, -32.15, -32.33, 0.58171, 14, -73.21, 61.88, 0.2217, 5, 6, -141.16, -238.39, 0, 8, -48.4, -212.86, 0.0039, 15, 121.25, -98.33, 0.01241, 16, 1.15, -43.65, 0.71689, 14, -41.15, 76.34, 0.26679, 4, 8, -68.29, -196.56, 0.00198, 15, 122.27, -124.03, 0.00521, 16, 6.69, -68.76, 0.51191, 14, -19.96, 61.77, 0.48091, 4, 8, -88.22, -187.33, 2.0E-5, 15, 128.6, -145.05, 5.0E-4, 16, 16.64, -88.34, 0.36562, 14, 0.67, 54.25, 0.63385, 2, 16, 31.32, -99.15, 0.31481, 14, 18.78, 56.38, 0.68519, 3, 15, 183.84, -101.36, 6.0E-5, 16, 63.29, -35.57, 0.81737, 14, -1.26, 124.66, 0.18257, 3, 15, 203.26, -119.29, 8.0E-5, 16, 85.57, -49.79, 0.69449, 14, 24.73, 129.48, 0.30544, 3, 15, 197.38, -150.21, 3.0E-5, 16, 85.24, -81.26, 0.50211, 14, 45.97, 106.26, 0.49785, 3, 15, 217.75, -173.34, 4.0E-5, 16, 109.38, -100.43, 0.39124, 14, 76.7, 108.74, 0.60872, 3, 15, 237.65, -193.87, 4.0E-5, 16, 132.6, -117.12, 0.32056, 14, 105.06, 112.38, 0.6794, 3, 15, 242.64, -147.58, 7.0E-5, 16, 129.33, -70.67, 0.49626, 14, 70.96, 144.1, 0.50367, 4, 3, 48.37, -408.56, 0.23562, 15, 262.57, -161.32, 5.0E-5, 16, 151.37, -80.68, 0.32563, 14, 93.89, 151.83, 0.4387, 2, 16, 29.1, -9.17, 0.97994, 14, -44.27, 120.61, 0.02006, 6, 7, 21.99, -356.88, 0.97955, 6, -20.44, -181.9, 0.00143, 8, 72.32, -156.37, 0.00172, 15, -1.14, -45.58, 0.01491, 16, -128.64, -13.36, 8.3E-4, 14, -156.67, 9.87, 0.00156, 6, 7, 7.09, -378.04, 0.05115, 6, -35.34, -203.06, 0.02174, 8, 57.42, -177.53, 0.05216, 15, 24.57, -42.67, 0.72243, 16, -103.85, -5.95, 0.07536, 14, -143.61, 32.2, 0.07716, 5, 6, -61.55, -216.84, 0.00875, 8, 31.21, -191.31, 0.04412, 15, 52.28, -53.11, 0.61304, 16, -74.73, -11.33, 0.21513, 14, -118.66, 48.15, 0.11896, 5, 6, -88.8, -237.96, 0.001, 8, 3.95, -212.43, 0.01812, 15, 86.17, -59.47, 0.36313, 16, -40.25, -11.6, 0.5061, 14, -93.29, 71.49, 0.11165, 5, 6, -43.62, -250.25, 1.5E-4, 8, 49.13, -224.71, 0.00531, 15, 65.35, -17.53, 0.90945, 16, -68.15, 26, 0.06858, 14, -139.34, 79.92, 0.01651, 4, 8, 20.06, -253.24, 8.0E-4, 15, 105.99, -20.32, 0.78004, 16, -27.66, 30.43, 0.21539, 14, -112.78, 110.8, 0.00377, 1, 15, 41.56, 5.25, 1, 4, 8, 52.45, -235.57, 0.00128, 15, 71.27, -7.85, 0.96771, 16, -64.04, 36.58, 0.02655, 14, -143.55, 90.46, 0.00445, 2, 15, 128.35, -40.85, 0.20653, 16, -2.02, 14.18, 0.79347, 2, 15, 153.01, -52.2, 0.0175, 16, 24.25, 7.36, 0.9825, 2, 19, 64.18, -28.37, 0.53799, 18, 58.69, 31.78, 0.46201, 2, 19, 31.46, -20.83, 0.72284, 18, 27.88, 45.14, 0.27716, 2, 18, -8.72, -20.6, 0.34012, 17, 113.99, 3.88, 0.65988, 2, 18, 31.43, -3.54, 0.99418, 17, 146.55, 32.91, 0.00582, 2, 19, 72.42, -46.23, 0.16306, 18, 63.55, 12.73, 0.83694, 2, 7, -120.8, 153.29, 0.72439, 17, 25.56, -22.5, 0.27561 ],
					"hull": 141,
					"edges": [ 0, 2, 2, 4, 4, 6, 6, 8, 8, 10, 10, 12, 12, 14, 14, 16, 16, 18, 18, 20, 20, 22, 22, 24, 24, 26, 26, 28, 28, 30, 30, 32, 32, 34, 34, 36, 36, 38, 38, 40, 40, 42, 42, 44, 44, 46, 46, 48, 48, 50, 50, 52, 52, 54, 54, 56, 56, 58, 58, 60, 60, 62, 62, 64, 64, 66, 66, 68, 68, 70, 70, 72, 72, 74, 74, 76, 76, 78, 78, 80, 80, 82, 82, 84, 84, 86, 86, 88, 88, 90, 90, 92, 92, 94, 94, 96, 96, 98, 98, 100, 100, 102, 102, 104, 104, 106, 106, 108, 108, 110, 110, 112, 112, 114, 114, 116, 116, 118, 118, 120, 120, 122, 122, 124, 124, 126, 126, 128, 128, 130, 130, 132, 132, 134, 134, 136, 136, 138, 138, 140, 140, 142, 142, 144, 144, 146, 146, 148, 148, 150, 150, 152, 152, 154, 154, 156, 156, 158, 158, 160, 160, 162, 162, 164, 164, 166, 166, 168, 168, 170, 170, 172, 172, 174, 174, 176, 176, 178, 178, 180, 180, 182, 182, 184, 184, 186, 186, 188, 188, 190, 190, 192, 192, 194, 194, 196, 196, 198, 198, 200, 200, 202, 202, 204, 204, 206, 206, 208, 208, 210, 210, 212, 212, 214, 214, 216, 216, 218, 218, 220, 220, 222, 222, 224, 224, 226, 226, 228, 228, 230, 230, 232, 232, 234, 234, 236, 236, 238, 238, 240, 240, 242, 242, 244, 244, 246, 246, 248, 248, 250, 250, 252, 252, 254, 254, 256, 256, 258, 258, 260, 260, 262, 262, 264, 264, 266, 266, 268, 268, 270, 270, 272, 272, 274, 274, 276, 276, 278, 278, 280, 0, 280, 18, 282, 282, 284, 284, 286, 286, 288, 288, 290, 290, 292, 292, 294, 294, 264, 282, 296, 296, 8, 284, 298, 298, 300, 300, 2, 286, 302, 302, 0, 290, 304, 304, 306, 306, 278, 312, 314, 314, 22, 20, 316, 316, 318, 318, 320, 320, 308, 322, 324, 324, 326, 326, 328, 328, 330, 330, 332, 332, 334, 334, 336, 336, 338, 338, 322, 340, 342, 342, 344, 346, 348, 320, 350, 352, 354, 354, 356, 356, 358, 358, 360, 362, 364, 364, 366, 366, 368, 368, 370, 372, 374, 374, 376, 376, 378, 378, 380, 380, 382, 382, 384, 382, 386, 388, 390, 390, 310, 310, 392, 392, 312, 392, 394, 394, 396, 396, 398, 394, 400, 394, 402, 404, 406, 406, 408, 408, 410, 410, 412, 412, 414, 414, 416, 418, 420, 420, 422, 422, 424, 424, 426, 426, 428, 430, 432, 434, 436, 438, 440, 442, 444, 446, 448, 450, 452, 308, 454, 454, 456, 456, 458, 458, 460, 460, 462, 462, 464, 464, 466, 466, 468, 468, 470, 470, 472, 474, 476, 476, 478, 478, 480, 480, 482, 482, 462, 484, 486, 486, 488, 488, 490, 490, 492, 492, 494, 494, 496, 498, 500, 500, 502, 502, 504, 504, 506, 506, 508, 508, 510, 308, 514, 514, 310, 514, 516, 516, 518, 518, 520, 520, 522, 522, 524, 524, 526, 526, 478, 420, 528, 528, 530, 530, 532, 532, 438, 502, 534, 534, 536, 536, 538, 538, 440, 452, 544, 544, 546, 546, 360, 544, 526, 478, 548, 548, 550, 550, 552, 552, 34, 558, 560, 560, 562, 562, 372, 558, 564, 564, 566, 566, 568, 502, 570, 570, 530, 570, 560, 578, 580, 580, 582, 582, 584, 584, 586, 586, 588, 588, 590, 590, 592, 572, 594, 594, 596, 596, 598, 598, 600, 600, 602, 602, 578, 576, 604, 604, 606, 606, 608, 608, 610, 610, 592, 586, 574, 592, 612, 612, 604, 584, 614, 614, 616, 616, 594, 572, 618, 618, 574, 618, 620, 574, 624, 624, 576, 622, 624, 626, 622, 626, 628, 628, 630, 630, 632, 632, 634, 634, 636, 636, 606, 620, 638, 638, 640, 640, 642, 642, 596, 290, 644, 644, 646, 646, 648, 648, 650, 650, 652, 652, 654, 654, 656, 656, 658, 658, 608, 578, 660, 660, 552, 600, 662, 662, 664, 664, 666, 666, 668, 668, 48, 642, 670, 670, 672, 672, 674, 674, 676, 676, 678, 678, 680, 680, 682, 682, 684, 684, 686, 686, 688, 688, 690, 690, 692, 692, 694, 694, 696, 696, 698, 698, 700, 700, 702, 702, 704, 704, 706, 706, 708, 708, 710, 710, 712, 632, 714, 714, 716, 716, 712, 656, 718, 718, 720, 720, 722, 596, 724, 724, 726, 726, 728, 728, 730, 730, 732, 732, 734, 734, 736, 736, 672, 716, 738, 738, 722, 738, 740, 740, 742, 742, 744, 744, 746, 746, 748, 748, 750, 702, 752, 752, 754, 754, 756, 756, 758, 758, 138, 690, 760, 760, 762, 762, 128, 684, 764, 764, 116, 732, 78, 734, 766, 766, 768, 768, 112, 708, 770, 770, 750, 770, 772, 772, 774, 774, 776, 776, 758, 696, 778, 778, 780, 780, 782, 782, 784, 784, 134, 620, 786, 786, 626, 786, 788, 788, 790, 790, 792, 792, 794, 794, 796, 796, 798, 798, 692, 694, 800, 800, 802, 802, 804, 804, 806, 806, 808, 808, 628, 680, 810, 810, 812, 812, 814, 814, 786, 654, 816, 816, 818, 818, 744, 818, 820, 820, 822, 822, 824, 824, 776, 818, 826, 826, 828, 652, 830, 830, 828, 650, 832, 832, 834, 826, 836, 836, 834, 836, 838, 838, 840, 840, 178, 822, 842, 842, 160, 820, 178, 648, 844, 844, 846, 846, 848, 848, 850, 850, 852, 852, 190, 832, 854, 854, 856, 856, 858, 858, 184, 646, 860, 866, 868, 868, 290, 864, 870, 870, 866, 870, 872, 872, 874, 874, 876, 876, 878, 878, 880, 880, 882, 882, 884, 884, 848, 860, 886, 886, 862, 886, 888, 888, 890, 890, 892, 892, 894, 878, 896, 896, 898, 898, 900, 900, 902, 902, 904, 904, 192, 898, 906, 906, 908, 908, 210, 876, 910, 910, 236, 644, 912, 912, 914, 914, 916, 862, 918, 918, 864, 916, 918, 866, 920, 920, 922, 922, 244, 294, 924, 924, 926, 926, 922, 874, 928, 928, 930, 930, 236, 730, 72, 730, 932, 932, 934, 934, 600, 666, 936, 936, 938, 938, 940, 940, 72, 552, 668, 42, 942, 942, 668 ],
					"width": 739,
					"height": 994
				}
			},
			"WujingBG": {
				"WujingBG": { "x": 0.98, "y": -0.78, "width": 1024, "height": 512 }
			}
		}
	}
],
"animations": {
	"Win": {
		"bones": {
			"root": {
				"rotate": [
					{ "curve": "stepped" },
					{ "time": 1.3333 }
				],
				"translate": [
					{ "curve": "stepped" },
					{ "time": 1.3333 }
				]
			},
			"Head17": {
				"rotate": [
					{
						"curve": [ 0.278, 0, 0.614, 0.6 ]
					},
					{
						"time": 0.8333,
						"value": 0.6,
						"curve": [ 1.059, 0.6, 1.167, 0 ]
					},
					{ "time": 1.3333 }
				],
				"translate": [
					{ "curve": "stepped" },
					{ "time": 1.3333 }
				]
			},
			"Beads2": {
				"rotate": [
					{
						"curve": [ 0.278, 0, 0.614, -2.96 ]
					},
					{
						"time": 0.8333,
						"value": -2.96,
						"curve": [ 1.059, -2.96, 1.167, 0 ]
					},
					{ "time": 1.3333 }
				],
				"translate": [
					{ "curve": "stepped" },
					{ "time": 1.3333 }
				]
			},
			"Head15": {
				"rotate": [
					{
						"curve": [ 0.278, 0, 0.614, 2.17 ]
					},
					{
						"time": 0.8333,
						"value": 2.17,
						"curve": [ 1.059, 2.17, 1.167, 0 ]
					},
					{ "time": 1.3333 }
				],
				"translate": [
					{ "curve": "stepped" },
					{ "time": 1.3333 }
				]
			},
			"Head16": {
				"rotate": [
					{
						"curve": [ 0.278, 0, 0.614, -5.14 ]
					},
					{
						"time": 0.8333,
						"value": -5.14,
						"curve": [ 1.059, -5.14, 1.167, 0 ]
					},
					{ "time": 1.3333 }
				],
				"translate": [
					{ "curve": "stepped" },
					{ "time": 1.3333 }
				]
			},
			"Head11": {
				"rotate": [
					{
						"curve": [ 0.278, 0, 0.614, -6.08 ]
					},
					{
						"time": 0.8333,
						"value": -6.08,
						"curve": [ 1.059, -6.08, 1.167, 0 ]
					},
					{ "time": 1.3333 }
				],
				"translate": [
					{ "curve": "stepped" },
					{ "time": 1.3333 }
				]
			},
			"Head14": {
				"rotate": [
					{
						"curve": [ 0.278, 0, 0.614, -5.94 ]
					},
					{
						"time": 0.8333,
						"value": -5.94,
						"curve": [ 1.059, -5.94, 1.167, 0 ]
					},
					{ "time": 1.3333 }
				],
				"translate": [
					{ "curve": "stepped" },
					{ "time": 1.3333 }
				]
			},
			"Head13": {
				"rotate": [
					{
						"curve": [ 0.278, 0, 0.614, 5 ]
					},
					{
						"time": 0.8333,
						"value": 5,
						"curve": [ 1.059, 5, 1.167, 0 ]
					},
					{ "time": 1.3333 }
				],
				"translate": [
					{ "curve": "stepped" },
					{ "time": 1.3333 }
				]
			},
			"Head12": {
				"rotate": [
					{ "curve": "stepped" },
					{ "time": 1.3333 }
				],
				"translate": [
					{ "curve": "stepped" },
					{ "time": 1.3333 }
				]
			},
			"Beads": {
				"rotate": [
					{
						"curve": [ 0.278, 0, 0.614, 3.39 ]
					},
					{
						"time": 0.8333,
						"value": 3.39,
						"curve": [ 1.059, 3.39, 1.167, 0 ]
					},
					{ "time": 1.3333 }
				],
				"translate": [
					{ "curve": "stepped" },
					{ "time": 1.3333 }
				]
			},
			"Head9": {
				"rotate": [
					{
						"curve": [ 0.278, 0, 0.614, 1.44 ]
					},
					{
						"time": 0.8333,
						"value": 1.44,
						"curve": [ 1.059, 1.44, 1.167, 0 ]
					},
					{ "time": 1.3333 }
				],
				"translate": [
					{ "curve": "stepped" },
					{ "time": 1.3333 }
				]
			},
			"Head10": {
				"rotate": [
					{
						"curve": [ 0.278, 0, 0.614, 2.45 ]
					},
					{
						"time": 0.8333,
						"value": 2.45,
						"curve": [ 1.059, 2.45, 1.167, 0 ]
					},
					{ "time": 1.3333 }
				],
				"translate": [
					{ "curve": "stepped" },
					{ "time": 1.3333 }
				]
			},
			"Head2": {
				"rotate": [
					{
						"curve": [ 0.278, 0, 0.614, 11.86 ]
					},
					{
						"time": 0.8333,
						"value": 11.86,
						"curve": [ 1.059, 11.86, 1.167, 0 ]
					},
					{ "time": 1.3333 }
				],
				"translate": [
					{ "curve": "stepped" },
					{ "time": 1.3333 }
				]
			},
			"Head8": {
				"rotate": [
					{
						"curve": [ 0.278, 0, 0.614, -2.97 ]
					},
					{
						"time": 0.8333,
						"value": -2.97,
						"curve": [ 1.059, -2.97, 1.167, 0 ]
					},
					{ "time": 1.3333 }
				],
				"translate": [
					{ "curve": "stepped" },
					{ "time": 1.3333 }
				]
			},
			"Head7": {
				"rotate": [
					{ "curve": "stepped" },
					{ "time": 1.3333 }
				],
				"translate": [
					{
						"curve": [ 0.222, 0, 0.447, 6.41, 0.222, 0, 0.447, 6.62 ]
					},
					{
						"time": 0.6667,
						"x": 6.41,
						"y": 6.62,
						"curve": [ 0.892, 6.41, 1.111, 0, 0.892, 6.62, 1.111, 0 ]
					},
					{ "time": 1.3333 }
				]
			},
			"Head6": {
				"rotate": [
					{ "curve": "stepped" },
					{ "time": 1.3333 }
				],
				"translate": [
					{
						"curve": [ 0.222, 0, 0.447, 7.74, 0.222, 0, 0.447, -3.57 ]
					},
					{
						"time": 0.6667,
						"x": 7.74,
						"y": -3.57,
						"curve": [ 0.892, 7.74, 1.111, 0, 0.892, -3.57, 1.111, 0 ]
					},
					{ "time": 1.3333 }
				]
			},
			"Head5": {
				"rotate": [
					{ "curve": "stepped" },
					{ "time": 1.3333 }
				],
				"translate": [
					{ "curve": "stepped" },
					{ "time": 1.3333 }
				]
			},
			"Head4": {
				"rotate": [
					{ "curve": "stepped" },
					{ "time": 1.3333 }
				],
				"translate": [
					{ "curve": "stepped" },
					{ "time": 1.3333 }
				]
			},
			"Head3": {
				"rotate": [
					{ "curve": "stepped" },
					{ "time": 1.3333 }
				],
				"translate": [
					{ "curve": "stepped" },
					{ "time": 1.3333 }
				]
			},
			"Crown": {
				"rotate": [
					{ "curve": "stepped" },
					{ "time": 1.3333 }
				],
				"translate": [
					{ "curve": "stepped" },
					{ "time": 1.3333 }
				]
			},
			"Head": {
				"rotate": [
					{
						"curve": [ 0.222, 0, 0.447, -5.52 ]
					},
					{
						"time": 0.6667,
						"value": -5.52,
						"curve": [ 0.892, -5.52, 1.111, 0 ]
					},
					{ "time": 1.3333 }
				],
				"translate": [
					{ "curve": "stepped" },
					{ "time": 1.3333 }
				]
			},
			"Body": {
				"rotate": [
					{ "curve": "stepped" },
					{ "time": 1.3333 }
				],
				"translate": [
					{ "curve": "stepped" },
					{ "time": 1.3333 }
				]
			}
		},
		"deform": {
			"default": {
				"Crown": {
					"Crown": [
						{
							"curve": [ 0.222, 0.67, 0.444, 1 ]
						},
						{
							"time": 0.6667,
							"vertices": [ 4.87976, 3.89389, 4.87976, 3.89389, 4.87976, 3.89389, 4.87976, 3.89389, 4.87976, 3.89389, 4.87976, 3.89389, 4.87976, 3.89389, 4.87976, 3.89389, 4.87976, 3.89389, 4.87976, 3.89389, 4.87976, 3.89389, 4.87976, 3.89389, 4.87976, 3.89389, 4.87976, 3.89389, 4.87976, 3.89389, 4.87976, 3.89389, 4.87976, 3.89389, 4.87976, 3.89389, 4.87976, 3.89389, 4.87976, 3.89389, 4.87964, -3.11478, 4.88, -1.0E-5, 4.88, -1.0E-5, 4.88, -1.0E-5, 6.06799, -6.0E-5, 5.52063, 1.20263, 4.92322, 1.18114, 4.88, -1.0E-5, 4.88, -1.0E-5, 4.88, -1.0E-5, 4.88, -1.0E-5, 7.29822, -2.0E-5, 7.29822, -2.0E-5, 7.29822, -2.0E-5, 7.29822, -2.0E-5, 7.29822, -2.0E-5, 7.29822, -2.0E-5, 7.29822, -2.0E-5, 4.88, -1.0E-5, 4.88, -1.0E-5, 4.88, -1.0E-5, 4.88, -2.88784, 4.88, -2.88784, 4.88, -2.88784, 4.88, -2.88784, 4.78918, 1.41804, 4.87976, 3.89389, 4.87976, 3.89389, 4.87976, 3.89389, 4.87976, 3.89389, 4.87976, 3.89389, 4.87976, 3.89389, 4.87976, 3.89389, 4.87976, 3.89389, 4.87976, 3.89389, 4.87976, 3.89389, 4.87976, 3.89389, 4.87976, 3.89389, 4.87976, 3.89389, 4.87976, 3.89389, 4.88 ],
							"curve": [ 0.889, 0, 1.111, 1 ]
						},
						{ "time": 1.3333 }
					]
				},
				"Head": {
					"Head": [
						{
							"time": 0.0667,
							"curve": [ 0.289, 0.67, 0.511, 1 ]
						},
						{
							"time": 0.7333,
							"offset": 36,
							"vertices": [ 9.98523, -3.32938, 9.98779, -3.32985, 9.47998, -1.26573, 3.03589, -4.06485, 2.63196, -1.1E-4, 2.63184, -1.2E-4, 3.14417, -1.33952, 7.08801, 0.10368, 1.2688, 3.35179, 1.2699, 3.35121, -3.17346, 2.2948, -9.17273, 4.16531, -3.44824, 0.55153, -3.44824, 0.55136, 3.16626, 1.48419, 1.57837, 0.90137, 0.20984, -1.7724, 0.97803, 2.37421, -0.77576, -1.01123, 0.78174, -0.66504, 0.33215, 0.2287, 0.37463, 0.1481, 0.33215, 0.2287, 0.37463, 0.1481, 0.33215, 0.2287, 0.37463, 0.1481, 0.33215, 0.2287, 0.37463, 0.1481, 0.33215, 0.2287, 0, 0, 0, 0, 0, 0, 0, 0, 0, 0, 0, 0, 0, 0, 0, 0, 0, 0, 0, 0, 0, 0, 0, 0, 0, 0, 0, 0, 0, 0, 0, 0, 0, 0, 0, 0, 0, 0, 0, 0, 0, 0, 0, 0, 0, 0, 0, 0, 0, 0, 0, 0, 0, 0, 0, 0, 0, 0, 0, 0, 0, 0, 0, 0, 0, 0, 0, 0, 0, 0, 0, 0, 0, 0, 0, 0, 0, 0, 0, 0, 0, 0, 0, 0, 0, 0, 0, 0, 0, 0, 0, 0, 0, 0, 0, 0, 0, 0, 0, 0, 0, 0, 0, 0, 0, 0, 0, 0, 0, 0, 0, 0, 0, 0, 0, 0, 0, 0, 0, 0, 0, 0, 0, 0, 0, 0, 0, 0, 0, 0, 0, 0, 0, 0, 0, 0, 0, 0, 0, 0, 0, 0, 0, 0, 0, 0, 0, 0, 0, 0, 0, 0, 0, 0, 0, 0, 0, 0, 0, 0, 0, 0, 0, 0, 0, 0, 0, 0, 0, 0, 0, 0, 0, 0, 0, 0, 0, 0, 0, 0, 0, 0, 0, 0, 0, 0, 0, 0, 0, 0, 0, 0, 0, 0, 0, 0, 0, 0, 0, 0, 0, 0, 0, 0, 0, 0, 0, 0, 5.13379, -9.19597, -2.51562, -10.94664, -1.11304, -5.13345, 0, 0, 17.49744, -13.06694, 17.49744, -13.06694, 25.03479, -10.44627, 26.83752, -11.93219, 29.9176, -15.93047, 35.96875, -15.5164, 32.27673, -16.23679, 37.71594, -20.54129, 35.24854, -11.82426, 35.24854, -11.82426, 35.24854, -11.82426, 35.24854, -11.82426, 38.19189, -10.24654, -17.69928, 35.36328, -20.9895, 33.53467, -38.48328, 9.15417, 33.91992, -14.85655, -11.41553, 35.22998, -14.71924, 33.96851, -34.32837, 13.87073, -1.49579, 19.31653, -3.34454, 19.08569, -15.77393, 11.25171, -1.58002, 21.45972, -3.62122, 21.21411, -17.46606, 12.57025, -1.58002, 21.45972, -3.62122, 21.21411, -17.46606, 12.57025, 0.2677, -0.30115, 0.29559, -0.27429, 0.40369, 0.01154, 0, 0, 0, 0, 0, 0, 0, 0, 0, 0, 0, 0, 2.04572, 1.13513, 1.93304, 1.31104, 0.45142, 2.29306, 0.83984, 2.39917, 0.61816, 2.46143, -1.29346, 2.18683, -1.45471, 3.41858, -1.75885, 3.2688, -3.55176, 1.09149, -0.14252, 1.47839, -0.27728, 1.45557, -1.22278, 0.84259, 0.75226, -2.16211, 0.9422, -2.08997, 2.13708, -0.82144, -0.31348, -1.42346, -0.18604, -1.45117, 0.88574, -1.1604, -0.42267, -4.58423, 2.91907, -3.55499, 0, 0, 0, 0, 0, 0, 0, 0, 0, 0, 0, 0, 0, 0, 0, 0, 0, 0, -3.36542, -1.34045, -3.23315, -1.64246, -0.52838, -2.01868, -0.34576, -2.06177, 3.89197, 3.36963, 0, 0, 0, 0, -1.4953, 4.02466, 1.49292, -4.02185, 0, 0, 0, 0, 1.1062, -3.39087, 1.10742, -3.39053, 1.80005, 3.07983, 2.06445, 2.59213, 2.06592, 2.59253, -3.30994, -0.17627, -3.15186, 0.90036, -3.15173, 0.90048, -3.15076, 0.90054, 1.41913, -2.95312, 0, 0, 0, 0, 0, 0, 0, 0, 0, 0, 0, 0, 0, 0, 0, 0, 0, 0, 0, 0, 0, 0, 0, 0, 0, 0, 0, 0, 0, 0, 0, 0, 0, 0, 0, 0, 0, 0, 0, 0, 0, 0, 0, 0, 0, 0, 0, 0, 0, 0, 0, 0, 0, 0, 0, 0, 0, 0, 0, 0, 0, 0, 0, 0, 0, 0, 0, 0, 0, 0, 0, 0, 0, 0, 0, 0, 0, 0, 0, 0, 0, 0, 0, 0, 0, 0, 0, 0, 0, 0, 0, 0, 0, 0, 0, 0, 0, 0, 0, 0, 0, 0, 0, 0, 0, 0, 0, 0, 0, 0, 0, 0, 0, 0, 8.99963, -0.21001, 9.00525, -0.21114, 15.64832, 0.11749, 13.74902, -3.03989, 12.07788, -3.8E-4, 10.08423, 3.18994, 10.08691, 3.18956, 13.69678, -1.62097, 13.31458, -6.47852, 13.32251, -6.47977, 23.54041, 8.10295, 23.54187, 8.10342, 23.54639, 8.10355, -21.69501, 12.22803, 8.83313, 8.70905, 8.83252, 8.70941, 8.83911, 8.70953, -12.38165, 0.82703, -8.06689, -9.44583, 8.83215, 0.08014, 8.83215, 0.08014, 8.83215, 0.08014, 8.83313, 8.70905, 8.83252, 8.70941, 8.83911, 8.70953, -12.38165, 0.82703, -8.06689, -9.44583, 8.83313, 8.70905, 8.83252, 8.70941, 8.83911, 8.70953, -12.38165, 0.82703, -8.06689, -9.44583, 11.78491, 11.06354, 11.78418, 11.0639, -16.10242, 1.47083, 26.49219, 10.45744, 26.49353, 10.45811, 26.4978, 10.45699, 9.64832, 3.0E-5, 9.64868, 1.2E-4, 9.64905, -9.0E-5, 9.64868, 1.2E-4, 9.64832, 3.0E-5, 9.64868, 1.2E-4, 9.64832, 1.2E-4, -6.40753, 7.21497, 9.64868, 1.2E-4, 9.64868, 1.2E-4, -2.77136, 1.2E-4, -2.76685, -2.0E-4, 2.76746, 0.59125, 2.76587, 0.59164, 3.90979, -0.60022, 6.65454, -2.6E-4, 6.03918, -0.22929, 4.9126, 3.49048, 4.91992, 3.48878, 3.54749, -5.9642, 3.54749, -5.9642, 7.86633, 0.58612, 6.80481, 2.4E-4, 14.56665, -1.19434, 14.56689, -1.19427, -0.8927, 0.73975, 2.33362, -2.15588, 9.56165, 2.71866, 7.2738, 0.77359, 7.14111, 0.18781, 6.875, -0.98367, 5.25122, 2.4E-4, 10.52283, -1.19421, 3.37146, -3.30342, 1.66309, -5.73642, 14.92297, -2.56795, 7.28821, 5.52333, 6.52698, 4.55626, 3.51367, 5.34294, 5.87061, 5.95726, 5.87061, 5.95718, 0.53894, 1.25429, 0.53845, 1.25473, 1.39465, 0.28026, 1.39453, 0.28027, 8.59802, 0.17719, 8.59766, 0.17821, 12.76428, 0.39621, 12.76318, 0.39741, 15.04297, 1.5492, 15.0415, 1.55099, 8.89417, 3.15865, 3.64221, 2.16673, -4.01831, 0.6705, 5.23169, -3.16602, 7.33459, -6.93719, 7.33606, -6.93726, 10.13867, -3.51111, 10.14063, -3.51099, 6.23535, 3.51492, 6.23792, 3.51514, 4.47852, -0.02271, 4.47961, -0.02264, 9.29517, 9.0E-5, 9.29468, 1.5E-4, 11.43396, 2.72816, 11.43518, 2.72815, 11.43335, 2.72833, -9.63269, 6.73962, -10.49768, 5.29797, -11.25073, -3.42197, -9.97961, -6.21827, 5.09949, -3.75195, 5.09924, -3.75192, 17.2489, -7.54578, 17.24731, -7.54575, -1.05884, 9.0E-5, -1.05811, 1.5E-4, 9.72437, -11.90265, 9.29517, 9.0E-5, 9.29468, 1.5E-4, -6.1723, 6.95068, -6.76978, 6.37109, -9.29358, -0.22986, -1.46899, 5.17674, -1.46667, 5.17691, 2.63196, -1.1E-4, 2.63184, -1.2E-4, 9.01013, -1.81647, 9.0072, -1.81642, -2.76929, -2.0E-5, -2.76941, -2.0E-5, 4.87158, -1.52243, -2.7699, 2.92491, -2.76917, 2.92473, -2.76941, 2.88919, -2.76904, 2.88908, -2.76941, 0, -2.76929, -2.0E-5, 0.46509, -2.18938, 2.39661, -3.5789, 9.47498, -7.05133, 2.77563, -5.17236, 3.94922, -2.11516, 7.00696, -3.65955, 5.93494, 1.2E-4, 5.73315, -1.33307, 3.00146, -2.29683, 3.40552, -2.29745, 3.40527, -2.29691, 3.41052, -2.29826, 3.40552, -2.29736, -4.08899, 0.91031, -4.19312, 0.30591, -3.78198, 1.72708, 1.94458, -1.81197, 3.29761, -5.11273, 3.29761, -5.1125, 3.30127, -5.1133, 3.29834, -5.11293, -5.61462, 2.93005, -4.16907, 4.60264, 6.33875, 5.0E-5, 8.25818, 1.8E-4, 6.33875, 5.0E-5, 6.33862, 0, 6.33875, 5.0E-5, 6.33862, -2.3E-4, -5.41785, -3.27246, -6.23792, -1.11265, 6.33862, 0, 6.33875, 5.0E-5, 6.33862, -2.3E-4, -5.41785, -3.27246, -6.23792, -1.11265, 6.33862, 0, 6.33875, 5.0E-5, 6.33862, -2.3E-4, -5.84473, -2.43268, -5.41785, -3.27246, -6.23792, -1.11265, 6.33862, 0, 6.33875, 5.0E-5, 6.33862, -2.3E-4, -5.84473, -2.43268, -5.41785, -3.27246, -6.23792, -1.11265, 6.33862, 0, 6.33875, 5.0E-5, 6.33862, -2.3E-4, -5.84473, -2.43268, -5.41785, -3.27246, -6.23792, -1.11265, 0.97888, -0.19897, 0.97876, -0.19885, 0.97913, -0.1991, -1.1156, -0.07129, -1.03296, 0.17875, 6.33813, 0.69318, 6.33813, 0.69339, 6.3385, 0.69283, -5.30908, -4.01929, -6.2605, -1.82134, 6.33813, 0.69318, 6.33813, 0.69339, 6.3385, 0.69283, -5.30908, -4.01929, -6.2605, -1.82134, 6.33813, 0.69339, 5.86365, -3.4671, 0.81213, -0.40811, 6.76697, -3.58282, 11.4469, -1.96868, 11.45203, -1.9696, -0.88953, -2.13329, -0.88611, -2.13393, 0.43359, -0.0912, 0.43665, -0.0918, 3.85217, -2.49918, 3.85132, -2.49893, 3.85364, -2.4996, 3.85242, -2.49886, -4.56311, -0.16656, -4.27686, 1.63307, 3.85217, -2.49918, 3.85132, -2.49893, 3.85364, -2.4996, 3.85242, -2.49886, -4.56311, -0.16656, -4.27686, 1.63307, 8.21692, -2.49918, 8.21619, -2.4989, 8.21912, -2.49974, 8.21704, -2.49899, -8.3833, -2.27802, -8.58777, 0.94927, 8.21692, -2.49918, 8.21619, -2.4989, 8.21912, -2.49974, 8.21704, -2.49899, -8.6167, -0.98679, -8.3833, -2.27802, -8.58777, 0.94927, 7.37134, -3.30856, 12.41431, 8.27475, 5.03223, 5.3649, 16.56738, -4.69051, 16.56677, -4.6904, -16.69592, 4.22455, -17.21716, -0.40106, -17.18958, 0.91057, 23.37048, 5.65172, 23.37061, 5.65173, -19.74512, 13.72241, -23.19849, -6.30896, -20.66296, -12.29097, -21.54504, -10.67737, 11.78699, 6.39905, 8.97485, -6.54509, 8.97668, -6.54443, 8.97314, -6.54498, -9.16003, 6.29684, -10.51062, 3.61272, -10.19128, 4.39423, 19.4541, -4.95688, 19.45349, -4.95721, -9.21136, 17.83838, -10.85797, 16.89392, -19.58765, 4.40833, -20.05249, -0.99821, -20.06396, 0.53438, -2.76941, -2.0E-5, 5.42688, 5.16846, 5.42639, 5.16859, 5.42725, 5.16837, 5.42651, 5.16835, -1.47632, -7.37567, -4.23132, -6.20157, 20.68066, 6.14915, 20.68188, 6.14935, 20.68115, 6.14952, -16.61328, -13.64954, -14.38501, -15.96301, -19.22412, -9.71638, 20.16882, 2.92332, 20.16907, 2.92352, 20.16895, 2.92372, -16.92566, -11.40161, -14.93347, -13.91937, -19.14722, -7.03084, -3.17346, 2.29468, -3.17346, 2.2948, -3.17383, 2.29492, 3.86035, -0.72046, 3.92627, -0.11053, 3.57788, -1.60757, 3.98193, 4.24239, -2.76941, -2.0E-5, 5.63757, 5.67308, 6.88318, -1.79926, 6.88257, -1.79909, 6.88403, -1.79958, 6.88269, -1.79922, -1.05884, 9.0E-5, -2.76941, 1.92603, -2.76941, 1.92603, -2.76917, 1.92593, -2.7699, -3.74422, 1.97339, -3.7442, 5.93433, 9.71082, 23.26709, 2.43442, 23.26611, 2.43469, 23.26758, 2.43422, -20.30627, -10.94754, -21.2063, -7.73747, -18.42749, -13.79614, -22.3219, -6.37859, 7.30859, 7.58801, 7.30774, 7.5882, 7.30835, 7.58817, -3.77112, -9.18768, -2.37268, -9.54572, -5.75, -8.41003, 2.42322, 11.13354, 2.42676, 11.13406, 1.32776, -11.67336, -0.2915, -10.95766, -3.50745, 0.62381, -3.50842, 0.6239, -3.50769, 0.62415, 2.84314, 1.20346, 2.19458, 1.47227, 2.52148, 1.66266, 3.25964, 0.32601, 18.70081, 2.18063, 18.69983, 2.18085, 18.70105, 2.18073, -16.30688, -8.72891, -17.07422, -5.77373, -14.82385, -10.9754, -17.90662, -5.18202, 16.0376, 5.53564, 16.03589, 5.53586, 16.03784, 5.53587, -12.44092, -10.60281, -10.71179, -12.22095, -14.60315, -7.92006, 11.64856, 5.04367, 11.64746, 5.04395, 11.64795, 5.04382, -8.76111, -8.56448, -7.40149, -9.68042, -10.48389, -6.69904, 5.93494, 1.2E-4, 5.93481, 0, 5.93494, 1.2E-4, 5.93457, -8.0E-5, -5.48047, -2.25873, -5.08569, -3.04376, -5.84277, -1.03005, -0.51147, 4.68912, -0.51282, 4.68954, -0.51245, 4.68948, -0.50708, 4.68988, 2.2749, -4.59824, 1.08862, -4.08079, 1.29688, -2.35011, 1.29639, -2.3497, 1.30078, -2.34915, -1.63342, 1.41148, -2.07971, 2.58892, 2.6073, -1.089, 13.94348, 0.03667, -12.87329, -5.33386, -13.45947, -3.4202, -11.94263, -7.17566, -13.72498, -2.45075, -1.91785, -2.49872, 0.65332, 3.08096, 0.86462, 3.02792, 0.16248, 3.14508, 1.36584, 2.8382, -0.40381, 8.0E-5, 0.36426, 0.17395, 0.37463, 0.1481, 0.33215, 0.2287, 0.39514, 0.0826, -0.40381, 0, -0.40381, 8.0E-5, 0.36426, 0.17395, 0.37463, 0.1481, 0.33215, 0.2287, 0.39514, 0.0826, 13.14526, 7.23195, 13.14673, 7.23233, -12.5564, -8.14676, -10.05994, -11.09568, -11.61743, -9.53398, -0.40381, 0, -0.40381, 8.0E-5, -0.40344, 0, 0.38586, 0.11906, 0.39404, 0.08899, 11.62097, -1.33482, 11.62061, -1.33466, -11.64233, 0.7619, -11.44336, -2.31882, -11.6687, -1.05698, 11.31714, 0.35954, 11.31995, 0.36011, -11.28479, -0.9101, -10.65149, -3.83797, -11.00317, -2.65531, 7.10645, 6.20679, 7.10828, 6.20706, -4.59216, -8.33358, -5.95435, -7.20226, 15.70642, 2.18066, 15.70544, 2.18088, 15.70667, 2.18088, -13.6051, -7.43875, -12.35742, -9.27869, -14.97595, -4.56939, 17.89697, 4.62022, 18.70081, 2.18063, 18.69983, 2.18085, 18.70105, 2.18073, -16.30688, -8.72891, -17.07422, -5.77373, -14.82385, -10.9754, -17.90662, -5.18202, 8.07715, 8.38257, 8.07642, 8.38277, 8.07678, 8.38255, -4.23511, -10.85876, -2.57703, -11.36804, -6.48315, -9.68203, 7.86646, -6.38689, -0.33337, 9.96489, 3.22266, 2.95717, 7.26184, 0, 7.26123, 9.0E-5, 7.2616, 8.0E-5, -6.37683, -3.47943, -7.17603, -1.11837, 7.26123, 9.0E-5, 0.75647, 5.40623, 0.75671, 5.40604, 0.75647, 5.40623, 0.75867, 5.40625, 0.88818, -5.43314, 0.44226, -5.38496, -2.91089, 10.3175, -2.91211, 10.31767, -2.91003, 10.31778, 5.98352, -8.84076, 4.90369, -9.58801, 3.94543, 1.5E-4, 3.94543, 1.5E-4, 3.94543, 1.5E-4, 2.3623, 0.03122, 9.22876, 5.17648, 8.95386, 2.25229, 2.93396, 4.84607, 2.93359, 4.84607, 2.93506, 4.84598, -5.57312, -1.021, -2.79468, -4.92856, -1.37256, -5.49668, -1.79272, -5.37389, -4.34241, 1.6095, -4.34253, 1.60963, -4.34204, 1.60956, 4.46387, -1.2601, 4.63586, -0.08522, 4.55151, -0.81514, -1.63965, 1.60947, -1.63977, 1.60962, -1.63904, 1.60956, 2.05359, -0.88321, 1.91528, -1.41125, 2.29895, -3.0E-5, 2.29895, 6.0E-5, 2.29956, 0, -2.19641, -0.67892, -2.24219, -0.50712, 11.62329, -1.33469, -3.17346, 2.29468, -3.17346, 2.2948, -3.17383, 2.29492, 3.86035, -0.72046, 3.92627, -0.11053, 3.57788, -1.60757, -0.40381, 8.0E-5, 0.36426, 0.17395, 0.37463, 0.1481, 0.33215, 0.2287, 0.39514, 0.0826, -0.40381, 0, -0.40381, 8.0E-5, 0.36426, 0.17395, 0.37463, 0.1481, 0.33215, 0.2287, 0.39514, 0.0826, 0.33215, 0.2287, -3.17322, 8.0E-5, 0, 0, 0, 0, 0, 0, 0, 0, 0, 0, 0, 0, 0, 0, 0, 0, 0, 0, 0, 0, 0, 0, 0, 0, 0, 0, 0, 0, 0, 0, 0, 0, 0, 0, 0, 0, 0, 0, 0, 0, 0, 0, 0, 0, 0, 0, 0, 0, 0, 0, 0, 0, 0, 0, 0, 0, 0, 0, 0, 0, 0, 0, 0, 0, 0, 0, 0, 0, 0, 0, 0, 0, 0, 0, 0, 0, 0, 0, 0, 0, 0, 0, 0, 0, 0, 0, 0, 0, 0, 0, 0, 0, 0, 0, 0, 0, 0, 0, 0, 0, 0, 0, 0, 0, 0, 0, 0, 0, 0, 0, 0, 0, 0, 0, 0, 0, 0, 0, 0, 0, 0, 0, 0, 0, 0, 0, 0, 0, 0, 0, 0, 0, 0, 0, 0, 0, 0, 0, 0, 0, 0, 0, 0, 0, 0, 0, 0, 0, 0, 0, 0, 0, -0.40381, 8.0E-5, 0, 0, 0, 0, 0, 0, 0, 0, 0, 0, -0.40381, 0, 0.39404, 0.08899, 0, 0, 0, 0, 0, 0, 0, 0, 0, 0, 0, 0, 0, 0, 0, 0, 0, 0, 0, 0, 0, 0, 0, 0, 0, 0, 0, 0, 0, 0, 0, 0, 0, 0, 0, 0, 0, 0, 0, 0, 0, 0, 0, 0, 0, 0, 0, 0, 0, 0, 0, 0, 0, 0, 0, 0, 0, 0, 0, 0, 0, 0, 0, 0, 0, 0, 0, 0, 0, 0, 0, 0, 0, 0, 0, 0, 0, 0, 0, 0, 0, 0, 0, 0, 0, 0, 0, 0, 0, 0, 0, 0, 0, 0, 0, 0, 0, 0, 0, 0, 0, 0, 0, 0, 0, 0, 0, 0, 0, 0, 0, 0, 0, 0, 0, 0, 0, 0, 0, 0, 0, 0, 0, 0, 0, 0, 0, 0, 0, 0, 0, 0, 0, 0, 0, 0, 0, 0, 0, 0, 0, 0, 0, 0, 0, 0, 0, 0, 0, 0, 0, 0, 0, 0, 0, 0, 0, 0, 0, 0, 0, 0, 0, 0, 0, 0, 0, 0, 0, 0, 0, 0, 0, 0, 0, 0, 0, 0, 3.22266, 2.95717, 7.26123, 9.0E-5, -0.40381, 8.0E-5, 0, 0, 0, 0, 0, 0, 0, 0, 0, 0, 0, 0, 0, 0, 0, 0, 0, 0, 0, 0, 0, 0, 0, 0, 0, 0, 0, 0, 0, 0, 0, 0, 0, 0, 0, 0, 0, 0, 0, 0, 0, 0, 0, 0, 0, 0, 0, 0, 0, 0, 0, 0, 0, 0, 0, 0, 0, 0, 0, 0, 0, 0, -0.40381, 8.0E-5, 7.26123, 9.0E-5, 0, 0, 0, 0, 0, 0, 0, 0, 7.26123, 9.0E-5, 0.38586, 0.11906, 0.39404, 0.08899, 0, 0, 0, 0, 0, 0, 0, 0, 0, 0, 0, 0, 0, 0, 0, 0, 0, 0, 0, 0, 0.40369, 0.01154, 0.38586, 0.11906, 0.39417, 0.08612, 0.40369, 0.01154, 0.38586, 0.11906, -0.40381, 0, -0.40344, 0, 0.40369, 0.01154, 0.38586, 0.11906, -0.40344, 0, 0.40369, 0.01154, 0.38586, 0.11906, 0.40369, 0.01154, 0.38586, 0.11906, 0.40369, 0.01154, 0.38586, 0.11906, 0, 0, 0, 0, 0, 0, 0, 0, 0, 0, 0, 0, 0, 0, 0, 0, 0, 0, 0, 0, 0, 0, 0, 0, 0, 0, 0, 0, 2.48676, -14.02173, 3.74249, -13.73926, 12.32031, -7.14191, 0.2677, -0.30115, 0.29559, -0.27429, 0.40369, 0.01154, 0.2677, -0.30115, 0.29559, -0.27429, 0.40369, 0.01154, -10.90674, -5.02209, -10.37964, -6.03687, -3.15649, -11.58627, 0.2677, -0.30115, 0.29559, -0.27429, 0.40369, 0.01154, 0.2677, -0.30115, 0.29559, -0.27429, 0.40369, 0.01154, -17.86975, 12.55872, -20.57715, 7.31929, -19.87939, 9.03097, 8.49829, -4.80136, 8.49915, -4.80127, -2.05359, 9.54333, -2.90649, 9.31848, -8.61743, 4.58521, 0, 0, 0, 0, 0, 0, 0, 0, 0, 0, 0, 0, 0, 0, 0, 0, 0, 0, 0, 0, -4.51855, 3.27844, -4.51746, 3.27866, 0.54822, -5.55444, 1.04663, -5.48364, 4.59827, -3.16364, 0, 0, 0, 0, 0, 0, 0, 0, 0, 0, 0, 0, 0, 0, 0, 0, 0, 0, 0, 0, 0, 0, 0, 0, 0, 0, 0, 0, 0, 0, 0, 0, 0, 0, 0, 0, 0, 0, 0, 0, 0, 0, 0, 0, 0, 0, 0, 0, 0, 0, 0, 0, 0, 0, 0, 0, 0, 0, 0, 0, 0, 0, 0, 0, 0, 0, 0, 0, 0, 0, 0, 0, 0, 0, 0, 0, 0, 0, 0, 0, 0, 0, 0, 0, 0, 0, 0, 0, 0, 0, 0, 0, 0, 0, 0, 0, 0, 0, 0, 0, 0, 0, 0, 0, 0, 0, 0.29559, -0.27429, 0.40369, 0.01154, 0, 0, 0, 0, 0, 0, 0.2677, -0.30115, 0.29559, -0.27429, 0.40369, 0.01154, 0.2677, -0.30115, 0.29559, -0.27429, 0.40369, 0.01154, 0.2677, -0.30115, 0.29559, -0.27429, 0.40369, 0.01154, -5.98846, -1.67773, -5.80164, -2.24036, -2.5603, -5.66815, -1.58002, 21.45972, -3.62122, 21.21411, -17.46606, 12.57025, 17.09363, -13.06694, -1.58002, 21.45972, -3.62122, 21.21411, -17.46606, 12.57025, 0, 0, 0, 0, 0, 0, 0, 0, 0, 0, 0, 0, 0, 0, 0, 0, 0, 0, 0, 0, 0, 0, 0, 0, 0, 0, 0, 0, 0, 0, 0, 0, 0, 0, 0, 0, 0, 0, 0, 0, 0, 0, 0, 0, 0, 0, 0, 0, 0, 0, 0, 0, 0, 0, 0, 0, 0, 0, 0, 0, 0, 0, 0, 0, 0, 0, 0, 0, 0, 0, 0, 0, 0, 0, 0, 0, 0, 0, 0, 0, 0, 0, 0, 0, 0, 0, 0, 0, -1.97583, -4.24182, -2.23755, -4.10983, 0.37463, 0.1481, 0.33215, 0.2287, 0, 0, 0, 0, 0, 0, 0, 0, -0.40381, 8.0E-5, 0.33215, 0.2287 ],
							"curve": [ 0.956, 0, 1.111, 0.33 ]
						},
						{ "time": 1.3333 }
					]
				}
			}
		}
	}
}
}