%YAML 1.1
%TAG !u! tag:unity3d.com,2011:
--- !u!687078895 &4343727234628468602
SpriteAtlas:
  m_ObjectHideFlags: 0
  m_CorrespondingSourceObject: {fileID: 0}
  m_PrefabInstance: {fileID: 0}
  m_PrefabAsset: {fileID: 0}
  m_Name: IconAtlas
  m_EditorData:
    serializedVersion: 2
    textureSettings:
      serializedVersion: 2
      anisoLevel: 1
      compressionQuality: 50
      maxTextureSize: 2048
      textureCompression: 0
      filterMode: 1
      generateMipMaps: 0
      readable: 0
      crunchedCompression: 0
      sRGB: 1
    platformSettings:
    - serializedVersion: 3
      m_BuildTarget: DefaultTexturePlatform
      m_MaxTextureSize: 4096
      m_ResizeAlgorithm: 0
      m_TextureFormat: -1
      m_TextureCompression: 1
      m_CompressionQuality: 50
      m_CrunchedCompression: 0
      m_AllowsAlphaSplitting: 0
      m_Overridden: 0
      m_AndroidETC2FallbackOverride: 0
      m_ForceMaximumCompressionQuality_BC6H_BC7: 0
    packingSettings:
      serializedVersion: 2
      padding: 2
      blockOffset: 1
      allowAlphaSplitting: 0
      enableRotation: 1
      enableTightPacking: 0
    secondaryTextureSettings: {}
    variantMultiplier: 1
    packables:
    - {fileID: 102900000, guid: 667113ba5edb79644bf07c2f2557f2bd, type: 3}
    totalSpriteSurfaceArea: 11275168
    bindAsDefault: 1
    isAtlasV2: 0
    cachedData: {fileID: 0}
  m_MasterAtlas: {fileID: 0}
  m_PackedSprites:
  - {fileID: 21300000, guid: cdea8d90705125d488b70dd1cf5f343d, type: 3}
  - {fileID: 21300000, guid: 216ec4124b104a64f92afa985715c3e0, type: 3}
  - {fileID: 21300000, guid: aa8659339567eee4294278d5ed1c5560, type: 3}
  - {fileID: 21300000, guid: fbca0c73bc26c994bb4d0554afc0465f, type: 3}
  - {fileID: 21300000, guid: a4686b440c1975342a6c11c90850f40f, type: 3}
  - {fileID: 21300000, guid: cd4e5fa51e15f634eb961bc20e828515, type: 3}
  - {fileID: 21300000, guid: 200c645aafaf0c14e90852c015f3549d, type: 3}
  - {fileID: 21300000, guid: e197105bb709f1c438ef550048a9ad2f, type: 3}
  - {fileID: 21300000, guid: 6f89924d25278dc45b637fbe01e2f317, type: 3}
  - {fileID: 21300000, guid: e632a0cdca03bba459ae9f847545e248, type: 3}
  - {fileID: 21300000, guid: ea78f6fd3e8b99146b6b8241ee661a67, type: 3}
  m_PackedSpriteNamesToIndex:
  - NineToothIronRake
  - CrescentMoon
  - Wild
  - SanZang
  - FullWild
  - WuKong
  - SanZangStaff
  - Scatter
  - WuJing
  - JinguBar
  - BaJie
  m_RenderDataMap: {}
  m_Tag: IconAtlas
  m_IsVariant: 0
